﻿,Press,Title,Text
0,news1,"[단신]금산인삼랜드 대전휴게소, 추석연휴 대비 코로나방역 강화 (대전=뉴스1) 송애진 기자|2020-09-22 16:49 송고기사보기네티즌의견인쇄확대축소","금산인삼랜드 대전휴게소는 추석 연휴 코로나19 확산 방지를 위해 매장 입구에서 고객의 발열체크 및 출입자 명부 작성을 실시하고 있다.© 뉴스1금산인삼랜드 대전휴게소는 추석연휴 코로나19 확산 방지를 위해 방역을 강화했다고 22일 밝혔다.금산인삼랜드 대전휴게소는 매장 입·출구 구분 운영을 통한 고객의 발열체크 및 출입자 명부작성, 매장 이용 시 2m 이상 사회적 거리두기 이행 등을 실시하고 있다.안내방송 및 현수막 등을 활용해 이번 추석에는 휴게소 머무르는 시간 최소화, 푸드코트 이용 불가에 따른 사전 먹거리 준비, 매장 이용 전 전화 체크인을 활용한 방문시간 절약 등 홍보에 힘쓰고 있다.thd21tprl@nate.com"
1,news1,"동아대발 코로나 확산에 경남 대학가도 '비상'…경남도 방역대책 논의 수업 후 동아리방 식당 등 모임 자제 및 귀가 안내 조치 요청가급적 비대변 수업 활용, 2학기 입국 외국인 유학생 관리 협조(부산ㆍ경남=뉴스1) 강대한 기자|2020-09-23 14:41 송고기사보기네티즌의견인쇄확대축소","최근 부산 동아대학교 부민캠퍼스에서 코로나19 확진자가 잇따라 발생함에 따라 민기식 경남도 통합교육추진단장이 23일 긴급 영상회의를 열고 2차 방역대책을 논의하고 있다.(경남도 제공)2020.9.23.© 뉴스1경남도가 최근 부산 동아대학교 부민캠퍼스에서 신종 코로나바이러스 감염증(코로나19) 확진자가 잇따라 발생함에 따라 23일 긴급 영상회의를 열고 2차 방역대책을 논의했다.민기식 경남도 통합교육추진단장 주재로 진행된 이번 영상회의에는 26개 대학과 시군 관계자 등이 참석했다. 이들은 현재 코로나 대응 관리현황을 점검하고 2학기 대학개강을 앞둔 시점에서 2차 방역대책을 논의했다.경남도는 회의를 통해 사회적 거리두기 2단계가 일주일 연장됨에 따른 코로나방역 지침준수와 2학기에 입국하는 유학생 관리 협조 등의 당부사항을 전달했다. 또 시군과 대학이 현장에서 겪고 있는 애로사항을 청취해 향후 상황 발생 시 공동 대응할 수 있도록 대책도 살폈다.특히 동아대 관련 확진자 발생과 관련해 감염병이 안정화 단계에 이를 때까지 학교에서는 △가급적 비대면 수업 △강의실 수업 운영 시 사회적 거리두기 및 방역지침 준수 △수업 후 동아리방, 식당 등 모임자제 및 바로귀가 안내조치 등을 요청했다.시군에서는 지역 내 소재 대학(학과), 동아리방 등에 대한 현장방역을 요청했다.민 단장은 “코로나19 상황이 안정화되기를 기대했으나 부산 동아대 관련 확진자의 잇따른 발생으로 위기감이 다시 고조됐다”면서 “더 이상의 지역감염 확산이 없도록 긴장의 끈을 늦추지 않고 방역에 끝까지 최선을 다하겠다”고 강조했다.경남도는 코로나19 발생초기인 지난 1학기, 도 감염병 관리지원단과 함께 대학별 방역컨설팅을 진행하고 외국인유학생 지원단을 운영해 기숙사 격리관리 외국인유학생들에게 식사제공과 방역마스크를 지원한 바 있다. 지난달 27일에는 2학기 대학 개강을 대비해 시군과 대학관계자가 참여한 영상회의를 통해 학사운영 가이드라인을 전달했다.현재 도내 26개 대학에서는 제한적 비대면 수업을 진행하고 있으며, 외국인 유학생의 경우 공항픽업과 기숙사 자가 격리 등으로 방역에 최선을 다하고 있다. 한편, 도내 외국인 유학생은 총 2193명으로 2학기 입국대상 유학생은 666명이며, 9월중 입국 402명, 10월 이후 139명, 그 외 125명은 입국의사가 없는 것으로 조사됐다. 유학생은 경남대 253명으로 가장 많으며, 동원과기대 106명, 인제대 90명, 경상대 75명으로 그 뒤를 이었다.rok1813@news1.kr"
2,news1,"김종인 ""정부·여당이 싸워야 할 대상은 野 아닌 코로나"" ""정부 스스로 방역체제 무너뜨려…질본 중심으로 통제해야""""與, 지지율 신경쓰는 '정치방역' 중단하고 '코로나방역' 집중해야""(서울=뉴스1) 김일창 기자|2020-08-23 16:32 송고 | 2020-08-23 16:55 최종수정기사보기네티즌의견인쇄확대축소","김종인 미래통합당 비대위원장이 23일 오후 서울 여의도 국회에서 열린 '코로나19 관련 기자간담회'에서 모두발언을 하고 있다. 2020.8.23/뉴스1 © News1 성동훈 기자김종인 미래통합당 비상대책위원장은 23일 신종 코로나바이러스 감염증(코로나19) 재확산과 관련해 더불어민주당이 통합당을 향한 공세를 펴고 있는 것과 관련, ""지금 정부·여당이 싸워야 할 대상은 국민과 야당이 아니라 코로나""라고 비판했다. 김 위원장은 이날 오후 국회에서 열린 코로나19 관련 긴급대책회의에서 ""코로나19 방역에 여야가 있을 수 없는 만큼 통합당은 코로나19와의 전쟁에 총력을 다할 것""이라고 말했다.그는 ""다시 강조하지만 코로나19는 질병관리본부(질본)를 중심으로 전문가가 지침을 내리고 통제할 수 있도록 해야 한다""며 ""그러나 (코로나) 재확산 상황을 보면 이 정부가 스스로 질본이 쌓아온 선진 방역체제를 무너뜨린 점이 다분하다""고 지적했다. 그는 ""예를 들어 일부 병원의 코로나 병상을 대폭 감축하고 지난 17일을 (임시)공휴일로 만들고 소비쿠폰을 발행하며 종교 모임 허용, 스포츠 관람 재허가, 문 대통령의 ‘곧 종식 발언’ 등 안일한 방역대책을 정부 스스로 하지 않았느냐""라고 반문했다. 이어 ""제가 질본을 다녀온 것도 신속한 조치를 해야 하는 상황에서 정부나 여당의 눈치를 보면서 일을 하지 못하는 것이 없도록 소신 있게 일하라는 데 힘을 싣기 위함이었다""면서 ""하지만 여당은 이에 함께하지는 못할망정 이마저도 정쟁으로 악용하려는 어처구니없는 행태를 보이고 있다""고 목소리를 높였다. 그는 ""부동산 정책 실패 등 총체적 위기로 민심이 분노하는 상황에서 코로나 확산으로 정국 운영하려는데 매몰돼 있다""면서 ""(정부·여당은) 지지율을 신경 쓰는 '정치 방역'을 중단하고 코로나19 방역에 집중하라""고 일침을 가했다. 김 위원장은 또 ""지난번 확산 때보다 위급한 만큼 사회적 거리두기와 재난 지원금, 추경 예산도 적극 검토해야 한다""며 ""여야 합의하에 코로나19 특위 구성이 시급하다. 감염병 예방은 물론 경제·사회적 영향에 대한 종합적인 대책을 강구해야 한다. 비상 상황에서 지방 보건소에 대한 질본의 지휘권을 인정하는 것도 바람직하다""고 제안했다.김 위원장은 2차 재난지원금 지급에 대해 ""코로나 사태가 새로 전파되는 과정에서 경제에 미치는 영향이 얼마인가를 정부가 판단할 것""이라며 ""예를 들어 코로나로 가장 심각한 경제적 타격을 보는 소상공인과 자영업자, 거기에 종사하는 사람들, 경우에 따라 제조업에서 제대로 가동을 못해서 실업하는 사람들의 (문제를) 어떻게 해소해 줄 것이냐는 측면에서 꼭 필요하다면 재난지원금이 나갈 수 밖에 없다""고 밝혔다.그는 재원과 관련해선 ""정부가 아직 예산확보가 안 돼 있어서 새로이 추경을 할 수밖에 없지 않느냐 생각한다""고 말했고, 지급 대상에 대해선 ""재난지원금이 꼭 경제적으로 필요로 하는 사람에게 지급해야 되기 때문에 경제 상황에 대한 확실한 정부 나름의 판단이 있어야 할 것""이라고 밝혔다. 이와 함께 김 위원장은 전공의 무기한 파업에 대해서는 ""국민 생명을 일선에서 책임지는 전공의들의 무기한 파업은 중단돼야 한다”며 “국민이 먼저라는 자세로 한발씩 양보하기를 당부드린다""고 했다. 그러면서 ""의료계가 반대하는 정책을 밀어붙인다는 의혹이 있는 만큼 정부 태도에도 변화를 요구한다""고 덧붙였다.gayunlove@news1.kr"
3,news1,"충남교육청, 코로나19 대응 학생 심리방역 지원 코로나19 자가격리·확진자 위한 심리방역지원팀 구성(충남=뉴스1) 한희조 기자|2020-09-14 18:03 송고기사보기네티즌의견인쇄확대축소","충남도교육청 전경 © 뉴스1충남도교육청이 코로나19 확진과 자가격리 대상 학생들을 위한 심리방역 활동에 적극 나서고 있다.도교육청은 최근 코로나19로 인해 우울·불안·공포·분노감을 표출하는 학생이 늘어나고 있는 가운데 코로나19 심리방역지원팀을 구성했다고 14일 밝혔다.심리방역지원팀은 지역 교육청 Wee센터 및 Wee클래스와 연계해 대상 학생들의 심리 상태 안정을 위해 매일 전화로 대화하거나, 생활이 어려운 학생을 위해 꾸러미를 지원하는 등 학생의 안정적 치료 및 격리 지원에 힘쓰고 있다.야간 시간에도 학생 고민을 상담해주기 위해 교육청 어울림톡 시스템에 온라인 상담방을 개설하여 15명의 자원봉사 교사 및 상담사가 오후 6시부터 자정까지 학생들을 상담하고 있다. 특히 마음 건강 고위험군 학생들에게는 25명의 정신과 자문의를 위촉하여 지원하고 있다. 충남도교육청은 앞으로 고위험군 학생의 유형별 대응 매뉴얼과 고위험군 학생을 조기 발견할 수 있는 연수 자료를 자체 개발·보급할 예정이다.gmlwh1010@news1.kr"
4,news1,"""코로나 방역 노하우 좀…"" 前 영국 총리, 서울시청 방문 메이 전 총리, 서울 방역대응에 관심…대사관에 요청서울시 '코로나19 재난안전대책본부 상황실'도 시찰(서울=뉴스1) 전준우 기자|2020-09-17 11:15 송고기사보기네티즌의견인쇄확대축소","테리사 메이 전 영국 총리. © AFP=뉴스1테리사 메이 전 영국 총리가 17일 오후 서울시의 코로나19 방역 대응 노하우를 얻기 위해 서울시청을 직접 방문한다.이번 방문은 메이 전 총리가 서울시 방역대응에 큰 관심을 보이며 주한 영국대사관을 통해 요청해 성사됐다. 테리사 메이 전 총리는 보리스 존슨 영국 총리의 전임자로 영국 내무부 장관, 보수당 대표를 거쳐 제76대 영국 총리를 지냈다.서울시는 약 40분간 브리핑을 통해 검사·확진(Test)→역학·추적(Trace)→격리·치료(Treat)를 주요 골자로 하는 코로나19 방역대책을 메이 전 총리에게 소개할 계획이다.드라이브스루·워킹스루 등 혁신적인 선별지료소, 익명검사와 무료 선제검사, 빅데이터와 4차 산업혁명 신기술을 기반으로 한 역학조사를 설명한다. 서울시 재난긴급 생활비, 자영업자 생존자금 등 민생정책도 소개한다.오후 4시10분부터는 메이 전 총리가 각별한 관심을 보인 '코로나19 재난안전대책본부 상황실'도 시찰할 예정이다.메이 전 총리는 '제21회 세계지식포럼' 참석차 방한했다. 서울시 방문은 지방자치단체 중 유일하다.조인동 서울시 기획조정실장은 ""테리사 메이 전 영국 총리가 관심을 갖고 있는 서울시의 코로나19 방역은 시민이 주인이라는 시정철학과 시민이 스스로 방역의 주체가 된다는 원칙이 토대""라며 ""서울시 방역의 우수성이 국제적으로 높은 평가를 받고 있는 만큼 서울의 우수사례를 적극 공유하고 감염병 대응력을 강화시키는데 최선을 다할 것""이라고 말했다.  junoo5683@news1.kr"
5,news1,"서울시, 코로나 방역방해 강력대응…경찰에 협조요청 서정협 권한대행,  '서울시 코로나19 방역협의회' 주재(서울=뉴스1) 전준우 기자|2020-09-14 14:11 송고 | 2020-09-14 14:13 최종수정기사보기네티즌의견인쇄확대축소","서정협 서울시장 권한대행./뉴스1 © News1 유승관 기자서울시가 코로나19 방역방해 행위에 강력 대응하기 위해 적극적인 수사와 현장 동행을 경찰에 요청했다. 서정협 서울시장 권한대행은 14일 오전 서울시청에서 '코로나19 방역협의회'를 열고 '사회적 거리두기' 2단계 조정과 관련한 협조사항을 공유하고 코로나19 방역 총력대응체계를 구축했다.이날 회의는 서 권한대행과 이동진 서울시구청장협의회장, 장하연 서울지방경찰청장, 신열우 서울소방재난본부장, 김영철 서울시교육청 부교육감 등 주요 기관장들이 참석했다. 회의에서는 현재 코로나19 방역현황을 공유하고, 각 기관별로 각자 자리에서 방역활동에 집중하기 위해 필요한 부분을 상호 요청하고 논의했다. 특히 서 권한대행은 이날 회의에서 경찰에 코로나19 방역방해 행위에 대한 강력한 현장대응을 요청했다. 또 연락체계 정비를 통해 정보를 공유하고 현장 혼란을 최소화해줄 것을 모든 기관에 당부했다.다른 기관들도 방역수칙 위반에 따른 영업장 조치 협조, 역학조사 인력부족에 따른 문제점 등 방역활동 애로사항 등을 공유하고 해결 방안을 논의했다. 서 권한대행은 ""지금은 하나 된 협력이 절실하게 필요한 시기""라며 ""작은 방심이 재 확산을 불러일으킬 수도 있는 중요한 시기인 만큼, 기관 간 긴밀한 협력을 통해 방역에 더 철저히 나서야 한다""고 강조했다.그는 ""방역협의회를 계기로 방역활동 최전선에 있는 의료진과 구급대원, 경찰, 역학조사관, 관련 공무원 등 모든 방역인력들에게 힘이 될 수 있는 보다 강화된 방역대응체계를 만들어가겠다""고 말했다.  junoo5683@news1.kr"
6,news1,"트럼프 '코로나19' 확진…여야 ""철저한 방역의 중요성 일깨워…쾌유 바란다"" 여 ""방역-민생에 최선의 노력""…민병두 ""미국 대선 일정에 변수""야 ""미 대선 변수될지 알 수 없어…코로나19 여야, 좌우 안가려""(서울=뉴스1) 이균진 기자, 정윤미 기자|2020-10-02 18:59 송고기사보기네티즌의견인쇄확대축소","도널드 트럼프 미국 대통령이 2일(현지시간) 신종 코로나바이러스 감염증(코로나19) 확진 판정을 받았다. 사진은 지난 8월 6일 트럼프 대통령이 오하이오주 클라이드 소재 월풀 세탁기 공장을 찾았을 때 마스크를 착용한 모습이다. © AFP=뉴스1 © News1 최종일 기자도널드 트럼프 미국 대통령이 신종 코로나바이러스 감염증(코로나19) 확진 판정을 받은 것으로 알려지자 여야는 2일 '방역의 중요성'에 한 목소리를 냈다.강선우 더불어민주당 대변인은 이날 뉴스1과의 통화에서 ""트럼프 대통령 내외의 쾌유를 빈다""며 ""국민 여러분도 철저하게 개인 방역 수칙과 위생 잘 지켜서 함께 어려운 시기 잘 이겨내주시길 바란다""고 밝혔다.강 대변인은 ""민주당은 코로나19 방역과 민생을 지키는데 더욱더 세심하게 최선의 노력을 다할 것""이라며 ""또한 문재인 정부와 함께 국민이 걱정하지 않도록 의회 외교를 하는데 있어서 여당으로서의 역할을 빈틈없이 할 것""이라고 말했다.여권에서는 트럼프 대통령의 코로나19 확진 판정이 한달여 남은 미국 대선에 영향을 미칠 것이라는 전망도 나왔다. 정치권에서는 미국 대선에 영향을 미칠 수 있지만 문재인 정부의 한반도 평화프로세스 추진에 결정적인 영향을 주진 않을 것이라는 전망이다.민병두 전 민주당 의원은 이날 자신의 페이스북을 통해 ""트럼프 부부가 코로나19 양성 판정을 받았으니 김정은이 치유를 비는 친서를 보낼 법 하다""며 ""이럴 때 김정은이 걱정이라도 덜어줘야지""라고 밝혔다.민 전 의원은 ""그동안 20여 차례에 걸쳐 다정한 친서를 교환했는데 그 내용이 브로맨스 같았다고 한다. 북한핵 보다 지척에 있는 것이 코로나19""라며 ""미국 대선 일정에도 큰 변수다. 선거에 미치는 영향도 클 듯하다. 그동안 트럼프는 코로나19도 비껴간다며 마스크를 쓰지 않았고 일부 추종자들도 그를 따랐다""고 지적했다.최형두 국민의힘 원내대변인은 뉴스1과의 통화에서 ""코로나19가 팬데믹이란 사실을 다시 일깨워주고, 철저한 방역의 중요성을 일깨워준다""고 밝혔다.최 원내대변인은 ""미국 대선이 한달여 남았지만 (트럼프 대통령의 확진 판정이) 어떤 변수가 될지 알 수 없다""며 ""투명한 것이 가장 중요하다""고 강조했다.그러면서 ""코로나바이러스는 여야, 좌우, 지휘 고하를 가리지 않는다""라며 ""방역도 여야, 좌우가 없다""고 덧붙였다.최 원내대변인은 ""트럼프 대통령이 (확진 판정 받은) 사실을 숨기지 않고 투명하게 공개하고 치료에 들어갔다""며 ""방역의 투명성이 가장 중요하다는 것을 보여준다""고 말했다.asd123@news1.kr"
7,news1,"여수시 '코로나 안전신고 전담담당관제' 운영…""방역 앞장"" 코로나19 전용 신고 코너 운영, 방역 사각지대 신속 대응(여수=뉴스1) 서순규 기자|2020-08-10 11:50 송고기사보기네티즌의견인쇄확대축소","여수시청© 뉴스1전남 여수시는 10일부터 코로나19 안전신고 민원처리를 신속하게 처리하기 위한 전담담당관제를 운영한다고 밝혔다.코로나19 신고사항에 대해 부서 지정이 불명확한 경우나 시급한 사항에 대해 '안전신고 전담담당관'이 직접 나서 방역 사각지대 현장점검 등 신속한 대응으로 방역공백 방지에 나선다.시민들은 '안전신문고' 앱이나 포털에서 코로나19 전문 신고코너를 통해 코로나19 방역지침 위반사항, 자가격리 수칙 위반을 신고할 수 있다.시는 신고 우수자나 코로나19 방역 제도개선 제안 공로자 대해서는 내부 심사를 거쳐 포상금을 지급할 예정이다.권오봉 여수시장은 ""코로나19 안전신고 전담 담당관제로 코로나19 민원을 신속 해결하고, 방역 사각지대를 조기에 차단해 시민들의 안전과 불안감을 해소하겠다""고 말했다.  sk@news1.kr"
8,news1,'코로나19' 최대 위기 직면한 북한…방역 체계 성패 시험대 현 방역·보건 체계로 코로나 대응 가능 여부 미지수 외부에 손 내밀 가능성…남측에도 지원 요청할수도(서울=뉴스1) 김정근 기자|2020-07-26 12:00 송고기사보기네티즌의견인쇄확대축소,"(평양 노동신문=뉴스1) = 북한 노동당 기관지 노동신문은 20일 '신형 코로나비루스(바이러스) 감염증을 철저히 막자'는 제목의 특집 기사를 싣고 관련 사진을 게재했다. [국내에서만 사용가능. 재배포 금지. DB 금지. For Use Only in the Republic of Korea. Redistribution Prohibited] rodongphoto@news1.kr북한이 신종 코로나바이러스 감염증(코로나19) 확산 이후 최대 위기에 직면했다. 개성에 코로나19 감염 의심자가 발생하며 북한의 방역 체계가 본격적인 시험대에 올랐다.김정은 국무위원장은 지난 1월 코로나19 사태를 두고 ""국가 존망과 관련된 중대한 문제""라고 언급했다. 이에 북한은 북·중 국경을 폐쇄하는 초강수를 두기도 했다.또 내각과 중앙비상방역지휘부를 통해 방역사업을 강화했다. 이어 평양종합병원 건설을 다른 건설 사업에 우선할 것을 강조하면서 코로나19 대비에 박차를 가했다.북한은 그동안 국내에 코로나19 확진자가 한 명도 발생하지 않았다고 밝히면서도 방역 대비에는 철저한 모습을 보여줬다. 주민들에게 마스크 착용을 강조하고 발열 체크를 생활화하는 등 사회적 방역 체계를 수립에 주의를 기울였다.다만 실제 코로나19가 번졌을 경우 현 방역 및 보건 체계로 대응이 가능할지는 미지수다. 북한의 의료·보건 시스템과 재정상황을 고려해볼 때 스스로의 힘으로 코로나19 확산을 막아내기란 쉽지 않을 것으로 예상된다.대북 제재로 인한 경제적 어려움을 겪고 있는 북한은 코로나 방역·진단 물품이 부족해 올해 초 러시아, 스위스 등 국제사회로부터 진단키트와 소독제 등을 지원받은 바 있다.세계보건기구(WHO)가 동남아시아 등의 지역사무소를 통해 북한에 유전자증폭검사(PCR)를 위한 시약을 지원하고 있지만, 신종 바이러스에 대해 경험축적이 돼 있는 지 여부에 대해 우려섞인 평가가 많다.병원 시설도 부족하다. 평양종합병원 건설 등으로 보건·방역 사업을 강화하고자 노력해 온 북한이지만 아직은 시간이 더 필요할 것으로 예측된다.최근 북한에서 코로나19 백신 관련 임상시험도 진행 중이라는 보도가 나오기도 했지만 아직 '완성' 단계는 아닌 것으로 보인다.이러한 상황 속 코로나19가 확산할 경우 인접국이나 국제사회에 도움을 요청할 가능성이 제기된다. 일각에서는 남측에도 진단키트나 의료 물품 등의 인도적인 지원을 요청할 수 있다는 분석도 나온다.김 위원장은 25일 당 정치국 비상확대회의를 개최해 국가비상방역체계를 최대비상체제로 이행하는 특급경보를 내리며 ""비상사태에 직면한 현실을 엄중하게 받아들여야 한다""라고 목소리를 높였다.이에 북한은 개성을 완전 봉쇄하고 개성 주민과 개성을 다녀간 주민을 대상으로 격리조치를 시행했다. 아울러 ""비상방역지휘부의 지휘에 하나와 같이 절대복종할 것""을 강조하며 ""방역 위기를 타개함으로써 반드시 우리 인민의 안녕과 조국의 안전을 사수하자""고 촉구했다.다만 완벽한 조치로 보긴 힘들다. 특히 개성을 다녀간 후 다른 도시를 방문한 주민들도 있는 만큼 북한 당국이 고려해야 할 방역 범위는 더 넓어질 것으로 보인다.(평양 노동신문=뉴스1) = 북한이 25일 노동당 중앙위원회 정치국 비상확대회의를 긴급소집했다고 당 기관지 노동신문이 26일 보도했다. [국내에서만 사용가능. 재배포 금지. DB 금지. For Use Only in the Republic of Korea. Redistribution Prohibited] rodongphoto@news1.kr carrot@news1.kr"
9,news1,"문대통령 ""코로나 중대고비…방역방해 위법행동 엄단""(종합) 노영민 실장 주재 코로나 점검회의 보고받고 지시 내려""수도권 방역 위한 긴급대응지원체계 구축해 총력 지원""(서울=뉴스1) 박주평 기자, 최은지 기자|2020-08-16 14:47 송고기사보기네티즌의견인쇄확대축소","문재인 대통령 (청와대 제공) 2020.8.11/뉴스1문재인 대통령은 16일 전날(15일) 광화문에서 전광훈 목사 등이 주도한 대규모 집회가 열리고, 수도권에서 확진자가 급증하는 사태에 대해 ""방역수칙을 지키지 않고 방역에 방해하는 일체의 위법행동에 대해 국민안전 보호와 법치 확립 차원에서 엄단할 것""이라고 강조했다.문 대통령은 이날 오전 11시에 노영민 비서실장 주재로 열린 신종 코로나바이러스 감염증(코로나19) 상황 점검회의 결과를 보고받고 이같이 지시했다고 강민석 청와대 대변인이 밝혔다.강 대변인은 이날 오후 청와대에서 기자들에게 노 실장 주재로 코로나19 상황점검 회의가 열린 사실과 이와 관련한 문 대통령의 지시사항을 전달했다.문 대통령은 우선 ""매우 엄중한 상황으로 코로나 방역에 중대고비니 정부는 범국가적 역량을 총동원해 코로나 확산저지에 나서라""고 주문했다.16일 0시 기준 코로나19 신규 일일 확진자는 279명(국내발생 267명, 해외유입 12명)이다. 이는 지난 3월8일 367명 이후 161일만에 최대 규모다. 지난 13일 56명, 14일 103명, 15일 166명 등 급증세가 뚜렷하다.특히 수도권 지역 발생 확진자만 245명으로 서울·경기·인천에서 하루 만에 또다시 사상 최대 감염자가 쏟아져 나왔다. 서울시에 따르면 서울 신규 확진자 146명 중 보수집회를 이끌고 있는 전광훈씨가 담임목사로 있는 성북구 사랑제일교회에서 가장 많은 107명의 확진자가 나왔다.문 대통령은 ""서울·경기 지역에 대한 사회적 거리두기 2단계 격상조치 시행에 빈틈이 없도록 수도권 방역을 위한 긴급대응지원체계를 구축해 수도권 방역을 총력 지원하라""며 ""특히 확진자가 대규모로 발생해 병상 부족 문제가 발생할 수 있으니 수도권 공동대응체계를 신속히 가동해 병상과 생활치료센터 준비에 만전을 가하라""고 말했다.또 ""집단감염이 계속 발생하고 있는 교회의 방역수칙을 철저히 지키면서 종교활동이 이뤄지도록 특별한 협조를 구하라""며 ""집단감염이 발생한 교회의 경우 진단조사, 역학조사, 자가격리 등을 통해 지역사회로 코로나가 전파되지 않도록 모든 조치 취하라. 다단계 방문 판매는 조용한 전파로 코로나 확산의 진원지가 되는 만큼 방역당국과 서울시는 특단의 조치를 취하라""고 당부했다.문 대통령은 ""8월15일 집회 참석자들과 가족, 접촉자들은 공동체의 안전을 위해 조속한 자가격리와 진단검사에 적극 협조해주길 바란다""면서 ""이를 위해 정부는 만반의 준비와 적극적인 조치를 해야 한다""고 강조했다. 앞서 문 대통령은 이날 오전 전광훈 목사 등이 주도한 전날 광화문 집회와 관련해 SNS 메시지를 내고 ""대규모 집단 감염원이 되고 있는 일부 교회의 상황은 매우 우려스럽다. 코로나 확산을 막기 위해 온 국민이 오랫동안 애써온 상황에서 국민의 노력에 찬물을 끼얹는 대단히 비상식적 행태""라면서 ""정부는 강제수단을 동원해서라도 매우 단호하고 강력한 조치를 취해 나가지 않을 수 없다""고 밝혔다. 문 대통령이 특정 집단을 지목해 이런 경고성 발언을 내놓는 것은 이례적으로 평가된다. 이와 관련해 청와대 핵심 관계자는 ""상황인식이 엄중하고 심각하다고 본 것이고, 엄중한 시기에서 당장 방역을 위해 급히 해야 할 일을 지시한 것""이라며 ""세 번째는 확진자 급증의 진원이 되는 교회에 대한 협조를 당부한 것이고, 네 번째는 8월15일 집회에 대해 정부부처에 지시한 내용""이라고 설명했다. 그는 ""이는 8월15일 집회에 대한 엄중한 인식이 반영된 것이고, 정부 즉 내각에 지시한 내용""이라며 ""지시사항에 대한 구체적인 조치는 중앙재난안전대책본부를 통해 발신될 것""이라고 말했다.jupy@news1.kr"
10,news1,"북한 박봉주, '평양 관문' 남포항 코로나19 방역 점검  ""항만 작업서 방역 규정 더 엄격히 시행"" 주문 최룡해 이어 고위급 간부 또 파견…민생 살펴(서울=뉴스1) 양은하 기자|2020-08-04 07:04 송고 | 2020-08-04 07:23 최종수정기사보기네티즌의견인쇄확대축소","(평양 노동신문=뉴스1) = 박봉주 북한 국무위원회 부위원장이 남포시를 현지 시찰했다고 4일 노동당 기관지 노동신문이 밝혔다. 신문은 ""박봉주 동지는 남포항의 방역사업 정형을 현지에서 료해(파악)하였다""라며 ""최대비상체제의 요구에 맞게 항만작업에서 방역 규정을 엄격히 시행할 것을 강조하였다""라고 전했다. [국내에서만 사용가능. 재배포 금지. DB 금지. For Use Only in the Republic of Korea. Redistribution Prohibited] rodongphoto@news1.kr박봉주 북한 노동당 중앙위원회 부위원장이 평양의 관문인 남포항을 찾아 신종 코로나바이러스 감염증(코로나19) 방역 실태를 점검했다. 당 기관지 노동신문은 4일 ""박봉주 동지는 남포항의 방역 사업 정형을 현지에서 요해(파악)하였다""라고 보도했다. 박 부위원장은 일꾼(간부)들에게 ""당 중앙위원회 정치국 비상 확대회의 정신을 높이 받들고 최대비상체제의 요구에 맞게 사고와 행동의 일치성을 보장""하라고 강조했다. 또 ""항만작업에서 방역 규정을 더 엄격히 시행하도록 사업을 치밀하게 짜고 들어 악성 전염병의 유입을 철저히 차단하라""라고 주문했다. 최근 국가비상방역체계를 '최대비상체제'로 격상한 북한은 코로나19 유입을 막기 위해 국경과 철도, 항만을 통해 반입되는 물자에 대한 검역도 강화하고 있다. 이런 가운데 고위급 간부를 연이어 코로나19 방역 현장에 파견하면서 강도 높은 방역 사업이 진행되는 지역의 민생을 살피는 모습이다. 앞서 공식 서열 2위인 최룡해 최고인민회의 상임위원장 겸 국무위원회 제1부위원장이 월북한 탈북민이 귀향한 개성시를 찾은 바 있다. 북한은 이 탈북민이 코로나19 확진 의심자라며 개성시 전체에 대한 인력 및 물자를 통제하는 조치를 취하고 있다.한편 박 위원장은 이외에도 대안중기계연합기업소와 남포대경수산사업소, 령남배수리공장 등 남포시의 여러 경제 현장을 찾았다.yeh25@news1.kr"
11,news1,부여 서동한우 ‘손님보호 차원’ 코로나19 자체방역 화제 음식점 입구에 원스톱 열감지기·방역소독기 설치(부여=뉴스1) 김낙희 기자|2020-09-03 09:42 송고기사보기네티즌의견인쇄확대축소,"구도현 서동한우 대표가 자신이 운영 중인 음식점 입구에 설치된 방역기에 서서 발열 체크 및 전신 소독을 하고 있다.© 뉴스1충남 부여군 소재 서동한우(대표 구도현)가 지역 최초로 원스톱 열감지기 및 방역소독기(이하 방역기)를 설치해 눈길을 끌고 있다.인구 7만에도 못 미치는 소도시의 음식점 대표가 신종 코로나바이러스 감염증(코로나19)으로부터 손님을 보호하기 위해 지자체의 지원 없이 설치한 것이다.구도현 대표는 이에 대해 “방역기 가격이 비쌌지만 코로나19 방역에 비용을 아껴야 하냐”며 “손님을 위한 비용은 아끼지 말아야 한다는 평소 생각대로 설치했다”고 말했다.그러면서 “코로나19 상황이 금방 끝나고 지날 거 같으면 설치하지도 않았다”면서 “방역기 앞에 서면 발열 체크, 전신 소독 등이 한 번에 이뤄지니까 손님들이 매우 좋아한다”고 뿌듯해했다.서동한우는 전국적으로 유명세를 탄 맛집이면서 지역을 대표하는 맛집 중 한 곳이다.그렇기에 최근 격상된 음식점 내 방역 수칙만으론 안심할 수 없었다고 한다.구 대표는 자신의 음식점을 찾은 단체 손님 중 2명이 방역기를 통과하지 못한 일화를 예로 들며 “이들은 1~2분이 지나 정상체온을 찾았다”며 “이들과 함께 온 일행이 더 불안해 보였다”며 아찔한 상황을 전하기도 했다.서동한우 본점이 있는 부여군에서도 지난 3~4월 코로나19 확진자가 집중 발생했다. 현재까지 발생한 총 15명의 확진자 가운데 11명이 이 기간 발생해 지역 경제가 큰 타격을 받았다.여기에 최근 터진 서울 광화문 집회발 코로나19 재확산 여파까지 더해진 상태다.구도현 대표는 “지역 내 코로나19 확진자가 쏟아지기 시작한 지난 3월부터 4월까지 매출은 줄었지만 큰 타격은 없었다”면서 “5월부터 매출이 다시 늘기 시작해 8월 중순까지 이어졌다”고 설명했다.이어 “전국적인 코로나19 재확산이 시작된 8월 중순 뒤부터 다시 매출이 줄기 시작했다”며 “하지만 코로나19 지역 내 확산 시기에 비해 덜하다”고 말했다.그는 “지난 3월 이후부터 매출이 줄었음에도 직원들의 월급을 줄이지 않았다”며 “어려워도 직원들과 함께 가겠다”고 덧붙였다. klucky@news1.kr"
12,news1,"코로나 방역과 표현의 자유 사이…'차벽 봉쇄'만이 답일까  ""차량집회 전파 가능성 낮아"" ""방역수칙 준수하면 광장도 가능""불특정 다수 참여시 돌발사태 못막아…""차벽, 효율적 예방수단""(서울=뉴스1) 박종홍 기자|2020-10-07 06:00 송고 | 2020-10-07 09:39 최종수정기사보기네티즌의견인쇄확대축소","보수단체가 개천절 집회를 예고한 3일 서울 종로구 광화문 광장 일대가 펜스와 차벽으로 둘러 쌓여있다.2020.10.3/뉴스1 © News1 임세영 기자개천절인 지난 3일 집회를 막기 위해 경찰이 서울 광화문 일대를 원천봉쇄하고 차량 집회까지 제한한 것을 두고 논란이 이어지고 있다. 신종 코로나바이러스 감염증(코로나19) 확산 방지를 위해 어쩔 수 없는 조치였다는 반응이 많지만, 표현의 자유를 침해했다는 지적도 적지 않다.일부 보수단체들은 오는 9일 한글날에도 집회를 열겠다고 예고해 비슷한 논란이 반복될 수 있는 상황이다. 전문가들은 '코로나19 방역'과 '표현의 자유' 사이에서 절충안을 마련해야 한다고 조언한다.경찰은 코로나19 방역을 위해 광장 집회 차단은 불가피하다는 입장이다. 개천절 전부터 '집회 불가' 입장을 피력해 온 경찰은 6일 ""코로나19 감염 예방을 위한 접촉 차단 목적상 차벽 외에 다른 효율적인 수단이 없다""며 차벽이 위법이 아니라는 입장을 재확인했다.경찰은 광장집회뿐 아니라 차량집회 역시 금지 대상이라는 입장이었다. 지난달 28일 장하연 서울지방경찰청장은 ""(차량시위)도 일반집회와 같다""며 금지된 집회를 강행하면 당연히 제지하고 차단하는 것은 법적 문제가 없다""고 밝힌 바 있다.한글날에도 방역을 위해 집회를 최대한 차단하겠다는 것이 경찰의 방침이다. 이를 두고 국민의 기본권인 표현의 자유를 과도하게 침해한다는 주장이 나온다. 개천절 집회를 준비하던 보수단체들은 경찰의 집회 금지 방침에 불복하며 법원에 집회 금지 통고 처분 집행정지 신청을 내기도 했다.시민사회에서도 비슷한 우려를 표명한다. 참여연대 관계자는 ""코로나19 방역의 필요성은 공감하지만 이번 대응은 과잉으로 볼 수 있다""며 ""집회 제한 인원 등 집회 방법을 제한하는 구체적인 방침에 대해서는 방역 전문가들 권고에 따른다면 집회를 허용할 수 있지 않을까 싶다""고 말했다.한 보수단체 관계자는 ""시청이나 구청 같은 행정기관에서 주최 측과 집회 지침 마련을 위한 논의를 하겠다는 노력이 없는 것 같다""며 ""행정부에서 지침을 마련하고 지침을 지키지 않는 단체에는 페널티를 부과하겠다는 약속을 마련하는 과정이 필요하다""고 말했다.다만 집회가 대규모로 이뤄졌을 때 참가자가 불특정 다수가 될 수밖에 없다는 점에서 집회 규모를 관리할 수 있는 수준에서 참가자 수에 제한을 두어야 한다는 지적이 나온다.그럼에도 대규모 집단감염이 발생했던 광복절 집회 당시 소규모로 인원을 제한해 허용된 집회에 수천명의 불법 참가자들이 몰리면서 통제 불가능한 상황이었던 점을 감안하면 이 같은 돌발사태를 예방할 수 있는 당국의 사전 대응도 필요할 수밖에 없는 상황이다.3일 오전 서울 용산구 한남대교 북단 인근에 마련된 합동검문소에서 경찰관들이 현장 통제를 하고 있다. 경찰은 법원에서 손을 들어준 10대 미만 차량시위를 제외하고 사전에 통지되지 않은 10대 미만의 차량시위에 대해 경비교통 합동검문소를 운영한다고 밝혔다. 2020.10.3/뉴스1 © News1 이재명 기자방역 전문가들은 제한된 조건 속에서 집회를 일부 허용할 수 있다는 입장을 보였다. 최원석 고려대 안산병원 감염내과 교수는 ""지난 광복절 집회가 코로나19 전파에 영향을 줬다고 생각되니, 대면하거나 모이는 형태의 집회를 막는 것은 필요했다""면서도 ""차량으로 하는 시위까지 막는 것이 옳았는지는 다른 문제""라고 설명했다.천은미 이대목동병원 호흡기내과 교수도 ""법원에서 차량 집회를 허용하면서 내린 제한사항을 집회 주최측이 잘 지킨다면 차량 집회가 허용될 수 있을 것 같다""고 조언했다. 법원은 개천절 일부 집회를 허용하면서 △집회 참가자의 이름과 연락처를 경찰에 제공할 것 △한 차량에 한 명씩 차량 9대만 참여할 것 △차량 창문을 열지 말 것 △제한된 신고와 차량 이동 경로를 지킬 것 등의 조건을 제시했다.최 교수는 ""차량으로 움직이는 집회 형태가 교통에 차질을 줄 수는 있겠지만 방역 차원에서 설명할 문제는 아니다""라며 ""차량 안에 여러 명이 모이면 문제가 될 수 있겠지만, 개별적으로 이동하면서 코로나19 전파가 이뤄질 것이라고 생각하기는 어렵다""고 설명했다.차량집회뿐만 아니라, 일반적인 집회 역시 제한된 조건을 철저히 준수한다면 허용할 수 있다는 지적도 나온다. 천 교수는 ""집회 전후로 모임을 갖지 않고, 식사나 음료 섭취도 금지하면서, 마스크 착용과 거리두기 등의 방역지침을 준수한다면, 집회에서 하고 싶은 주장을 펴도 (괜찮을 것)""이라고 말했다.천 교수는 지난 의료계 파업 당시 의사들의 집회가 모범이 될 수 있다고 설명했다. 당시 의사들이 파업에 참여하면서 방역용 마스크와 페이스 실드 착용을 철저히 하고, 거리두기도 잘 지킨 결과 코로나19 확진자가 발생하지 않았다는 것이다.그는 ""사회적 거리두기 2단계에서는 100명 이하의 인원만 참여하게 하거나, 집회 장소에 줄이나 점을 그려두고 그 지점에서만 집회를 하게 하는 등의 행정적 지침을 생각할 수 있다""며 대안을 제시했다. 또한 ""(지침을 어기면) 바로 해산하거나 구상권을 청구하는 등의 조치도 필요하다""고 강조했다.1096pages@news1.kr"
13,news1,"북한, 코로나19 방역 강조하며 ""당의 의도 심장으로 접수해야"" 노동신문, 논설로 ""집중적, 연속적 사상전을 들이대야 방역 결실""(서울=뉴스1) 서재준 기자|2020-08-01 07:49 송고기사보기네티즌의견인쇄확대축소","(평양 노동신문=뉴스1) = 북한 노동당 기관지 노동신문은 1일 신종 코로나바이러스 감염증(코로나19) 방역이 '최우선 중대사'라며 빈틈없는 방역을 당부했다. 북한은 최근 월북한 탈북민이 코로나19 의심자라며 국가비상방역체계를 '최대비상체제'로 격상했다. 사진은 차량과 주민들의 손을 소독하는 자강도의 방역 모습. [국내에서만 사용가능. 재배포 금지. DB 금지. For Use Only in the Republic of Korea. Redistribution Prohibited] rodongphoto@news1.kr북한은 신종 코로나바이러스 감염증(코로나19) 방역을 위한 '최대비상체제' 가동과 관련해 ""전체 인민이 국가비상방역체계를 최대비상체제로 이행하도록 한 당의 의도를 심장으로 접수해야 한다""라고 강조했다.노동당 기관지 노동신문은 1일 1면에 게재한 '현 방역 위기를 타개하는 데서 당 조직들의 역할을 더욱 높이자'라는 제목의 논설에서 ""집중적이고 연속적인 사상전을 들이대야 방역 사업에서 훌륭한 결실을 맺게 된다""라며 이 같이 말했다.신문은 ""오늘날 가장 철저하고 안전한 방역 대책을 세우는 것은 최우선적인 과제""라며 ""만일 비상방역사업을 대하는 사람들의 사상 관점과 태도에 빈틈이 생긴다면 그 후과는 만회할 수 없으며 무엇으로도 보상할 수 없다""라고 말했다.이 같은 신문의 보도는 북한이 코로나19 방역과 관련해 사상적 무장을 강조하며 내부 단속을 의도한 것으로 풀이된다. 신문은 특히 각 단위별 당 조직들이 '정치적 참모부'라며 이들이 높은 조직력과 사상동원력, 전개력을 발휘해야 한다고 강조했다.이어 ""모든 기관들에서 비상상황에 대처해 책임성과 역할을 최대로 높이도록 정치적, 정책적 지도를 잘하는 것은 매우 중요한 문제""라며 ""각급 정권기관, 방역 및 보건기관들에서 악성 전염병의 발생과 전파를 시초에 차단하기 위한 조치들을 면밀히 실속 있게 취하고 누구나 중앙비상방역지휘부의 지휘와 통제에 무조건 복종하는 강항 규율을 세우는 당적 지도를 잘해야 한다""라고 당부했다.또 ""제일 경계해야 할 것은 오분열도식 일본새""라며 ""보통의 각오와 구태의연한 일본새로는 조성된 방역 위기를 성과적으로 타개해 나갈 수 없다""라며 정신적 해이를 경계하기도 했다.신문은 이날 3면에 특집기사를 통해서도 코로나19 방역을 위한 당 조직들의 역할과 사상적 무장을 거듭 강조했다.신문은 ""당 조직들과 당 일꾼들을 뼈가 가루가 되는 한이 있더라도 당 중앙의 지시와 포치를 철저히 집행하겠다는 비상한 각오, 자기 지역, 자기 단위의 비상방역사업을 당과 국가 앞에 전적으로 책임지겠다는 투철한 관점과 입장을 가져야 한다""라며 ""당 조직들의 강한 장악력, 투쟁력으로 최대비상체제를 가동, 실현하기 위한 사업을 드세게 내미는 것이 중요하다""라고 말했다.seojiba3@news1.kr"
14,news1,"전주시, 주요 4대 종단에 코로나19 방역 협조 요청 김승수 ""종교계 자발적 방역·협조 절대적 중요""종교계 ""최고 방역 필요"" ""사적 모임 취소·자제""(전주=뉴스1) 김춘상 기자|2020-08-20 14:22 송고 | 2020-08-20 14:29 최종수정기사보기네티즌의견인쇄확대축소","20일 전북 전주시청 시장실에서 김승수 전주시장과 배진용 전주기독교연합회장(광성교회 목사) 응묵 대한불교조계종 제17교구 본사 금산사 교무국장, 권순오 천주교 전주교구청 관리국장, 한은숙 원불교 전북교구장 등이 참석한 가운데 코로나19 대응을 위한 간담회가 열리고 있다.(전주시 제공)2020.8.20/뉴스1 © News1김승수 전주시장이 20일 주요 4대 종단에 신종 코로나바이러스 감염증(코로나19) 확산 방지를 위한 방역활동에 동참해줄 것을 요청했다.4대 종단은 시민들의 안전을 지키기 위한 방역지침을 최대한 준수하겠다고 했다.김승수 시장은 이날시장실에서 기독교, 불교, 천주교, 원불교 등 주요 4개 종교단체 관계자들과코로나19 확산 방지를 위한간담회를 열었다.간담회에는 배진용 전주기독교연합회장(광성교회 목사)과 응묵 대한불교조계종 제17교구 본사 금산사 교무국장, 권순오 천주교 전주교구청 관리국장, 한은숙 원불교 전북교구장 등이 참석했다.김 시장은 ""코로나19가 가장 어려운 시기에 진입했다. 신천지·이태원 사태 때보다 더 어렵다""면서 ""공무원들 노력만으로는 한계가 있기 때문에 종교계의 자발적인 협조를 부탁드린다""고 말했다.전주에서는 지난 16일부터 총 7명의 코로나19 확진자가 발생하면서 시민들의 불안감이 커지고 있다.20일 전북 전주시청 시장실에서 김승수 전주시장과 배진용 전주기독교연합회장(광성교회 목사) 응묵 대한불교조계종 제17교구 본사 금산사 교무국장, 권순오 천주교 전주교구청 관리국장, 한은숙 원불교 전북교구장 등이 참석한 가운데 코로나19 대응을 위한 간담회가 열리고 있다.(전주시 제공)2020.8.20/뉴스1 © News14대 종단은향후 2주가 코로나19 지역사회 확산을 막는 중대한 고비라는 데 인식을 함께하고 방역활동에협조하겠다고 밝혔다.배진용 회장은 ""2주간 최고 방역을 해야 한다고 생각하고 있었다""면서 ""연합회 산하 모든 기관에 전달해 따르도록 하겠다""고 말했다.천주교와 원불교는정규 미사와 법회를 제외한 불필요한 사적 대면모임을 전면 금지하거나 자제하기로 했다.김 시장은 ""코로나 방역을 위해 공직사회는 '우리가 시민들의 최후의 보루'라는 사명감으로 최선을 다할 것이다. 다만 4대 종단 종교시설만 1400여 곳에 달하는 만큼 자발적 방역과 협조가 절대적으로 중요하다""면서 ""전주시도 할 수 있는 모든 것을 함께하겠다""고 말했다.mellotron@news1.kr"
15,news1,"북한, 태풍 피해에 코로나 방역도 각성…""위험성 더욱 커져"" ""오물 흘러들어 바이러스 전파 공간 조성…방역 유지해야""(서울=뉴스1) 이설 기자|2020-09-06 10:48 송고기사보기네티즌의견인쇄확대축소","(평양 노동신문=뉴스1) = 북한 노동당 기관지 노동신문은 2일 신종 코로나바이러스 감염증(코로나19) 방역 사업을 두고 ""비상방역전을 공세적으로 벌여나가는 것은 우리 앞에 나선 가장 중차대한 과업＂이라고 밝혔다. 사진은 마스크를 착용한 채 거리를 다니는 평양 시민들의 모습. [국내에서만 사용가능. 재배포 금지. DB 금지. For Use Only in the Republic of Korea. Redistribution Prohibited] rodongphoto@news1.kr북한은 6일 연이은 태풍 피해로 신종 코로나바이러스 감염증(코로나19)의 위험성이 더욱 커졌다면서 방역 강도를 높일 것을 주문했다. 노동당 기관지 노동신문은 이날 '태풍과 큰물(홍수)에 대처하여 비상방역사업을 빈틈없이'라는 제목의 기사를 싣고 ""비상방역사업을 더욱 강도 높이, 빈틈 없이 전개해나가는 것은 오늘 우리 앞에 나선 매우 중요한 과업의 하나""라면서 이 같이 밝혔다. 신문은 ""태풍과 큰물로 인하여 오염된 지역의 오물들이 해안가나 국경지대의 강하천들에로 흘러들어 악성 비루스(바이러스)를 전파시킬 수 있는 공간을 조성하고있는 것으로 하여 위험성은 더욱 커지고 있다""라고 설명했다. 이어 ""이러한 실태는 모든 일꾼들과 당원들과 근로자들이 한순간도 해이됨이 없이 태풍과 큰물 피해에 의한 후과를 가시는 것과 함께 비상방역기관에서 시달하는 지시와 포치를 가장 정확하게 집행하여 완벽한 방역 형세를 철저히 유지해나갈 것을 요구하고 있다""라고 부연했다. 또 ""일꾼들은 태풍 피해, 큰물피해 복구에 동원된 모든 성원들이 최대로 각성 분발하고 비상방역 규율을 엄격히 준수하여 사소한 비정상적인 요소도 나타나지 않도록 사상교양사업을 더욱 공세적으로 전개해나가야 한다""라고 덧붙였다. 특히 ""자료에 의하면 악성 비루스는 오염된 물체의 겉면에서 일정한 기간 생존할 수 있다고 한다""면서 ""태풍에 의해 해안가와 강하천들에 쌓인 오물들을 철저히 방역학적 요구에 맞게 소독, 수거, 매몰하여야 한다""라고 강조했다. 아울러 ""비상방역 부문에서는 오물이 많이 쌓인 지역 안의 주민들에 대한 검병과 체온 재기 등을 더욱 엄격히 진행하며 주민지대에 대한 소독을 보다 책임적으로 진행하여야 한다""면서 통제의 강도를 높여야 한다고 촉구했다. 최근 북한은 제9호 태풍 '마이삭'의 영향으로 함경남·북도 해안연선 지대에서 1000여 세대의 살림집(주택)들이 각각 파괴된 것으로 전해졌다. 이에 김정은 국무위원장은 5일 피해지역 현지에서 당 중앙위원회 정무국 확대회의를 소집하고대책을 논의했다.sseol@news1.kr"
16,news1,"노동신문 ""코로나19 방역은 '사활적 사업'…방심하면 대재앙"" 1면 논설서 빈틈없는 방역 주문…감염자 '0명' 주장은 고수(서울=뉴스1) 양은하 기자|2020-07-30 10:08 송고기사보기네티즌의견인쇄확대축소","(평양 노동신문=뉴스1) = 북한 노동당 기관지 노동신문은 30일 신종 코로나바이러스 감염증(코로나19) '최대비상체제' 아래 각지에서 진행 중인 비상 방역사업을 소개했다. [국내에서만 사용가능. 재배포 금지. DB 금지. For Use Only in the Republic of Korea. Redistribution Prohibited] rodongphoto@news1.kr북한은 30일 신종 코로나바이러스 감염증(코로나19) 방역을 '사활적 사업'이라고 강조하며 빈틈없는 방역을 주문했다. 코로나19 감염이 의심된다는 탈북자의 월북을 계기로 국가비상방역체계를 '최대비상체제'로 격상한 이후 연일 경각심 고조에 공을 들이고 있다. 노동당 기관지 노동신문은 이날 '당중앙위원회 정치국 비상확대회의 결정 관철에서 무한한 책임성과 충실성, 헌신성을 발휘하여야 한다' 제목의 1면 논설에서 회의 결정을 관철해야 한다며 이 같이 강조했다. 신문은 ""만일 비상 방역사업을 순간이라도 방심하고 소홀히 한다면 그로 하여 초래될 후과는 무엇으로써도 보상할 수 없다""라며 ""세계적인 악성 전염병의 급속한 전파로 하여 대재앙을 겪고 있는 수많은 나라들의 실태가 이것을 입증해주고 있다""라고 주장했다.이어 ""현시기 우리가 가장 경계하여야 할 것은 이번 사태의 심각성을 깨닫지 못하고 안일한 인식에 포로돼 비상방역 사업을 만성적으로, 기계적으로, 실무적으로 대하는 현상""이라며 방역에 만전을 기울일 것을 거듭 당부했다. 신문은 또 방역 규율과 질서를 엄격 준수하는 등 중앙비상방역지휘부의 지휘와 통제에 복종할 것도 요구했다. 특히 간부들에게는 ""비상방역 사업을 빈틈없이 조직집행하며 예견성 있는 대책으로 인민생활을 최대한 안정시키는 것""을 주문했다. 그러면서 ""전체 인민이 한 사람같이 떨쳐나서며 악성 비루스(바이러스)가 유입될 수 있는 빈 공간을 모조리 찾고 대책을 세워나가야 한다""라고 덧붙였다. 한편 북한은 코로나19 의심자가 귀향한 개성시를 중심으로 강도 높은 방역을 이어가고 있다. 최룡해 최고인민회의 상임위원장 겸 국무위원회 제1부위원장이 개성시를 찾아 방역 실태를 점검하기도 했다. 하지만 현재까지 북한은 공식적으로 코로나19 감염자가 없다는 입장을 유지하고 있다. 이날 신문도 별도 기사에서 ""아직까지 우리나라에 단 한 명의 신형 코로나비루스 감염자도 발생하지 않았다""라고 밝혔다.yeh25@news1.kr"
17,news1,코로나19로 확 달라진 열차·고속도로 휴게소 풍경…방역 '안간힘' KTX 등 열차 창가 좌석만 판매…마스크 착용 의무화 등 방역 강화고속도로 휴게소 내 실내 취식 금지…출입명부 기록·발열 확인 등(대전ㆍ충남=뉴스1) 한희조 기자|2020-10-02 19:20 송고기사보기네티즌의견인쇄확대축소,"© 뉴스1추석 연휴를 하루 앞둔 지난달 29일 오후 충남 예산역의 열차 승강장은 한산했다. 몇 사람이 거리를 두고 열차를 기다리고 있었지만, 고향을 오가는 승객들로 붐볐던 예년 명절 풍경과는 사뭇 다른 모습이었다.추석 연휴동안 지역 간 이동을 자제하라는 자치단체 권고에 따라 이용객이 많이 줄어든 데다,귀경행렬이 시작되기 전에 미리 친인척 집을 방문한 뒤 연휴 전 귀가하는 등 차선책을 택하는이들도 생겨났기 때문이다.천안에 사는 84세 김 모 할머니는 ""코로나19 때문에 불안해서 자녀들에게 고향에 내려오라고 할 수가 없다. 그래서 추석보다 이틀 앞서 인근에 있는 큰 딸 집에 들렀다. 다른 아이들은 서울이나 경기도에 사는데, 이번 추석 연휴에는 오지 말라고 했다""고 밝혔다.서울로 향하는 무궁화호 열차 안에는 마스크를 쓴 승객들이 창가쪽 좌석에만 앉아 이동했다.정부는 지난달 29일부터 오는 4일까지 6일간 시행하는 '정부합동 특별교통대책'의 일환으로 KTX·SRT 등 모든 열차가 승객을 절반만 채운 채 운행하도록 지침을 내놨다.한국철도공사는 승객 간 거리두기를 위해 추석연휴기간 열차 승차권에 대해 창가 측 좌석만 판매하고 통로 측 좌석은 판매하지 않았다.홍성에 사는 신형일씨(32)는 ""타지에서 명절을 쇨 수 없어 고향으로 가야하지만 코로나19 확산이 우려돼 대중교통 이용이 꺼려지는 건 사실""이라며 ""창가 쪽 좌석만 판매하니 많은 사람이 밀집하지 않아도 되고, 다른 승객들과 거리를 둘 수 있어 안심하고 이동할 수 있는 것 같다""고 말했다.한국철도공사 관계자는 ""지역 간 대이동이 불가피한 만큼 코로나19 예방에 초점을 맞춰 이같은 대책을 세운 것으로 알고 있다""며 ""승객들의 마스크 착용을 의무화하고 목적지에 도착할 때마다 열차 내 소독을 실시하는 등 코로나19 확산 예방을 위해 방역에 총력을 기울이고 있다""고 강조했다. © 뉴스1명절이면 오랜 귀경행렬에 지친 시민들로 분주했던 고속도로 휴게소도 상황이 달라졌다.2일 충남에 위치한 한국도로공사 대전방향 예산휴게소에서는 식음료를 구매하려는 시민들이 발열을 확인하고 출입명부를 작성한 뒤 실내시설로 입장했다.구입한 식음료는 식당에서 포장해 자가용이나, 투명 가림판이 설치된 야외 테이블에서 섭취하는 이색적인 풍경이 펼쳐졌다.강화된 코로나19 방역 대책의 일환으로 고속도로 휴게소 내 매장 좌석 운영이 금지됐기 때문이다.추석을 맞아 여행길에 고속도로 휴게소를 방문했다는 이민호씨는 ""고속도로 휴게소는 사람이 많이 모이는데다 음식을 섭취하는만큼 코로나19 감염 위험이 높아 정부가 강력하게 방역을 강화한 것이 적절하다고 본다""고 밝혔다.다만 ""생각보다 인파가 더욱 없어 놀랐다. 휴게소 내 입점한 자영업자들의 생계에 큰 영향이 있을 것 같아 걱정""이라고 우려했다.예년 이맘때쯤이면 휴게소 주차장을 가득 메울 만큼 많은 시민이 방문했지만, 올해는 발길이 훨씬 줄었다. 계속되는 코로나19 상황으로 매출에 큰 타격을 입을 것이 불가피한 휴게소 관계자들은 복잡한 마음을 내비쳤지만, 시민들을 위한 방역 관리가 우선이라는 입장이다.예산휴게소 상품담당 오미혜 주임은 ""지난해 최고 매출이 6000만 원가량인 데 비해 올해는 5분의1 수준으로 줄었다""며 ""매장 내 식음료 판매가 제한되다보니 안심이 된다는 시민들도 있지만, 불편감을 호소하는 분들도 더러 있는 게 사실""이라고 말했다.그러면서 ""코로나19 확산 방지가 우선인만큼 발열체크와 수기명부 작성, 식품 위생관리 등에 온 힘을 쏟고 있다""고 강조했다.gmlwh1010@news1.kr"
18,news1,"북한 최룡해, '봉쇄' 개성시 시찰…코로나19 방역 실태 점검 방역·물자 반입 실태 파악…민생 살피기 의도(서울=뉴스1) 양은하 기자|2020-07-30 07:40 송고기사보기네티즌의견인쇄확대축소","(평양 노동신문=뉴스1) = 최룡해 북한 최고인민회의 상임위원회 위원장이 개성시를 찾아 비상방역사업을 점검했다고 노동당 기관지 노동신문이 30일 전했다. 최 위원장은 개성시와 인접한 지역에 긴급 전개된 방역초소들을 돌아보면서 방역과 물자반입실태를 구체적으로 파악했다. [국내에서만 사용가능. 재배포 금지. DB 금지. For Use Only in the Republic of Korea. Redistribution Prohibited] rodongphoto@news1.kr최룡해 북한 최고인민회의 상임위원장 겸 국무위원회 제1부위원장이 개성시를 찾아 신종 코로나바이러스 감염증(코로나19) 방역 실태를 점검했다. 노동당 기관지 노동신문은 30일 ""최룡해 동지가 개성시의 비상방역사업정형을 요해(파악)하였다""라고 보도했다. 최룡해 상임위원장은 개성시 인근에 세워진 방역초소를 돌아보고 방역과 물자 반입 실태를 파악했다. 그는 ""개성 시민들의 생활에 필요한 식료품, 의약품 등의 물자 보장 사업이 집중적으로 진행되는 데 맞게 소독과 검역사업을 방역학적 요구대로 엄격히 진행하라""라고 주문했다. 현지에서 진행된 협의회에서는 ""방역사업에 동원된 일꾼들과 방역 성원들이 당 중앙의 지시와 포치를 가장 정확하게 집행하며 해당 기관들 사이의 긴밀한 협동 밑에 철저하고도 안정적인 대책을 세우기 위한 문제들이 토의되었다""라고 신문은 전했다. 개성시는 최근 월북한 탈북민이 귀향한 곳이다. 북한은 그가 코로나19 의심자라며 개성시를 봉쇄하는 등 국가비상방역체계를 '최대비상체제'로 격상해 대응하고 있다. 공식 서열 2위인 최룡해 상임위원장을 개성에 보낸 것은 강도 높은 방역 사업이 진행되는 지역의 민생을 살피면서 동시에 이곳이 탈북자로 인해 코로나19 확산 가능성이 있다는 것을 보여주려는 것으로 해석된다.yeh25@news1.kr"
19,news1,"계룡시, 코로나 방역소독 완료 업소 ‘클린존’ 인증 추진 확진자 방문 업소 대상 방역완료 표시(대전ㆍ충남=뉴스1) 조문현 기자|2020-09-08 11:09 송고기사보기네티즌의견인쇄확대축소","방역완료 표시하는 ‘클린존’ 인증 스티커© 뉴스1계룡시 보건소는 코로나19 확진자 방문 업소에 대해 방역 완료를 표시해주는 ‘클린존’ 인증 사업을 시행한다.8일 시에 따르면 클린존 인증사업은 최근 코로나19로 인해 소상공인의 매출 감소가 심각한 상황에서 방역·소독이 완료됐음을 알리는 클린존 스티커 부착을 통해 안심하고 해당 업소를 방문토록 하기 위한 것이다.시에서는 현재 19개 업소에 클린존 스티커를 부착했으며, 확진자가 가장 최근에 방문한 업소까지 방역을 모두 완료했다.손병임 보건소장은 “코로나19 확진자 및 접촉자가 방문한 모든 업소에 대해 방역소독을 완료한 상황으로, 해당 업소를 방문하더라도 감염 우려는 전혀 없다”며 “클린존 인증사업이 확진자 방문 업소의 영업 정상화에 도움이 되길 바란다”고 말했다.cho7112@news1.kr"
20,news1,"북한, 코로나19 방역에 '특급경보'…""고도의 각성 발휘"" '불법 귀향자' 재언급…방역 경각심 높이는 듯평양·신의주·남포 등 주요 도시 방역사업 박차(서울=뉴스1) 김정근 기자|2020-08-04 10:40 송고기사보기네티즌의견인쇄확대축소","(평양 노동신문=뉴스1) = 북한 노동당 기관지 노동신문은 4일 평양시의 비상방역사업 현황을 전했다. [국내에서만 사용가능. 재배포 금지. DB 금지. For Use Only in the Republic of Korea. Redistribution Prohibited] rodongphoto@news1.kr신종 코로나바이러스 감염증(코로나19) 방역을 위해 '특급경보'를 내린 북한이 ""조성된 방역 위기를 타개하는 데서 최대의 적은 해이성""이라며 각성을 촉구했다.노동당 기관지 노동신문은 4일 1면에 '최대비상체제는 고도의 각성과 엄격한 준수를 요구한다'라는 제목의 논설을 싣고 이 같이 밝혔다.신문은 ""최대비상체제 하에서의 방역전의 성과 여부는 전적으로 그를 대하는 사람들의 관점과 각오에 달려있다""라며 ""각성하여 긴장하게 일하는 사람에게는 당의 의도와 어긋나게 행동하는 현상이 절대로 나타날 수 없다""라고 목소리를 높였다.아울러 ""최근 개성시에서 위험한 사태가 발생했다""라며 ""불법 귀향자에게서 악성비루스감염자로 의진할 수 있는 석연치 않은 결과가 나온 것과 관련하여 해당 지역에 비상사태를 선포하고 국가 비상 방역체계를 최대비상체제로 이행하도록 하였으며 특급경보를 발령하였다""라고 코로나19와 관련한 최근 상황을 정리했다.특히 지난달 19일 재입북했다고 알려진 코로나19 '의진자'가 다시 신문에 언급된 것은 지난달 27일 이후 처음이다. 이는 해당 의진자에 의해 촉발된 현 특급경보를 상기시키고 방역에 대한 경각심을 높이려는 의도로 풀이된다.한편 의진자의 상태가 여전히 '석연치 않은 결과'로만 설명된 것을 미루어 볼 때 그의 건강에 별다른 변화는 없는 것으로 판단된다. 격리 기간도 2주가량 지난 만큼 북한 내 코로나19에 대한 '실체적 위협'은 일정 부분 줄어든 것으로 보인다.다만 ""악성 전염병을 통제·관리할 수 있는 수준에 이르렀다고 자평하며 탕개를 늦추었다가 엄중한 후과(나쁜 결과)가 초래되고 있는 나라들의 실태가 보여주는 엄연한 현실""이라며 방역의 고삐를 당기고 있는 만큼 의진자에 대한 완전한 확진 판정은 좀 더 시간이 걸릴 것으로 예상된다.(평양 노동신문=뉴스1) = 북한 노동당 기관지 노동신문은 4일 신종 코로나바이러스 감염증(코로나19)와 관련한 남포수출입품검사검역소의 방역사업 현황을 보도했다. [국내에서만 사용가능. 재배포 금지. DB 금지. For Use Only in the Republic of Korea. Redistribution Prohibited] rodongphoto@news1.kr이날 신문은 3면 전체를 할애해 코로나19 방역과 관련된 특집 기사를 싣고 수도 평양을 비롯한 신의주, 남포 등의 방역사업 현황을 자세히 전했다.평양은 지하철·버스 등 평양시로 들어오는 입구와 주요 지점마다 방역초소를 증강 배치하고 방역진을 구축하고 있다. 또 평양시의 의료진은 주민에 대한 검진을 진행해 발열 증상을 보이는 사람과 호흡기 질환을 가진 환자들을 찾아내는 방역사업을 진행 중이다.신의주시에서는 특급경보에 맞게 새로운 방역초소와 방역 인원을 증강하고 있다. 이어 보호복, 마스크, 비접촉식 체온계 등의 방역물자 보장에도 힘쓰고 있다고 신문은 설명했다.남포시는 배가 들어오는 항만 시설이 있는 만큼 방역에 더욱더 철저한 모습이다. 특히 남포수출입품검사검역소는 사람과 물자 교류에 촉각을 곤두세우고 있다.신문은 ""이곳 검역소에서는 악성 전염병의 유입 공간을 차단하기 위해 검사검역을 보다 치밀하게 실시하고 있다""라며 ""입항하는 배들에 대한 전면 소독을 엄격히 진행하고 납입 물자들에 대한 방치 전 소독과 방치 후 소독을 어김없이 깐깐히 하고 있다""라고 강조했다.또 ""하선 작업에 동원된 성원들이 출입 시 소독 통로를 반드시 통과하도록 하는 것을 비롯하여 제정된 행동 질서와 방역 규율을 철저히 준수하도록 하고 있다""라며 ""남포수출입품검사검역소에서는 비상 정황이 발생할 경우 신속히 대처할 수 있는 검사기구와 설비들을 철저히 갖추고 방역 전선을 믿음직하게 지켜가고 있다""라고 주장했다.한편 신문은 ""당의 노선과 정책, 결정을 사상적으로 접수하고 철저히 관철해나가는 여기에 충성의 길, 애국의 길, 인민을 위한 길이 있다""라며 사상 무장을 강조하기도 했다. 방역 사업이 일정 부분 안정화 단계에 들어섰다는 판단하에 이번 사안을 내부 결속을 다지는 계기로도 활용하는 모습이다.(평양 노동신문=뉴스1) = 북한 노동당 기관지 노동신문은 4일 신종 코로나바이러스 감염증(코로나19)와 관련한 평양시의 비상방역사업 현황을 전했다. [국내에서만 사용가능. 재배포 금지. DB 금지. For Use Only in the Republic of Korea. Redistribution Prohibited] rodongphoto@news1.kr carrot@news1.kr"
21,news1,"'정부 코로나19 방역활동 방해' 신천지 이만희, 3일 첫 준비기일 코로나19 확산세 여파 비공개로 진행(수원=뉴스1) 유재규 기자|2020-09-02 16:13 송고기사보기네티즌의견인쇄확대축소","이만희 신천지예수교 증거장막성전 총회장이 2일 오후 경기 가평 신천지 평화의 궁전에서 열린 코로나바이러스 감염증(코로나19) 사태 관련 기자회견에서 총회장 특별 편지를 공개하고 있다. © News1 허경 기자신종 코로나바이러스 감염증(코로나19)의 정부 방역활동을 방해한 혐의로 고발된 신천지예수교 증거장막성전(신천지) 이만희 총회장(89)에 대한 첫 공판준비기일이 3일 열린다.2일 수원지법에 따르면 형사11부(부장판사 김미경)는3일 오전 10시30분 감염병예방법 위반 등 혐의로 구속기소된 이씨에 대한 첫 준비기일을 비공개로 진행한다.공판준비기일은 피고인의 주 혐의점에 대해 검찰 측과 변호인 측에서 쟁점을 정리하고 공판을 어떻게 진행할지 조율하는 자리로 본격적인 재판에 앞서 이뤄지는 하나의 절차다.공개재판이 원칙이긴 하나, 재판부는 코로나19의 확산세의 영향으로 공판진행에 반드시 필요한 검찰과 변호인 측만 참여시키는 비공개 방식으로 1차 준비기일을 갖기로 했다.출석 의무가 자유로운 준비기일이기 때문에 이씨를 비롯해 구속기소된 신천지 간부 등 피고인 4명이 법정에 출석할 지는 불투명하다.수원지법 관계자는 ""추후 재판에 대한 공개여부는 재판부의 판단에 따라 결정될 것""이라고 말했다.이씨는 신천지 대구교회를 중심으로 코로나19가 확산하던 때인 지난 2월 방역당국에 교인명단과 시설현황을 누락하거나 허위로 제출하는 등 방역 업무를 방해한 혐의를 받는다.또 신천지 연수원인 가평 평화의 궁전 신축 등과 관련해 56억원을 빼돌리고, 공공시설에 무단으로 진입해 만국회의 행사를 수차례 강행한 혐의도 받는다.이씨를 포함한 신천지는 코로나19가 신천지 신도에 의해 확산되자 지방자치단체와 전피연 등 단체로부터 여러 차례 고발당했다.이 가운데 전국신천지피해자연대는 코로나19 관련, 정부의 방역활동을 방해해 온 국가를 위기로 빠뜨렸다는 취지로 지난 2월 이씨를 고발하고 대검찰청은 이 총회장 고발 사건을 수원지검에 배당했다. 수원지검은 과천 총회 본부와 가평 평화의 궁전, 부산과 광주, 대전의 신천지 관련 시설 여러 곳을 압수수색하고 여러 증거물을 확보, 이씨를 상대로 2차례 조사한 끝에 지난 7월28일 구속영장을 청구했다.수원법원종합청사. 2019.5.24/뉴스1 © News1 조태형 기자또 같은 날에는 검찰이 방역 방해 등 혐의로 신천지 간부 A씨 등 3명을 구속기소하고 4명을 불구속 기소했다. 지난 8월1일 수원지법은 감염병예방법 위반, 위계에 의한 공무집행방해, 특경법 위반(횡령), 업무방해 등 혐의를 받고 있는 이씨를 '범죄혐의 일부 소명' '수사 과정의 증거인멸 정황' '추가 증거인멸 염려' 등 이유로 구속영장을 발부, 이씨를 구속했다.이에 신천지 측은 이씨의 구속이 부당하다는 취지로 같은 달 12일 수원지법에 구속적부심 청구서를 제출했지만 법원은 범죄사실의 소명 정도, 수사상황 진행 등 구속영장 발부가 부적법하지 않다며 '이유없음'으로 구속적부심 청구를 기각했다. koo@news1.kr"
22,news1,"북한, 올가을 '위생 월간 사업'은 코로나19 방역·수해 복구 수해로 인한 전염병 확산 경계…하천 시설 보강지난 봄철 이어 방역 집중…""소독 사업 철저히""(서울=뉴스1) 김정근 기자|2020-09-20 09:45 송고기사보기네티즌의견인쇄확대축소","(평양 노동신문=뉴스1) = 북한 노동당 기관지 노동신문은 20일 전국 각지의 신종 코로나바이러스 감염증(코로나19) 방역 사업 현황을 조명하며 ""9·10월 위생 월간사업을 악성비루스(바이러스) 감염증을 막기 위한 중요 계기로 틀어쥐고 실속있게 진행해나가고 있다＂라고 전했다.. [국내에서만 사용가능. 재배포 금지. DB 금지. For Use Only in the Republic of Korea. Redistribution Prohibited] rodongphoto@news1.kr북한이 신종 코로나바이러스 감염증(코로나19) 방역과 수해 복구에 초점을 맞춰 9·10월 위생 월간사업을 진행한다. 북한은 도시 미관과 위생 등을 개선하기 위해 매년 봄가을 해당 사업을 실시해왔다.노동당 기관지 노동신문은 20일 5면에 '비상방역사업을 더욱 강화하는 중요한 계기로 틀어쥐고 각지에서 9·10월 위생 월간사업을 활발히 전개'라는 특집 기사를 싣고 이 같이 밝혔다.신문은 ""평양시 안의 여러 구역에서도 위생 월간사업을 실속있게 짜고 들어 수도의 면모를 일신하고 방역태세를 계속 보완·유지하는데 총력을 집중하고 있다""라며 ""비상방역전이 장기화하는 조건에 맞게 소독사업에 보다 큰 힘을 넣고 있다""라고 보도했다.평양에서는 코로나19 감염 방지를 막기 위해 수도시설과 오물처리 시설에 대한 소독 사업에 총력을 다하고 있다. 또 태풍으로 인해 보통강 유역에 쌓인 오물들을 방역 규정에 맞게 처리하고 있다고 신문은 전했다.아울러 ""보건기관을 비롯하여 구역 안의 소독수 생산 단위에서 소독수 생산량을 보다 늘릴 것""을 주문하며 ""가을철 위생 월간사업을 악성비루스(바이러스)감염증을 철저히 막는데 중심을 둘 것""을 강조했다.(평양 노동신문=뉴스1) = 북한은 오는 당 창건 75주년 기념일(10월10일)까지 수해 피해복구를 마무리하기 위해 총력을 다하고 있다. 사진은 피해복구 현장. [국내에서만 사용가능. 재배포 금지. DB 금지. For Use Only in the Republic of Korea. Redistribution Prohibited] rodongphoto@news1.kr장마철 폭우와 태풍으로 인해 피해를 입은 지역에도 위생 월간사업의 중요성을 부각하고 나섰다. 하천을 통해 떠밀려온 오염 물질로 인해 전염병 확산 사태가 발생할 수 있기 때문이다.신문은 제9·10호 태풍으로 피해를 본 평안남도 평성시를 조명하며 ""1000여m 구간의 하천 정리를 전부 끝냈다""라고 설명했다.그러면서 ""일꾼들은 하천정리 사업을 태풍과 큰물(홍수)피해흔적을 하루빨리 가시기 위한 사업인 동시에 악성비루스의 침습을 철저히 막기 위한 중요한 일로 보았다""라며 ""작업을 진행하는 과정에 주민들이 비상방역규정을 철저히 지키도록 하는데 언제나 깊은 관심을 돌렸다""라고 주장했다.이어 극심한 태풍 피해를 본 황해북도와 원산시 등에도 이번 위생 월간사업을 통해 수해 복구 사업과 코로나19 방역을 철저히 진행할 것을 주문하고 나섰다.북한은 지난 3·4월 봄철 위생 월간사업도 코로나19 방역에 초점을 맞춘 바있다. 이번 가을 위생 월간사업은 최근 입은 수해 복구도 함께 진행하며 수해로 인해 전염병이 확산하는 사태를 경계하는 모습이다.carrot@news1.kr"
23,news1,"북한 ""코로나19 방역 강도 높이자…수입물자 검사·소독 철저히"" 노동신문 특집기사 통해 각지 사상사업·비상방역체계 소개바닷가 지역 감시 및 소독과 마스크 착용 철저히 조치 등(서울=뉴스1) 이설 기자|2020-07-15 07:56 송고기사보기네티즌의견인쇄확대축소","(평양 노동신문=뉴스1) = 북한 노동당 기관지 노동신문은 15일 평천구역위생방역소를 두고 ""비상 방역사업을 보다 강도 높이 전개하기 위한 조직사업을 빈틈없이 하고 있다""라고 전했다. [국내에서만 사용가능. 재배포 금지. DB 금지. For Use Only in the Republic of Korea. Redistribution Prohibited] rodongphoto@news1.kr북한은 15일 김정은 국무위원장의 뜻에 따라 신종 코로나바이러스 감염증(코로나19)에 대한 방역 강도를 더욱 높이자고 촉구했다. 노동당 기관지 노동신문은 15일 '당 중앙위원회 정치국 확대회의 정신을 높이 받들고 비상방역사업을 더욱 강화하자'라는 제목의 특집기사를 싣고 방역 강도를 늦추지 말자면서 이 같이 밝혔다. 이는 지난 2일 김 위원장 주재로 열린 당 중앙위원회 제7기 제14차 정치국 확대회의에서 코로나19 방역 강화 조치와 평양종합병원 건설 박차 및 보건의료 역량 강화 등이 논의된 데 따른 것이다. 신문은 ""(세계적으로) 감염자수와 사망자수가 계속 급증되고 있으며 주변 나라들과 인접 지역에서는 재감염, 재확산 추이가 지속되고 있다""면서 ""이러한 형세는 악성 전염병의 위험성이 최단기간에 해소될 가능성이 불확실하다는 것을 여실히 보여주고 있다""라고 전망했다. 이어 ""중앙비상방역지휘부를 비롯한 각급 비상방역지휘부들에서는 국가적인 비상방역조치의 강도를 조금도 늦추지 말고 장악과 통제, 투쟁의 도수를 계속 높여나가야 한다""라고 강조했다. 또 ""국경연선과 해안 등에 대한 봉쇄조치를 계속 견지하며 국경 교두와 항, 철도역들에서는 반입되는 물자들의 처리를 철저히 비상방역규정의 요구대로 하여야 한다""라며 ""이와 함께 자연기후의 변화와 조류를 비롯한 동물들의 이동에 대한 방역학적 감시를 강화하여야 한다""라고 설명했다. 신문은 별도의 기사를 통해 각지 당 조직에서 비상방역사업 '사상전'에 열을 올리고 있는 소식을 전했다. 주민들이 많이 다니는 장소에 방송 선전차와 이동식 음향 증폭 기재들을 전개해 위생선전사업을 벌이는 식이다. 수도 평양시를 비롯해 평안남도, 황해남도 등 도 당 위원회가 이 같은 사상사업에 집중하고 있다고 신문은 소개했다.또 다른 기사에선 모든 사람들이 규정대로 철저히 마스크를 착용하도록 하고, 소독사업에 성실히 참가하도록 교양사업을 꾸준히 벌이고 있다고 했다. 특히 바다와 가까운 지역의 비상방역지휘부는 바닷가와 그 주변에 대한 방역학적 감시를 더욱 강화하고 바다 출입 질서를 엄격히 지키도록 하는 등 방역 사업을 치밀하게 진행하고 있다고 밝혔다. 이와 관련, 수입물자들에 대한 검사 검역 사업도 강도 높게 진행하고 있으며 검사검역소 일꾼들은 물자들의 방치 기일을 엄격히 지키고 윤전기재들의 겉면 소독을 철저히 하고 있다고 강조했다.신문은 항구로 들어오는 인원들의 검병, 검진도 철저히 하고 모든 선박들에서 오수와 버림물의 처리를 방역학적 요구대로 하도록 통제하고 있다고 소개했다. 수입물자들을 취급하는 국경 교두와 항, 철도역 등에서는 물자에 대한 검사검역과 취급 처리를 엄격히 진행해나가고 있다고 한다. 아울러 장마철에 대비해 황해북도위생방역소 일꾼들이 상하수도망들에 대한 소독사업을 철저히 하기 위한 대책을 세우고 소독약 생산을 정상화하고 있다고 신문은 덧붙였다. 김 위원장의 지시에 따라 대대적으로 재건되고 있는 삼지연시도 모든 근로자들과 주민들이 마스크를 규정대로 착용하고 손 씻기를 자주 하며 철저히 물을 끓여마시는 등 방역 규정을 준수하도록 지시했다고 한다. 한편 올해 코로나19 확산 초기부터 국경을 완전히 봉쇄한 북한은 현재까지 확진자, 사망자가 한 명도 발생하지 않았다고 주장하고 있다.sseol@news1.kr"
24,news1,"""국가적 비상방역에 결함""…북한, 코로나19 방역 총력 짜낸다 확진자 발생 여부 무관하게 '완전무결' 추구하는 것으로 해석남측에서의 재확산이 '방역 긴장'에 영향 미쳤을 듯(서울=뉴스1) 서재준 기자|2020-08-26 11:22 송고기사보기네티즌의견인쇄확대축소","(평양 노동신문=뉴스1) = 북한은 연일 신종 코로나바이러스 감염증(코로나19)과 관련한 전 국가적인 방역전을 강조하고 있다. 노동당 기관지 노동신문은 26일 ""국가적인 지휘와 통제에 모든 사회성원들이 하나와 같이 움직여야 한다""라며 '전당적, 전사회적' 방역형세 유지를 당부했다. [국내에서만 사용가능. 재배포 금지. DB 금지. For Use Only in the Republic of Korea. Redistribution Prohibited] rodongphoto@news1.kr북한이 확진자가 한 명도 없다면서도 신종 코로나바이러스 감염증(코로나19)과 관련한 '최대비상체제' 가동을 이어가고 있다.노동당 기관지 노동신문은 26일 김정은 국무위원장의 정치국 확대회의 주재 소식을 전하며 이번 회의에서 국가비상방역태세를 점검하고 방역사업을 더욱 개선, 강화하기 위한 문제들이 심도 있게 토의됐다고 밝혔다.북한은 지난달 남측에서 탈북자 김모씨가 월북해 개성으로 들어가는 사건이 발생한 뒤 김씨가 코로나19 확진 가능성이 있다고 밝히며 '최대비상체제'를 가동해 왔다.지난달 13일 개성 일대에 대한 전면 봉쇄 조치가 해제되며 김씨가 코로나19에 확진되지 않은 것으로 보이지만, 북한은 최대비상체제를 공식적으로 해제하지 않고 있다.이는 국경을 맞대고 있는 남측에서 최근 코로나19가 재확산되고 있는 것을 감안한 조치로 보인다. 물이나 공기 등을 통한 감염 가능성을 여전히 배제하지 않는 것과, 김씨 사건처럼 또 다른 밀입국자가 발생할 가능성도 염두에 뒀을 수 있다.한편으로는 북한이 코로나19 사태에도 일부 지원물자들을 우리 측 민간은 물론 국제사회로부터 지원받는 등 외부 유입이 이어지고 있어 방역 태세의 수준을 강도 높게 유지하고 있을 수도 있다.이번 회의에서 눈에 띄는 점은 김정은 위원장이 국가비상방역사업의 '허점'들을 '자료적으로 통보'했다고 북한이 밝힌 점이다.코로나19 확진자가 없음에도 북한이 '허점'이 있다고 밝힌 것은 실제 숨겨진 코로나19 확진자가 발생했다기보다는 전국적으로 '최대비상체제'의 기준에 부합하지 못하는 방역 상황을 지적한 것으로 보인다.북한은 국경 지대에서의 방역, 주요 도시의 관문에서의 방역, 마스크 착용 의무화, 대중 시설에 대한 철저한 소독 및 발열 체크 등 연일 관영매체를 통해 자신들이 진행 중인 방역 활동을 알리고 있다.다만 최근에는 일부 지역 및 단위에서 방역을 제대로 이행하지 않는다는 지적을 공개적으로 내놓기도 했다.노동신문은 지난달 31일 '아직도 정신을 못 차렸는가'라는 제목의 기사에서 ""자료에 의하면 일부 일꾼들은 눈가림식으로 공장 정문에 질이 제대로 보장되지 않는 소독수를 갖춰 놓았으며 종업원들이 손 소독을 철저히 진행하도록 요구성도 높이지 않았다""라거나 ""어느 단위에서는 방역 규정에 어긋나게 여러 차례에 걸쳐 일꾼들을 사무실에 모아놓고 회의를 진행하는 망탕짓을 했다""라고 지적했다.또 어떤 병원에서는 의사와 간호사는 물론 환자들의 체온도 재질 않았으며 소독제와 체온계 없이 봉사활동을 진행해 규정을 위반했다고 비판하기도 했다.신문 보도에서 '자료'가 언급된 것으로 미뤄, 이번 정치국 확대회의에서 김 위원장이 '자료적으로 통보'했다는 내용도 이 같은 정신적 해이를 지적한 것으로 추정된다.북한은 코로나19 방역을 ""인민의 안녕, 조국의 안전과 직결돼 있다""라며 국가 존폐 문제로까지 다루는 등 위기 상황에 대한 대응으로 규정하고 있다. 따라서 이날 노동신문이 ""완벽한 방역형세를 철저히 유지할 것이 강조됐다""라고 언급한 것처럼, 코로나19 방역에 있어 확진자 여부와 무관하게 '완전무결'을 추구하는 것으로 보인다.특히 국경을 강도 높게 통제하는 등 경제적 손실까지 감당하면서 방역 수준을 높인 것은 북한이 감염병과 관련한 사안을 가장 예민하게 받아들이고 있다는 점을 새삼 보여 준다.김 위원장은 지난 13일 2007년 이후 최악이라는 수해 복구와 관련한 결정을 내린 정치국 회의에서도 ""악성 비루스(바이러스) 전파 상황이 악화되고 있다""라며 ""큰물(홍수) 피해와 관련한 그 어떤 외부적 지원도 허용하지 말고 국경을 더욱 철통같이 닫아야 한다""라고 지시한 바 있다.seojiba3@news1.kr"
25,news1,"광주시, 12일부터 영세사업장에 코로나19 방역물품 지원 비접촉식 체온계·방역마스크 등 20만원 상당(광주=뉴스1) 박준배 기자|2020-10-08 15:27 송고기사보기네티즌의견인쇄확대축소","지난 9월4일 오후 광주 북구청 광장에서 열린 신종 코로나바이러스 감염증(코로나19) 예방을 위한 마스크 기탁식에서 구청 직원들이 저소득층과 복지시설에 전달할 마스크를 옮기고 있다. (광주 북구 제공) 2020.9.4 /뉴스1광주시는 코로나19 확산 방지를 위해 12일부터 지역 영세사업장에 비접촉식 체온계와 방역마스크 등 20만원 상당의 방역물품을 지원한다. 지원 대상은 광주시에 사업장이 등록된 1인 자영업자와 소상공인이다. 편의점, 약국, 보건업 등 비접촉식 체온계와 마스크 등 방역물품을 제조, 유통·판매하는 사업장은 제외한다.1인이 다수 사업장을 운영하는 경우 대표 사업장 1개만 신청할 수 있다.방역물품은 KF94 방역마스크 300개 또는 비접촉식 체온계 1개를 포함한 KF94 방역마스크 200개 중 선택해 신청하면 자격 여부를 확인한 후 지원한다. 신청은 12일부터 11월30일까지 광주시경제고용진흥원 이메일로 신청하거나, 고용진흥원을 방문해 현장에서 하면 된다. 고용노동부 코로나19 지역고용대응 등 특별지원사업 일환으로 지원하며 예산 소진 시 조기 마감될 수 있다.지원신청서는 광주시경제고용진흥원 홈페이지에서 내려받아 작성한 후 개인정보 이용·제공동의서, 부정수급 관련 확약서, 소상공인임을 증빙할 수 있는 서류 등을 제출해야 한다.구종천 시 일자리정책관은 ""이번 방역물품 지원으로 코로나19 장기화로 피해를 입고 있는 영세사업장의 경제적 부담을 덜어주고, 코로나19 감염 예방과 확산 방지에 도움이 되기를 바란다""고 말했다.nofatejb@news1.kr"
26,news1,"코로나-독감 '트윈데믹' 유행시 방역도 혼선…독감 예방접종 필수 유사증세로 의료체계 과부하 우려…'자가격리' 개인생활도 차질마스크 착용, 손씻기 등 철저한 개인방역 생활화는 기본(서울=뉴스1) 심언기 기자|2020-09-10 13:37 송고기사보기네티즌의견인쇄확대축소","인플루엔자(독감) 국가예방접종 시행 첫 날인 8일 전북 전주시 인구보건협회 전북지회 가족보건의원에서 한 시민이 독감 예방주사를 맞고 있다.2020.9.8/뉴스1 © News1 유경석 기자환절기에 접어들면서 코로나19와 독감이 함께 유행하는 '트윈데믹'(Twindemic) 우려가 높아지고 있다. 고열과 기침을 동반하는 초기 증상이 상당히 유사해 동시 유행시 방역 혼선이 우려된다.전문가들은 트윈데믹을 막기 위해 예방접종으로 독감에 대한 면역력을 키워야 한다고 조언한다. 정부도 독감 예방주사를 적극 권고하며 지원책도 내놨다. 독감과 코로나19 모두에 효과적 예방책인 마스크 쓰기는 필수다.코로나19와 독감은 초기 발열과 인후염, 기침 등을 동반한다는 점에서 증상이 흡사하다. 감기에 걸려도 코로나19 감염 가능성을 배제하기 힘든 만큼 독감 검사결과가 나오는 경우에도 자가격리 등 일상생활 차질이 불가피하다.방역당국 입장에서도 독감 환자들을 잠재적으로 코로나19 감염 고위험군으로 판단하고 대처할 수밖에 없다. 독감 환자 진료·치료시 코로나19에 준하는 방역태세를 준수해야 하는 등 의료 체계에 과부하가 걸리게 되는 셈이다.독감 양성과 코로나19가 동시에 발현하는 사례도 잇따르면서 방역당국의 고심은 더 깊어지고 있다. 정은경 질병관리본부 중앙방역대책본부장은 지난 9일 정례브리핑에서 ""독감 검사와 코로나19 검사를 했을때 2개 모두 양성이 나온 사례들이 있었다""고 밝혔다.방역당국은 코로나19와 독감 동시 유행을 막기 위해 독감 예방접종을 강력히 권고한다. 특히 면역력에 취약한 유·소아와 고령층의 접종 필요성을 강조한다. 미국 질병통제예방센터(CDC)도 독감 예방접종을 강조하며 예방접종률 끌어올리기에 나선 상황이다.트윈데믹을 막기 위해 우리 정부는 독감 국가예방접종 대상자를 지난해 1381만명에서 올해 1900만명으로 대폭 확대했다. 백신도 기존 3가에서 4가로 변경했다. 독감 예방접종 무료 혜택 대상을 대폭 늘렸다. 백신을 기존 3가에서 4가로 변경하고 국가예방접종 대상자를 지난해 1381만명에서 올해 1900만명으로 대폭 확대했다. 올해 백신 생산물량은 2950만병 가량으로 전 국민이 다 맞을 양에는 못미치지만, 건강 취약 계층을 감당하기엔 충분한 양이다.무료접종 대상은 생후 6개월~만 18세 미만 소아·청소년, 임산부, 만 62세 이상 노인 등이다. 우선접종 대상인 소아·청소년·임산부는 오는 22일부터 무료 접종이 가능하며, 만 62세 이상 고령층은 10월 중순부터 무료접종 혜택을 받을 수 있다.아울러 전문가들은 독감 예방접종시 폐렴 백신도 함께 접종할 것을 권고한다. 코로나19의 대표적 합병·후유증으로 폐 기능 손상이 지목되고 있는데, 폐렴 백신을 접종하면 코로나19 감염시 폐 기능 손상을 막는데 도움이 될 수 있다고 판단한다. 다만 폐렴 백신 접종 자체로는 코로나19 감염예방 효과가 없다. 독감 예방접종과 함께 트윈데믹 예방의 핵심은 개인 방역에 있다. 대면 접촉을 줄이고 비말전파를 막기 위한 마스크 착용은 늘 강조해도 지나치지 않다. 손씻기 등 개인위생 관리는 독감과 코로나19 모두에 효율적인 예방책이다.eonki@news1.kr"
27,news1,"거창군, 추석 앞두고 코로나19 방역관리 강화대책 긴급 발표 10대 행동수칙 준수 등 코로나 확산 방지에 적극 동참 호소(경남=뉴스1) 김대광 기자|2020-09-15 14:16 송고기사보기네티즌의견인쇄확대축소","구인모 군수가 15일 군청 상황실에서 코로나19 확산방지를 위한 거창군 방역관리 강화대책 긴급 기자회견을 하고 있다© 뉴스1경남 거창군은 지난 11일 인접 함양지역에서 코로나19 확진자 6명(14일 기준)이 발생해 지역민들의 동요와 불안감이 커짐에 따라 15일 군청 상황실에서 긴급 브리핑을 갖고 ‘거창군 방역관리 강화대책’을 발표했다.구인모 군수는브리핑을 통해 “기나긴 장마와 집중호우, 태풍 등으로 어려움을 겪고 있으며 코로나19로 인해 9개월이란 긴 싸움 속에서 마스크 착용의 피로감과 2단계 사회적 거리두기 등 매우 힘든 생활을 하고 있다”며 “최근 우리군과 연접한 지역에 확진자가 발생함에 따라 관내 확산방지를 위해 한층 강화된 방역관리 대책을 발표한다”고 밝혔다.이번 방역관리 대책에는 △실내‧외 마스크 착용 의무화 행정명령 발동 △마스크 군민 1인당 7매씩 배부 △전통시장 방역 강화 △강화된 시외버스터미널 방역 △추석기간 중 타 지역 방문 자제요청 △개천절, 한글날 서울 집회참석 자제 △택시 운수종사자 타 지역 운행 자제 △코로나19 예방 행동수칙 10가지 준수 등을 담고 있다. 구 군수는 철통같은 방역 대책을 수립해 지역 내 코로나19 감염자를 원천 차단하겠다고 했다.아울러 사람과 사람 사이 두 팔 간격(2m) 거리유지, 환기가 안 되고 많은 사람이 가까이 모이는 장소는 방문 자제하기, 매일 본인의 발열, 호흡기 증상 등 코로나19 임상증상 발생 확인하기, 필요하지 않는 여행 자제하기 등 코로나19 예방을 위한 10가지 행동수칙을 반드시 지켜줄 것을 당부했다.  구인모 군수는 “군민들의 안전을 최우선에 두고 코로나가 완전히 종식될 때까지 모든 행정력을 동원해 철통방역에 최선을 다하겠다”며 “사적인 모임 자제와 안전한 집에 머물기 등 군민이 함께 협력해 주신다면 더 빠르게 온전한 일상과 정상적인 경제로 돌아가게 될 것""이라며 적극적인 동참을 호소했다.vj3770@news1.kr"
28,news1,"법무부, 코로나 방역기여 등 '적극행정 우수사례' 발표 차관회의서 주요부처 '적극행정 릴레이 발표'코로나19 대응 시스템 구축·마을법률 담당 공무원 사례(서울=뉴스1) 박승희 기자|2020-10-08 15:35 송고기사보기네티즌의견인쇄확대축소","고기영 법무부 차관. 2020.9.18/뉴스1 © News1 조태형 기자법무부가 신종 코로나바이러스 감염증(코로나19) 대응을 위한 시스템 구축을 비롯한 3가지를 적극 행정 우수사례로 꼽았다고 8일 밝혔다. 고기영 법무부 차관은 이날 제40차 차관회의에서 주요부처 '적극행정 릴레이 발표'를 통해 법무부 적극행정 우수사례 및 중점추진과제를 발표했다.이날 법무부가 발표한 적극행정 대표 우수사례 3건은 △기관별 맞춤형 정보제공을 통한 코로나19 방역대응 기여 △전국 읍·면·동 마을법률담당공무원 1636명 지정 △코로나19에도 전자발찌 대상자 감독 강화 3가지다.법무부는 신속한 사업 추진으로 외국인 전자민원 처리시스템을 개선, 기관 방문 없이도 각종 신고업무를 온라인으로 처리할 수 있도록 비대면 업무처리 시스템을 구축한 것을 우수사례로 꼽았다.또한 산재해있던 외국인 관련 정보를 통합 관리하도록 하고 기관별로 방역업무 수행을 위한 맞춤형 정보를 제공함으로써 코로나19 확산 방지에 기여했다고 설명했다. 마을변호사 제도를 주민에게 소개하고 이용 방법을 안내하는 업무를 맡는 '마을법률 담당공무원'을 대규모로 신규 지정해 법률서비스 소외지역 주민들이 법률 서비스에 보다 쉽게 접근할 수 있도록 한 점도 긍정적으로 평가했다.코로나19 확진자 발생으로 관제센터가 폐쇄돼 전자감독 대상자 모니터링이 중단될 수 있는 위험을 미리 차단한 것도 우수사례로 꼽혔다. 법무부는 재택근무용 관제시스템을 선제적으로 구축, 무중단 관제업무를 수행할 수 있게 했다.법무부는 지난달 사례와 관련된 실무 공무원들 포상식을 개최한 바 있다.한편 법무부는 △전자감독 확대 △외국인 우수인재 유치 확대 △코로나19 방역관리 3건을 적극행정 중점과제로 선정하여 추진 중에 있다.고 차관은 ""급변하는 행정환경에 선제적으로 대응하도록 적극행정을 확산하여 범죄로부터 국민안전을 강화하고, 국민 눈높이에 맞는 법무행정서비스를 제공하도록 노력하겠다""고 밝혔다.seunghee@news1.kr"
29,news1,"오늘 동네의원 4곳 중 1곳 휴진…갈등 봉합 못하면 코로나 방역 구멍  13일 오후 2시기준 휴진율 24.7% 집계…6년전보다 높을 것으로 예상 병원 진료로 의료 공백 없지만, 코로나19 극복엔 의사 협조가 필수(서울=뉴스1) 음상준 기자, 이영성 기자|2020-08-14 06:30 송고 | 2020-08-14 09:01 최종수정기사보기네티즌의견인쇄확대축소","전국 의사들의 집단휴진 총파업을 하루 앞둔 13일 서울의 한 대형병원 응급실로 환자들이 이송되고 있다. 대한의사협회는 정부의 의대정원 확대와 공공의대 설립 등에 반발하며 14일 총파업을 예고했다./뉴스1 © News1 황기선 기자14일 전국 동네의원 4곳 중 1곳이 의과대학 정원을 확대하는 정부 의료정책에 반대하기 위해 하루 일정으로 집단휴진에 들어간다. 다만 병원급 이상 의료기관은 이번 집단휴진에 참여하지 않는 만큼, 의료 공백은 크지 않을 것으로 예상된다. 하지만 수도권을 중심으로 신종 코로나바이러스 감염증(코로나19)이 확산세를 보이는 일촉즉발 상황에서 동네의원이 앞다퉈 휴진하는 것을 두고 우려의 목소리가 나오는 것도 사실이다.◇2014년 20.9%→2020년 최소 24.7%…휴진 이유, 원격의료→의대정원 확대이번 동네의원 집단휴진은 지난 2014년 이후 6년 만으로, 의료기관 참여율은 다소 높아질 것으로 예상된다. 지난 2014년 휴진율은 20.9%(보건복지부 기준)였다. 반면 대한의사협회가 발표한 휴진율은 49.1%로 양측 간의 간극이 컸다. 복지부 통계를 기준으로 삼아도 전국 동네의원 5곳 중 1곳이 문을 닫았다.반면 올해 집단휴진 참여율은 2014년보다 높을 것으로 보인다. 복지부가 13일 오후 2시 기준으로 집계한 휴진율은 24.7%다. 이는 6년 전보다 3.8% 포인트 높은 수치다. 하지만 이날 휴진율은 25%를 넘어설 것으로 예상되고 있다. 복지부 관계자는 ""14일 집단휴진 당일에는 여름 휴가철인 만큼 실제 참여율은 더 높아질 것""이라며 ""다만 병원급 의료기관이 집단휴진을 신고한 사례는 아직까지 없다""고 설명했다. 2014년 집단휴진 당시 의협은 정부가 원격의료를 포함한 의료 산업화를 무리하게 밀어붙여 동네의원 진료 환경이 더 나빠지고 의료전달 체계에도 악영향을 미친다고 비판했다.의료전달체계는 환자가 의료기관을 방문할 때 중증도에 따라 1차 동네의원, 2차 병원, 3차 대형병원으로 단계를 밟아가는 의료 시스템이다. 단계가 높은 병원에 가면 진료비가 훨씬 비싸져 감기 등 경증질환 환자들이 대학병원으로 쏠리는 현상을 억제한다. 이번 집단휴진은 오는 2022년부터 매년 400명씩(10년 한시적) 총 4000명의 의사를 추가로 양성하는 보건복지부 정책에 반대하기 위해서다. 의사가 부족하기보다 의사인력이 수도권으로만 몰리도록 정부가 잘못된 정책을 펼쳤다는 게 의협 주장이다. 무리하게 의사인력을 확대하는 것보다 기존 인력을 비수도권 등 취약지역에서 근무할 수 있는 환경을 구축하는 게 우선이라는 입장이다. 의대 정원을 확대하는 것은 지난 2014년 집단휴진 명분인 원격의료 도입보다 훨씬 민감한 문제다. 향후 10년간 4000명의 의사인력이 쏟아질 경우 일선 의료기관 수익이 감소하고 경쟁은 더 치열해질 수밖에 없다. 복지부는 우리나라 의사인력이 턱없이 부족한 만큼 의대 정원 확대는 불가피하다는 입장을 고수하고 있다. 복지부 관계자는 ""지난해 우리나라 인구 1000명당 활동의사는 2.4명으로 OECD 평균 3.4명(2017년 기준)의 71% 수준에 머물렀다""며 ""의대 정원과 공공의대를 통해 해당 수치를 OECD (평균)수준까지 높이겠다""고 강조했다.대한의사협회가 집단 휴진에 들어간 지난 2014년 3월 10일 당시 서울 동작구의 한 내과의원을 찾은 한 시민이 의원 측이 내건 휴진 안내와 보건소가 부착한 업무개시 명령이 나란히 붙은 출입문을 흔들어 보고 있다./뉴스1◇휴진에 따른 '진료 차질' 없을 듯…휴진 이후 코로나 협조가 문제지난 7일 전공의 집단휴진에 이어 이날 동네의원 휴진 역시 일선 의료현장에 미치는 영향을 크지 않을 전망이다. 이번 휴진에는 동네의원뿐만 아니라 전공의, 봉직의사들도 함께 참여한다. 하지만 진료를 중단하기 어려운 병원급 의료기관 특성상 전공의와 봉직의 참여율은 낮을 것으로 예상된다. 지난 2014년 집단휴진 때도 병원급 이상 의료기관은 정상적으로 진료 업무를 보면서 동네의원 중심으로 집단휴진이 이뤄졌다. 복지부는 14일 동네의원 집단휴진을 피할 수 없다고 보고 지난 12일 김강립 차관이 대한병원협회와 대한중소병원협회, 대한간호협회를 차례로 만나 대책을 논의했다. 김강립 차관은 이날 병원협회, 중소병원협회 임원진에게 ""환자들에게 위험이 생기지 않도록 집단휴진에 대비해 휴진 당일 진료 연장과 응급의료체계 유지 등이 이뤄지도록 협조해 달라""고 거듭 요청했다.문제는 이번 집단휴진 이후 복지부와 의사단체 갈등이 더 깊어지면 코로나19 방역에 구멍이 생길 수 있다는 점이다. 현재 코로나19는 수도권을 중심으로 소규모 집단감염이 연이어 발생하고 있다. 지난 12~13일 이틀 연속으로 신규 확진자가 50명대로 쏟아졌다. 중앙방역대책본부는 13일 브리핑에서 ""수도권 상황은 지난 5월 초 이태원 클럽 때보다 훨씬 위험한 상황""이라고 경고했다. 이런 상황을 고려해 복지부는 의사단체를 상대로 강경 발언을 삼가는 모습을 보였지만, 당분간 냉각기가 이어질 전망이다. 현재 코로나19 확산세는 예사롭지 않다. 오는 9~10월 지난 2~3월 대구와 같은 2차 감염파도가 온다면 의사단체 협조가 꼭 필요하다. 집단휴진 이후가 걱정되는 이유다.sj@news1.kr"
30,news1,"'최대비상체제' 북한 코로나19 방역, 6개월 전과 다른 점은 최룡해·박봉주 등 고위급 간부 잇달아 방역 현장 점검방역 인식 바뀐 듯…이동 부담 덜고 손소독·발열 확인 집중(서울=뉴스1) 양은하 기자|2020-08-05 07:00 송고기사보기네티즌의견인쇄확대축소","(평양 노동신문=뉴스1) = 최룡해 북한 최고인민회의 상임위원회 위원장 겸 국무위원회 제1부위원장이 개성시를 찾아 비상방역사업을 점검하는 모습. [국내에서만 사용가능. 재배포 금지. DB 금지. For Use Only in the Republic of Korea. Redistribution Prohibited] rodongphoto@news1.kr북한이 신종 코로나바이러스 감염증(코로나19) 방역 관련 국가비상방역체계를 '최대비상체제'로 격상하면서 방역 초기였던 지난 2월과 비교해 대응 방법에도 변화가 감지된다.가장 눈에 띄게 달라진 점은 고위급 간부들의 잇단 방역 현장 실태 점검이다.앞서 최룡해 북한 최고인민회의 상임위원장 겸 국무위원회 제1부위원장이 지난달 30일(보도일 기준) 개성시를 찾은 데 이어 박봉주 당 중앙위 부위원장이 4일 남포항을 찾아 방역점검에 나섰다.김재룡 내각총리도 지난 2월12일과 5월24일 남포시를 찾아 방역 사업을 점검했었지만 이번에는 북한의 공식 권력 서열 2위와 3위가 연이어 현지에 파견됐다는 점에서 무게감이 조금 다르다.이는 북한이 최근 코로나19 대응 수위를 한층 높인 데 따른 것으로 보인다. 김정은 국무위원장은 지난달 25일 정치국 비상확대회의에서 '최대비상체제'를 선포하고 특급경보를 발령했는데 고위급이 직접 방역 현장을 찾으면서 1호의 지시가 제대로 이행되고 있음을 보여주려는 것이다. 방역 장기화에 강도까지 높아지면서 성난 민심을 달래려는 의도도 있어 보인다. 특히 최룡해 상임위원장이 찾은 개성시는 비상사태가 선포되고 '완전봉쇄' 조치가 내려지는 등 강력한 통제가 이뤄지고 있다.김 위원장을 제외하면 북한에서 사실상 가장 높은 인물인 최룡해 상임위원장을 이곳에 보냄으로써당국이 어려운 상황의 주민을 챙기고 있다는 점을 강조하는 모습이다.대외적으로는 탈북민의 월북으로 촉발된 이번 상황을 그만큼 심각하게 보고 있다는 것을 부각하려는 속셈일 수 있다. 추후 코로나19 사태가 확대될 경우 이에 대한 책임을 우리 정부에 전가하기 위한 포석이라는 것이다. 다만 북한은 현재까지 '감염자 0명' 주장을 고수하고 있다.실제 북한 내 코로나19 상황이 이전과 비교해 더 심각해졌는지는 확인할 수 없지만 이번 고위급 파견에는 방역에 대한 북한의 인식 변화도 영향을 미쳤을 것으로 보인다.코로나19 확산 초기에는 감염 경로와 방역 방법 등에 대한 불확실성이 컸던 만큼 이동에 대한 불안과 두려움도 컸을 것이다. 당시에는 국경 근처 주민과 외국인을 격리 조치했고 마스크 보급도 완전히 이뤄지지 않았다. 6개월간의 방역과 각국의 코로나19 대처 방법 등을 관찰하면서 이동에 대한 부담이 조금씩 완화됐을 수 있다. 노동당 기관지 노동신문에 보도된 코로나19 방역 관련 사진도 조금 달라졌다. 이전에는 공항이나 기차역, 열차, 버스 내부를 소독하는 사진이나 방역 대책을 논의하는 의료진 사진이 많았다면 최근에는 주민들이 곳곳에 놓여있는 소독수로 손을 씻거나 건물 입구나 도로에서 온도계로 체온을 측정하는 사진이 눈에 띈다.이는 내부 생산과 외부에서 받은 방역 물자가 어느 정도 확보되면서 더 철저한 방역이 가능해진 것으로 해석된다.(평양 노동신문=뉴스1) = 북한 노동당 기관지 노동신문은 3일 신종 코로나바이러스 감염증(코로나19) 최대비상체제에 돌입한 천리마구역당위원회를 조명했다. [국내에서만 사용가능. 재배포 금지. DB 금지. For Use Only in the Republic of Korea. Redistribution Prohibited] rodongphoto@news1.kr yeh25@news1.kr"
31,news1,"주호영 ""의사파업, 정부가 물러서라…코로나 방역 전념하게 해야"" ""정부가 협의없이 정책 제기…K 방역 주역 괴롭혀서는 안 된다""""비대면 진료 강행하면 K 방역 구멍…정부가 대국적으로 갈등 정리를""(서울=뉴스1) 유경선 기자|2020-08-27 18:14 송고기사보기네티즌의견인쇄확대축소","주호영 미래통합당 원내대표가 26일 오전 서울 여의도 국회에서 열린 비상대책위원장·중진의원 회의에서 발언하고 있다. 2020.8.26/뉴스1 © News1 성동훈 기자주호영 미래통합당 원내대표는 27일 전국의사총파업과 관련해 신종 코로나바이러스 감염증(코로나19) 상황에서 정부가 일방적 정책으로 불필요한 갈등을 유발했다며 결자해지에 나서야 한다고 촉구했다.주 원내대표는 이날 페이스북에 올린 '의사파업, 정부가 물러서야 할 다섯 가지 이유'라는 제목의 글을 올리고 ""코로나19 확진자가 오늘 440명 이상 크게 늘어난 와중에 정부는 코로나19 방역에 전념해야 할 의사들과 전면전을 벌이고 있다""며 이렇게 밝혔다.주 원내대표는 ""의대 정원 10년간 4000명 증원, 공공의대 신설, 한약 첩약 의료보험 적용, 비대면 진료 허용은 정부가 갑작스럽게 불쑥 내놓은 정책""이라며 ""의료계와 충분한 협의없이 제기됐다""고 비판했다.전문가와 시민사회단체가 참여하는 추천위원회가 공공의대생을 선발한다는 내용을 보건복지부가 발표한 데 데해서는 ""시민단체 활동가 자녀의 의대 진학을 돕기 위한 현대판 음서제냐""라며 ""충분히 검토되지 않은 설익은 정책""이라고 꼬집었다.이어 코로나19 재확산 국면에서 의료인력을 현장으로 빨리 돌려보내야 한다며 ""정부는 지금까지 'K 방역'을 자랑해왔고, 대한민국의 전국민 의료보험제도·의료시스템·방역 체계가 세계 최고 수준임이 코로나19 사태에서 확인됐다""며 ""그 주역이 의사들인데, 이들에게 포상과 칭찬은 못해줄망정 설익은 의료정책을 강요하면서 괴롭혀서는 안 된다""고 적었다.주 원내대표는 ""의사 수가 적정한지 아닌지를 두고 정부와 의사들이 감정싸움을 할 일이 아니고, 국회에 특위를 구성하든지 해서 좀더 장기적인 관점에서 다루기를 바란다""고 강조했다.또 ""'문재인 케어' 도입으로 건강보험 재정에 구멍이 났고, 1~3차 의료기관 사이 칸막이가 너무 낮아서 '비대면 진료'가 확산될 경우 지역 의원과 작은 병원들은 생존이 위협받는다고 우려하고 있다""며 ""코로나19 위기를 이용해 비대면 진료를 밀어붙인다면 정부가 자랑하는 K 방역에는 구멍이 날 수밖에 없다""고 주장했다.주 원내대표는 ""지금은 온 나라가 역병과 전쟁을 치르고 있는 때""라며 ""정부가 대국적으로 갈등을 정리하고 코로나19 방역에 매진하길 바란다""고 덧붙였다.  kaysa@news1.kr"
32,news1,"文대통령, 오늘 교회지도자들 만나 '코로나 방역' 협조 당부 청와대 초청 간담회…""코로나 상황 엄중함 설명하고 협조 요청""(서울=뉴스1) 구교운 기자|2020-08-27 05:00 송고기사보기네티즌의견인쇄확대축소","문재인 대통령이 지난해 7월3일 청와대에서 열린 한국교회 주요 교단장 초청 오찬 간담회에 참석해 인사말을 하고 있다. (청와대 제공) /뉴스1문재인 대통령은 27일 한국 교회 지도자들을 청와대에 초청해 신종 코로나바이러스 감염증(코로나19) 방역에 관한 협조를 당부한다.문 대통령은 이날 오전 11시 청와대 본관에서 김태영·류정호·문수석 한국교회총연합 공동대표회장 등 교회 지도자 16명과 1시간 동안 간담회를 진행한다.이번 간담회는 전광훈 목사와 사랑제일교회 등 일부 교회를 중심으로 방역 당국의 방역조치 및 역학조사에 관한 방해 행위가 조직적으로 이뤄지고 있는 상황에서 교회 지도자들의 협조를 요청하기 위해 마련된 것으로 풀이된다.또 코로나19로 힘든 시기를 겪고 있는 국민들에게 종교계가 연대의 힘을 모을 수 있도록 역할을 당부하고, 교회의 애로사항과 조언을 청취할 예정이다.문 대통령은 취임 후 지난해 7월 개신교와 불교, 올해 8월 천주교 등 종교 지도자들을 각각 1차례씩 초청해 간담회를 진행했다. 이날 간담회를 포함하면 교회 지도자들은 2번째 초청하는 것이다.청와대 관계자는 ""이날 간담회는 최근 다시 빠르게 확산되고 있는 코로나19 위기 상황의 엄중함을 설명하고 협조를 구하기 위해 이뤄진다""고 설명했다.  kukoo@news1.kr"
33,news1,"양승조 충남지사, 코로나19 방역 현장·취약계층 점검 코로나19 임시생활시설 방문해 현장 근무자 격려(대전ㆍ충남=뉴스1) 한희조 기자|2020-09-10 16:14 송고기사보기네티즌의견인쇄확대축소","양승조 충남도지사가 보령시 대천1동 대한노인회 보령시지회를 방문했다. © 뉴스1양승조 충남도지사가 10일 보령지역 코로나19 일선 방역 현장을 점검하고 노인‧장애인 등 취약계층과 소외지역 마을을 방문했다.이날 현장 점검 및 간담회에는 양 지사와 보령시장, 해당 지역구 의원, 마을주민 및 단체 대표 등이 참여했다. 양 지사는 이날 보령시 대천1동 대한노인회와 대천3동 보훈회관 등을 방문해 노인 일자리 확대 등 노인의 사회 참여 활동 지원 방안과 국가유공자 참전수당 지원 등 예우 방안에 대해 논의했다. 또 코로나19 임시생활시설로 활용 중인 성주산 자연휴양림을 방문해 해외 입국자 및 국내 접촉자 격리 현황과 방역 상황을 살피고, 현장 근무자들을 격려했다. 지난 2월 임시생활시설로 지정된 성주산 자연휴양림은 주간 11명, 야간 4명의 근무자가 24시간 관리하고 있으며 현재 입소자는 총 30명이다. 끝으로 미산면 옥현2리 내동마을을 방문해 마을 시설 개선 등 지역주민 건의사항을 청취하고, 코로나19 확산 차단을 위해 개인 위생수칙을 철저히 준수해 줄 것을 당부했다.gmlwh1010@news1.kr"
34,news1,"통합 ""방역에 여야 있을 수 없다""…코로나19 대책 수립 시동 김종인 취임 후 첫 코로나19 긴급대책회의…""질본 중심으로 통제해야""주호영 ""책임전가 희생양 찾기 중단돼야""…백신·병상·마스크 등 점검(서울=뉴스1) 김일창 기자|2020-08-23 15:32 송고 | 2020-08-23 16:17 최종수정기사보기네티즌의견인쇄확대축소","김종인 미래통합당 비대위원장이 23일 오후 서울 여의도 국회에서 열린 '코로나19 관련 기자간담회'에서 모두발언을 하고 있다. 2020.8.23/뉴스1 © News1 성동훈 기자미래통합당은 23일 코로나19(신종 코로나바이러스 감염증)의 확산을 막기 위해 종합적인 대책을 수립하겠다고 밝혔다. 정부·여당을 향해서는 부동산 등 정책 실패를 코로나 정국으로 돌파하려는 행태를 당장 중단하라고 촉구하는 한편, 질병관리본부 중심의 방역 대책 수립, 2차 긴급재난지원금 검토 등에 나서자고 제안했다.김종인 비상대책위원장은 이날 오후 국회에서 첫 코로나19 관련 긴급대책회의를 갖고 ""코로나19 방역에 여야가 있을 수 없는 만큼 통합당은 코로나19와의 전쟁에 총력을 다할 것""이라고 말했다.김 위원장은 정부·여당이 맞서야 할 것은 야당이 아니라 코로나19라는 점을 강조한 뒤""방역에 여야가 있을 수 없다""며 ""지지율을 신경 쓰는 '정치 방역'을 중단하고 코로나19 방역에 집중하라""고 목소리를 높였다.그는 ""다시 강조하지만 코로나19는 질병관리본부(질본)를 중심으로 전문가가 지침을 내리고 통제할 수 있도록 해야 한다""고 강조했다. 통합당은 △지역 상황에 맞는 사회적 거리두기 시행 △2차 재난지원금 △4차 추가경정예산안 △지방 보건소 등에 대한 질본의 지휘권 인정 △의사협회 파업 중단 끌어내기 등을 정부·여당에 요구했다.주호영 원내대표는 지난 15일 광화문 집회 참석자들에게 확산 책임을 묻는 듯한 정부여당의 태도를 꼬집었다. 주 원내대표는 ""이럴 때일수록 국민이 화합해 코로나19를 극복해야 함에도 정부여당은 희생양을 찾고 책임을 전가하고 있다""며 ""그러면서 정부여당에 우호적인 단체에 대해서는 전혀 제재를 가하지 않는 등의 여러 문제가 있다""고 말했다.이어 ""통합당은 이런 위기 순간에 여야는 물론이고 모든 국민이 일심으로 단결해 방역 당국이 제시하는 원칙 기준을 지켜 이 위기를 극복할 것""이라며 ""그 과정에서 정부가 제대로 하는지 전문가의 의견은 존중하는지 이런 점을 챙길 것""이라고 덧붙였다.코로나19대책특위 위원장으로 내정된 신상진 전 의원은 ""치료제 확보를 위해 어떤 노력을 하는지, 중증 환자 병상과 KF94 마스크 확보 등의 준비가 잘 되는지 등을 앞으로 점검할 것""이라며 ""재난지원은 국가 재정 대책에도 한도가 있기에 취약계층이나 피해를 많이 본 사람들에게 우선적으로 지원될 수 있는 방안을 검토하겠다""고 했다.그러면서 ""다른 건 몰라도 코로나19 극복만큼은 최우선 순위로 두고 여야가 힘을 합쳐 극복할 수 있도록 노력해달라""고 민주당에 당부했다.ickim@news1.kr"
35,news1,"전문가들 ""추석 코로나 특별방역 지침 금주엔 발표해야"" ""충분한 시간 갖고 대비할 수 있도록 지침 미리 내놔야""""귀경길 최소화 대책과 함께 지역내 다중시설 방역대책도""(서울=뉴스1) 황덕현 기자, 강수련 기자, 원태성 기자|2020-09-16 15:23 송고기사보기네티즌의견인쇄확대축소","정세균 국무총리가 16일 서울 세종로 정부서울청사에서 열린 코로나19대응 중대본회의에 참석하고 있다. 2020.9.16/뉴스1 © News1 김명섭 기자신종 코로나바이러스 감염증(코로나19) 상황이 감염자 세자릿수가 계속되는 가운데 정부는 수도권의 거리두기를 2단계로 조정하고 추석연휴를 전후해 2주간을 특별방역기간으로 정해 특단의 대처를 해나가기로 했다. 그러나 구체적 방법은 나오지 않은 상태다. 방역 전문가들은 지자체별 행정당국은 물론 시민들과 경제 주체들이 대비할 수 있도록 이번주 내 구체적인 발표가 이뤄져야 한다고 한목소리를 냈다. 정세균 국무총리는 16일 오전 코로나19 대응 중앙재난안전대책본부 회의를 주재한 자리에서 ""올해 추석 연휴 만큼은 무엇보다도 코로나19로부터 가족의 안전을 서로 지켜주는 명절이 될 수 있도록 적극적인 동참을 부탁드린다""면서 특별방역기간 운영의사를 밝혔다. 정 총리는 ""좀 더 멀리 내다보고 국민들이 예측 가능하도록 행동수칙을 미리 안내해 방역의 실천력을 극대화하기 위한 결정""이라며 운영 이유를 밝혔다. 하지만 아직 세부지침은 전파되지 않았다. 중대본을 중심으로 각 부처간 소통이 계속되고 있는 것으로 알려졌다. 구체적인 안이 나오기까지는 다소 시간이 걸릴 것으로 보인다. 하지만 의료 전문가들은 이번주 안에는 구체적인 안이 나와야 한다고 지적한다. 추석 명절은 지난 1일 KTX 명절 예매 개시에서 이미 시작됐기 때문에 발빠른 정부 계획과 권고 사항이 발표되야 한다는 것이다. 한국도로공사도 지난 주말 교통예보를 내면서 ""추석을 앞둔 시점에서 벌초를 하기 위한 차량들이 전주보다 많이 쏟아져 나와 고속도로 이용률이 늘었다""고 밝힌 바 있다. 우왕좌왕하다가는 이미 때를 놓칠 수 있다는 지적이다. 지난 2018년 추석 연휴 당시 경기도 성남시 궁내동 경부고속도로 서울요금소 인근 서울방향(왼쪽) © News1 박세연 기자천은미 이대목동병원 호흡기내과 교수는 ""구체적인 행동지침 등을 (코로나19) 관련 연구논문 등을 근거로 국민들에게 브리핑할 필요가 있다""고 제언했다. 고속버스를 비롯한 대중교통 예약을 50% 아래로 감축시키는 등 특단 대안도 제시했다. 그는 ""(고향에) 내려가지 못하게 할 것이면, 수도권 내에서는 다중이용시설 이용 자제 등 방법도 함께 내야 할 것""이라고 덧붙였다. 지역간 이동을 조정하면서, 지역 내 집단감염을 막을 수 있는 방안도 함께 나와야 한다는 것이다. 김우주 고려대병원 감염내과 교수는 ""귀성열차와 버스 예매가 끝난 상황이고, 코로나19로 지친 몸과 마음을 가족에서부터 '힐링'(Healing)할 수 있는 상황""이라면서 이미 이동을 계획한 이들의 발을 돌리기는 어려울 것이라고 말했다. 그렇지만 각 가정 내에서, 또 귀성과 귀경 상황에서 마스크 착용 등 개인 보건수칙을 지킬 것을 강조했다. 김 교수는 ""(코로나19 국내 발병 이후)지난 9개월간 집단감염이 많았지만,집에서 가족 간 전파도 상당했다""면서 ""오가는 길과 가정 내에서 안전하게 보낼 수 있는 수칙이 강화되야 할 것""이라고 제언했다. 정기석 한림대성심병원 호흡기 내과 교수는 ""(이번 수도권 2.5단계 거리두기처럼) 하루 전에 권고, 제한사항을 내놓는 것은 사람들이 대비하기 힘들다""면서 ""충분한 시간을 가지고 대비할 수 있도록 미리 지침을 발표하는 게 좋겠다""고 덧붙였다.16일 오후 서울 서초구 보건소 옆에 마련된 신종 코로나바이러스 감염증(코로나19) 언택트 선별진료소에서 의료진이 검체 채취를 하고 있다. 지난 14일부터 운영 중인 이 선별진료소는 역학조사실, 문진·검체실, 대면진료실, X-ray실 등으로 구성돼 코로나 뿐만이 아닌 다른 감염병에도 대응할 수 있다. 또한 환자들과 의료진 사이에 유리와 글로브 월이 설치된 비접촉 워킹스루 시설이다. 2020.9.16/뉴스1 © News1 안은나 기자 ace@news1.kr"
36,news1,"""우한發 승객이 온다고?""…인천~우한 하늘길에 네티즌 '부글부글'  국토부 8개월만에 노선재개 허가…티웨이 항공 첫 운항""기업인 왕래는 풀어야"" vs ""코로나 2단계 완화 무색""(세종=뉴스1) 김희준 기자|2020-09-15 14:42 송고기사보기네티즌의견인쇄확대축소","신종 코로나바이러스 감염증(코로나19) 확산으로 막혔던 인천-우한 하늘길이 8개월 만에 다시 재개될 예정이다. 15일 국토교통부에 따르면 전날 티웨이항공의 인천-우한 노선 운항 허가 결정을 내렸다. 한중 양국 항공 당국의 운항 허가에 따라 티웨이항공은 오는 16일부터 주 1회 운항을 시작할 예정이다. 15일 인천국제공항 도착 알림 전광판에 중국 우한발 비행기 도착이 표시되고 있다. 2020.9.15/뉴스1 © News1 이승배 기자코로나19 사태로 막혔던 인천~우한 노선이 오는 16일부터 재개되면서 사이버상 네티즌들의 항의성 반응이 올라오고 있다.코로나 발생지로 알려진 우한에서 자칫 코로나가 전파될 경우 국민적 희생 끝에 완화된 코로나방역 2단계 조치마저 무색할 수 있다는 지적이다. 15일 국토교통부와 항공업계에 따르면 국토부는 지난 14일 중국 지방정부의 방역확인증과 중국 민항국의 운항 허가를 받은 티웨이항공의 인천~우한 노선 운항 허가를 결정했다.코로나 발원지로 인천~우한 운항노선이 다시 이어진 것은 코로나 확산이 시작됐던 올해 1월 이후 8개월 만이다. 국토부 관계자는 ""한중 기업인들의 왕래가 잦은 우한의 국제선 노선을 재개해달라는 요구가 많았다""고 설명했다.티웨이 항공 측은 ""운항은 오는 16일부터 주1회 실시되며 우한노선이 중단된 뒤 국적사와 외항사를 통틀어 첫 운항""이라며 ""이번 노선은 중국 정부의 10개 정기노선 추가 방침에서 받은 마지막 노선이라 뜻깊다""고 전했다. 그러나 이에 대한 여론은 좋지 않다. 국민과 소상공인의 희생으로 간신히 수도권 코로나 방역 단계를 2단계로 완화한 상황에서 중국노선의 재개는 불편하다는 시각이 대부분이다. 한 네티즌(tani****)은 ""왜 하필 우한인가? 정말 싫다""고 불만을 표출했다. 또 다른 네티즌(dory****)은 ""사업이 먼저인가, 사람이 먼저인가. 그러면 머하러(뭐하러) 2.5단계를 2단계로 낮췄나""고 비판했다. cor7****란 네티즌은 ""중국에서 코로나가 비롯됐다는데 노선 개방이 너무 이른 것 아니냐""며 우려를 나타냈다. 네티즌 mich****는 ""우리 국민은 추석때 가족방문도 자제하라고 권고하면서 우한항로를 열다니 너무한다""고 토로했다.반면 언제까지 해외노선을 막을 수는 없을 것이라는 옹호 입장도 나온다. 한 시민은 ""수출중심의 국가에서 경기회복을 위해선 결국 먼저 문을 열어야하는 것 아니냐""며 ""다만 방역엔 철저한 관리가 필요하다""고 언급했다. 정부 관계자는 ""인천공항의 3단계 방역시스템은 세계공항을 선도할 만큼 우수하다""며 ""코로나에 대한 우려를 종식시킬 수 있도록 최선을 다해 국내유입을 막을 것""이라고 전했다.  h9913@news1.kr"
37,news1,[특징주] 코로나19 방역조치 추가 시사…물류株 급등  (서울=뉴스1) 정은지 기자|2020-08-28 09:30 송고기사보기네티즌의견인쇄확대축소,"정세균 국무총리가 28일 오전 서울 세종로 정부서울청사에서 열린 신종 코로나바이러스 감염증(코로나19) 대응 중앙재난안전대책본부회의에서 모두발언을 하고 있다. 2020.8.28/뉴스1 © News1 임세영 기자택배 등 물류업체 관련주가 정부가 신종 코로나바이러스 감염증(코로나19)에 대응하기 위해 더욱 강력한 방역조치를 추가한다는 소식에 급등 중이다. 28일 오전 9시 20분 기준 한익스프레스 주가는 전일 대비 1295원(26.62%) 오른 6160원에 거래되고 있다. 동방은 415원(19.39%) 오른 2555원을, 한솔로지스틱스는 330원(15.17%) 오른 2505원을 가리키고 있다. 이 외에 KCTC(7.51%), 현대글로비스(3.08%), CJ대한통운(2.68%) 등도 오름세다. 정세균 국무총리는 이날 28일 중앙재난안전대책본부 회의를 주재하고 ""주말에 종료되는 수도권의 2단계 거리두기를 한 주 더 연장하되, 더욱 강력한 방역조치를 추가한다""고 밝혔다.정 총리는 ""오늘 회의에서 음식점·카페 등 우리가 일상에서 가장 많이 이용하는 업소의 영업방식과 운영시간을 제한하는 방안을 논의한다. 불편한 점이 많아지겠지만 국민께서 적극 협조해 주실 것을 당부드린다""며 이같이 말했다.  ejjung@news1.kr"
38,news1,"코로나19-독감, 트윈데믹의 공포…10월 방역 실패하면 현실화 인구대이동 추석 이후 확산세·독감 유행에 따라 확진자 규모 결정 동네의원 ""두 감염병 구분 어려워, 동시진단키트 등 대응체계 시급""(서울=뉴스1) 음상준 기자|2020-09-29 05:00 송고 | 2020-09-29 09:06 최종수정기사보기네티즌의견인쇄확대축소","25일 오후 서울 동대문구 한국건강관리협회 건강증진의원 서울동부지부에서 시민들이 독감예방 접종을 위해 줄을 서 대기하고 있다./뉴스1 © News1 황기선 기자추석연휴를 앞두고 신종 코로나바이러스 감염증(코로나19)과 인플루엔자(독감)가 동시에 유행하는 트윈데믹(twindemic)에 대한 긴장감이 높아지고 있다. 방역당국은 10월 추석연휴 이후 집계하는 신규 확진자에 따라 트윈데믹 규모가 결정될 것으로 예상한다. 환경적인 상황은 갈수록 나빠지고 있다. 날씨가 추워지는 10월 이후에는 독감 환자가 늘어날 가능성이 높아서다. 증상 구분이 어려운 코로나19와 독감에 동시에 감염되는 환자가 많아질 수밖에 없다. ◇코로나19·독감 동시감염 3명 보고…독감 예년보다 줄어도 10~12월 안심 못해29일 질병관리청(이하 질병청) 중앙방역대책본부에 따르면 지난 28일 기준으로 3명이 코로나19와 독감에 동시 감염된 것으로 보고됐다. 이들 3명은 코로나19 유행 초기인 지난 2월 코로나19와 독감에 동시 감염된 것으로 조사됐다. 올초 독감 유행 끄트머리에 두 감염병에 동시 감염된 것이다. 독감은 매년 10월부터 유행하기 시작해 이듬해 봄철까지 유행한다. 방역당국은 지난 2월 인플루엔자 A형 바이러스, 3~4월에는 B형 바이러스가 유행한 것으로 확인했다. 다만 코로나19 국내 유입 이후 외출할 때마다 마스크를 쓰고 수시로 손을 씻는 개인방역수칙이 널리 확산하면서 독감 유행이 예년보다 일찍 끝난 것으로 분석했다.불행 중 다행으로 올가을과 겨울철 독감 유행은 예년보다 감염자가 적을 것으로 예상되고 있다. 앞서 독감 바이러스가 유행한 남반구 지역도 사회적 거리두기 실천과 마스크 효과로 감염자가 크게 줄었다. 하지만 날씨가 추워지면서 실내생활이 늘어나는 만큼 일정 규모의 독감 환자가 발생하는 것을 피하기 어렵다. 10월 방역이 트윈데믹 규모를 결정한 관문인 셈이다. 김우주 고대구로병원 감염내과 교수는 ""늦가을과 겨울철에는 바이러스가 생존하기 좋은 환경이 조성되고, 대부분의 사람이 실내에서만 생활한다""며 ""코로나19 처음으로 맞는 환경이다 보니 일정 규모의 트윈데믹은 발생할 수밖에 없다""고 경고했다.이는 해외 국가도 예외가 아니다. 질병청에 따르면 미국에서는 트윈데믹 의심 사례 116건을 검사한 결과, 1건(0.9%)이 양성으로 확인됐다. 중국과 터키도 트윈데믹 감염자 비율이 각각 2.7%, 2%로 조사됐다. 문제는 트윈데믹 규모를 얼마나 효과적으로 줄일 수 있느냐다. 독감이 크게 유행할 경우 증상이 유사한 코로나19 확진자를 구분하기 어렵고, 두 감염병이 동시에 유행할 위험이 점점 높아질 수 있어서다. 민족대명절 추석 연휴를 이틀 앞둔 28일 서울 강남구 수서역에서 수서고속철도(SRT) 방역 직원이 신종 코로나바이러스 감염증(코로나19) 예방을 위해 승객이 내린 열차 내부 방역작업을 하고 있다./뉴스1 © News1 유승관 기자◇동네의원 트윈데믹 벌써부터 걱정…동시진단키트 등 대응체계 시급의원급 의료기관을 운영하는 개업의사들은 벌써부터 트윈데믹을 크게 걱정하고 있다. 두 감염병을 쉽게 구분하기 어렵고, 자칫 코로나19 확산으로 일시적으로 병원 운영을 중단하는 사태가 벌어질 수 있다는 우려감 때문이다.서울에서 내과의원을 운영하는 한 전문의는 ""독감 환자인 줄 알고 치료했다가 코로나19로 밝혀지면 병원 운영에 심각한 타격을 받는다""며 ""독감이 유행하는 11월 이후에는 상황이 심각해질 수 있어 의원에서 어떻게 대응할지 대응지침이 필요하다""고 강조했다.현재로서는 코로나19와 독감을 쉽게 구분하기란 어렵다. 이런 상황을 고려해 방역당국은 코로나19와 독감을 동시에 진단하는 진단키트가 식품의약품안전처 허가 절차를 밟고 있다고 밝힌 바 있다. 이 진단키트를 사용하더라도 코로나19 의심환자는 선별진료소를 먼저 방문하도록 하는 진료 가이드라인이 필요하다는 의견이 많다.대규모 인구이동이 일어나는 추석연휴 방역 관리도 트윈데믹 여부에 중요한 분수령이 될 전망이다. 이에 따라 방역당국은 추석 맞이 마을잔치·지역축제·민속놀이 등을 금지하고, 다중이용시설에서는 방역수칙 준수를 의무화했다. 수도권 내 고위험시설 집합금지도 연장했고, 음식점에서는 테이블 간 1m 거리두기를 실시하는 세부방역대책을 만들었다.트윈데믹 유행은 추석연휴 이후 확산세 여부가 결정될 것으로 보인다. 날씨가 급격히 내려가는 10월 중순 이후부터 11월까지 독감 환자가 급증하기 때문이다. 이에 따라 국내에 3명뿐인 코로나19 및 독감 동시감염자도 크게 늘어날 가능성이 높다.우리나라 인플루엔자 유행주의보 발령 시점은 2017년 12월 1일에서 2018년 11월 16일, 2019년은 11월 15일로 앞당겨졌고, 올해는 이보다 더 빠를 가능성이 제기된다. 11월에 트윈데믹이 급증해 12월쯤 절정에 이를 가능성이 높다.정은경 중앙방역대책본부 본부장은 28일 브리핑에서 ""희망하기로는 사회적 거리두기와 위생수칙, 역학조사를 통해 두 감염병이 유행하지 않도록 억제하는 것을 목표로 세웠다""며 ""두 감염병을 구분하고 진단하는 진료 대응체계를 논의하고 있다""고 설명했다.28일 질병관리본부 중앙방역대책본부에 따르면 이날 0시 기준 코로나19 확진자는 50명 증가한 2만3661명을 기록했다. 신규 확진자 중 국내 지역발생 40명, 해외유입 10명이다. 신규 확진자 50명의 신고 지역은 서울 19명, 부산 1명, 인천 1명, 울산 1명, 경기 13명(해외 1명), 강원 1명, 충북 1명, 경북 3명(해외 1명), 경남(해외 1명), 검역과정(해외 7명) 등이다. © News1 이지원 디자이너© News1 최수아 디자이너 sj@news1.kr"
39,news1,"국민체육진흥공단, 일부 사무시설 재택근무…코로나19 방역 강화 (서울=뉴스1) 임성일 기자|2020-08-20 11:07 송고기사보기네티즌의견인쇄확대축소","국민체육진흥공단(이사장 조재기)이 신종 코로나바이러스 감염증(코로나19) 확산 방지를 위해 올림픽공원 내 사무시설과 공공시설을 21일까지 휴장한다고 20일 밝혔다. 현재 서울 송파구 올림픽공원을 관리하는 공단의 자회사 한국체육산업개발(대표 김사엽) 소속 미화 담당 직원 8명과 경비 직원 6명 등 14명이 코로나19 확진 판정을 받은 상태다.  공단은 송파보건소의 협조로 경비·미화 근무자 등 213명 대상 검사를 완료했는데 이중 양성 14명을 제외한 나머지 189명은 음성 판정을 받았다고 전했다. 나머지 10명은 검사 결과를 기다리고 있다. 일단 공단은 지난 19일 비상회의를 열고 확진자 동선에 포함된 올림픽공원 문화센터를 24시간 동안 폐쇄했다. 아울러 선제적 예방 차원에서 21일까지 문화센터 근무 직원들에 대해 재택근무 조치를 취했다.  조재기 이사장은 ""코로나19의 급격한 확산으로 상황이 엄중해졌다. 고객들과 직원들의 안전을 위해 시설을 휴장하기로 했다""며 ""공단 본연의 체육진흥업무에 소홀함이 없도록 철저한 방역과 전사적인 위기관리로 이번 사태를 조속히 극복할 계획""이라고 밝혔다.lastuncle@news1.kr"
40,news1,한글날 연휴 제주 관광객 10만명…도 코로나19 방역 고삐  추석연휴 관광객수와 비슷…37.5도 이상 의무검사 특별입도 유지(제주=뉴스1) 강승남 기자|2020-10-07 10:52 송고기사보기네티즌의견인쇄확대축소,"추석 연휴가 이어진 지난 3일 오전 관광객들이 제주의 대표적인 오름인 제주시 애월읍 새별오름을 탐방하고 있다. 제주도관광협회에 따르면 지난달 26일부터 2일까지 7일간 23만2269명, 하루 평균 3만3181명이 입도했다.2020.10.3 /뉴스1 © News1 강승남 기자한글날 연휴 3일간 제주를 찾는 여행객이 10만명에 육박할 것으로 전망됐다.7일 제주도와 제주도관광협회에 따르면 9일부터 11일까지 3일 동안 관광객 약 9만5000명 이상이 제주를 찾을 것으로 예측됐다.하루 평균 3만1500명이 넘는 수준으로 지난달 26일부터 지난 4일까지 추석연휴 동안 제주를 방문한 1일 관광객과 비슷한 규모다.제주도는 한글날 연휴 동안 '신종 코로나바이러스감염증'(코로나19) 차단과 청정 제주를 사수하기 위해서 집중 방역관리를 추진할 계획이다.이를 위해 제주도는 5월 황금연휴나 8월 광복절 연휴 이후 전국적으로 코로나19 확산세가 증가한 상황과 코로나19 최대잠복기를 고려해 18일까지 추석연휴 특별방역 위험 관리기간으로 정해 비상체제를 유지한다.특히 제주 입도객 중 37.5도 이상의 발열 증상자는 공항만에서 코로나19 진단 검사를 의무적으로 받아야 하는 특별입도절차도 11일까지 유지한다. 이를 위반할 경우에는 '감염병의 예방 및 관리에 관한 법률'에 따라 최대 1년의 징역과 1000만원의 벌금에 처할 수 있다.감염 고위험 시설을 포함한 41개 유형별 집중 방역 관리도 11일까지 이어진다. 이에 따라 유흥시설 5종·목욕탕‧사우나에 대한 집합제한, 직접 판매 홍보관·게스트하우스 연계 3인 이상 파티 등에 대한 집합금지 조치도 11일까지 적용한다.이와 함께 제주도는 우선 행정시, 관광공사, 관광협회와 함께 합동점검반을 편성하고 한글날 연휴 3일 동안 호텔·콘도(418개소), 야영장(43개소), 유원시설(74개소), 휴양펜션(117개소) 등에 대해 방역수칙 준수 여부를 확인한다.제주도는 총 652개소의 관광사업체의 방역시스템이 체계적이고 지속적으로 가동될 수 있도록 재차 점검에 나선다.제주도는 집중점검을 통해 △방문객 마스크 착용 및 열 감지체크 △방역관리자 지정 △주기적 방역 및 이행수칙 준수 △종사자 위생관리 △생활 속 거리두기 필요성 및 실천 행동요령 안내 △2m 거리두기 이행 여부 등을 확인한다.이와 함께 관광객들이 많이 몰리는 제주공항 1층 도착장 입구(2개소)와 제주항 여객터미널, 8대 핵심관광클러스터(제주공항 인근, 함덕해변, 성산일출봉-섭치코지인근, 표선해변, 서귀포시 구시가지, 중문관광단지, 협재-금능해변, 곽지-한담해변)에서 입도객 대상 마스크 착용 의무화 캠페인을 진행한다. ksn@news1.kr"
41,news1,"타이완 화롄현, 제천시에 코로나19 방역 물품 기증 마스크 커버·방호복 등…쉬전우이 현장의 서한과 함께(제천=뉴스1) 조영석 기자|2020-07-15 13:41 송고기사보기네티즌의견인쇄확대축소","제천시와 자매결연을 맺고 있는 타이완 화롄현에서 코로나19 방역 물품을 보내왔다.(제천시 제공)© 뉴스1충북 제천시는 해외 자매도시인 타이완 화롄현에서 코로나19 방역 물품과 화롄현장의 위문 서한을보내왔다고15일 밝혔다.코로나19로 힘겨운 시기에해외 자매도시의 우의 돈독한 기증은 지난 3월 중국 쓰촨성 펑저우시, 후베이성 언스주, 장쑤성 옌청시에 이어 네 번째다.시는 14일 화롄현에서 보내 온 마스크 커버, 보호안경, 방호복, 의료용 장갑 등 코로나19 방역 물품을 전달 받았다.화롄현 쉬전우이 현장은 서한을 통해 ""엄중한 시기에 화롄현은 제천시를 후원하며 작은 도움이라도 될 수 있기를 희망한다""며 ""이상천 시장님과 함께 제천시민이 한마음으로 코로나19를 이겨낼 수 있으리라 믿는다""고 말했다.이상천 제천시장은""코로나19 방역과 시정현안 사업추진에 고심 중인 엄중한 시기에 먼저 안부를 주신 데 대해 14만 제천시민을 대표해 진심으로 감사드린다""며 ""화롄현의 깊은 우정에 감사드리며 사태가 극복된 후 양 도시 간 더욱 다양하고 활발한 교류가 이어지기를 고대한다""고 답했다.제천시와 화롄현은 2013년 자매결연하고 다양한 분야에서 지속적인 교류를 이어오고 있다.choys2299@news1.kr"
42,news1,"[뉴스1 PICK] '거리두기 2단계' 코로나19 방역강화 첫날  당국 ""이번 주 확산 저지 분수령…거리두기 2단계 30일까지 시행""""거리두기 2단계"" 호텔 뷔페도 '줄휴업'…'혼란가중' 웨딩은 어쩌나?(서울=뉴스1) 임세영 기자|2020-08-20 07:28 송고기사보기네티즌의견인쇄확대축소","19일 오후 경기도 수원시내 한 예식장에서 직원들이 신종 코로나바이러스 감염증(코로나19) 예방을 위해 방역을 하고 있다. 최근 수도권 지역의 사회적 거리두기 2단계 격상으로 실내 50인, 실외 100인의 모임이나 행사가 전면 금지되며 결혼식, 동창회, 동호회, 야유회, 회갑연, 장례식, 돌잔치 등 사적 모임도 포함된다. 2020.8.19/뉴스1 © News1 조태형 기자방역당국이 수도권 지역의 신종 코로나바이러스 감염증(코로나19) 확산 상황과 관련해 ""이번주가 대규모 확산을 저지하는데 가장 중요한 분수령""이라고 밝혔다. 방역당국은 사회적 거리두기 2단계 격상 조치를 오는 30일까지 실시하되 추후 상황을 보며 조정하겠다는 입장이다. 김강립 중앙재난안전대책본부 1총괄조정관(보건복지부 차관)은 19일 정례브리핑에서 ""사랑제일교회 관련 검사중이거나 검사 대기가 다수 남아있고, 이외의 다른 지역에서 집단감염이 연쇄적으로 발생하고 있어 금주까지는 환자 증가 추이가 계속될 것""이라며 이같이 말했다. 19일 서울 양천구 목동 종로학원에 휴원안내가 붙어 있다. 정부는 신종 코로나바이러스 감염증(코로나19) 확산으로 사회적 거리두기를 2단계로 격상한 이후 전날(18일) 수도권 방역조치 강화 추진계획을 통해 대형학원, PC방, 노래연습장 등 고위험시설 12종을 대상으로 오는 30일까지 집합을 금지했다. 2020.8.19/뉴스1 © News1 유승관 기자19일 서울 양천구 목동 종로학원에 휴원안내가 붙어 있다. 정부는 신종 코로나바이러스 감염증(코로나19) 확산으로 사회적 거리두기를 2단계로 격상한 이후 전날(18일) 수도권 방역조치 강화 추진계획을 통해 대형학원, PC방, 노래연습장 등 고위험시설 12종을 대상으로 오는 30일까지 집합을 금지했다. 2020.8.19/뉴스1 © News1 유승관 기자수도권 대형 유명 뷔페 매장이 신종 코로나바이러스 감염증(코로나19) 확산으로 영업을 잠정 중단한 19일 서울의 한 한식 뷔페에 운영 중단 안내문이 붙어 있다. 정부가 코로나19 확산 방지를 위해 서울·경기·인천 등 수도권 지역을 대상으로 '뷔페 금지' 조처를 내렸기 때문이다. 업계에 따르면 CJ푸드빌 '빕스'와 '계절밥상' 서울, 경기, 인천 총 36개 매장은 일시적으로 운영을 중단한다. 빕스는 전국 41개 매장 중 24개, 계절밥상은 13개 매장 중 12개나 해당한다. 2020.8.19/뉴스1 © News1 허경 기자수도권 대형 유명 뷔페 매장이 신종 코로나바이러스 감염증(코로나19) 확산으로 영업을 잠정 중단한 19일 서울의 한 한식 뷔페에 운영 중단 안내문이 붙어 있다. 정부가 코로나19 확산 방지를 위해 서울·경기·인천 등 수도권 지역을 대상으로 '뷔페 금지' 조처를 내렸기 때문이다. 업계에 따르면 CJ푸드빌 '빕스'와 '계절밥상' 서울, 경기, 인천 총 36개 매장은 일시적으로 운영을 중단한다. 빕스는 전국 41개 매장 중 24개, 계절밥상은 13개 매장 중 12개나 해당한다. 2020.8.19/뉴스1 © News1 허경 기자19일 서울 중구 남대문시장 거리 한 음식점이 점심시간에도 불구하고 손님이 없어 한산한 모습을 보이고 있다. 역대 가장 긴 장마에 신종 코로나바이러스 감염증(코로나19) 재확산으로 상인들은 혹독한 상황을 맞고 있다. 2020.8.19/뉴스1 © News1 송원영 기자19일 서울 중구 남대문시장 거리 한 음식점이 점심시간에도 불구하고 손님이 없어 한산한 모습을 보이고 있다. 역대 가장 긴 장마에 신종 코로나바이러스 감염증(코로나19) 재확산으로 상인들은 혹독한 상황을 맞고 있다. 2020.8.19/뉴스1 © News1 송원영 기자19일 오전 서울 중랑구 금란교회 예배당에 마련된 신종 코로나바이러스 감염증(코로나19) 선별진료소에서 중랑구 보건소 의료진이 피검사자의 검체를 채취하고 있다. 2020.8.19/뉴스1 © News1 구윤성 기자19일 오전 서울 중랑구 금란교회 예배당에 마련된 신종 코로나바이러스 감염증(코로나19) 선별진료소에서 중랑구 보건소 의료진이 진료준비를 하고 있다. 2020.8.19/뉴스1 © News1 구윤성 기자실내 50인 이상 실외 100인 이상 대면 모임 및 행사는 원칙적으로 금지되고, 결혼식·장례식·야유회·콘서트·박람회·학술대회 등이 포함된다. 고위험시설인 △클럽·룸살롱 등 유흥주점 △콜라텍 △단란주점 △감성주점 △헌팅포차 △노래연습장 △실내 스탠딩 공연장 △실내집단운동(격렬한 GX류) △뷔페 △PC방 △방문판매 등 직접판매홍보관 △대형학원(300인 이상) 등에 대해서도 집합금지 조치가 시행된다. 다만 기존 고위험시설인 유통물류센터는 필수산업시설에 해당하는 만큼 이번 집합금지 조치에서 제외됐다. 수도권 지역 교회에서는 모두 비대면 예배만을 허용하고, 교회 주관 소모임 및 행사, 단체식사 등이 금지된다. 해당 집합금지 조치 등을 위반할 경우 감염병예방법에 따라 300만원 이하의 벌금이 부과되며, 확진자 발생 시 입원·치료비 및 방역비에 대한 구상권이 청구될 수 있다.신종 코로나바이러스 감염증(코로나19) 확산 예방을 위해 사회적 거리두기 2단계가 시행된 19일 오후 서울 송파구 일대에서 구청 관계자가 한 코인 노래연습장에 코로나19 확산 억제를 위한 집합금지명령문을 붙이고 있다. 서울시는 정부의 사회적 거리두기 2단계 후속 강화조치에 따라 19일 0시부터 별도 해제시까지 유흥시설과 노래연습장 등 기존 12종의 고위험시설에 대한 영업중단 조치를 시행한다. 고위험시설로 분류된 12종은 클럽·룸살롱 등 유흥주점과 콜라텍, 단란주점, 감성주점, 헌팅포차, 노래연습장, 실내 스탠딩공연장, 실내집단운동(격렬한 GX류), 방문판매 등 직접판매홍보관, 대형학원(300인 이상), 뷔페, PC방 등이다. 2020.8.19/뉴스1 © News1 이승배 기자신종 코로나바이러스 감염증(코로나19) 확산 예방을 위해 사회적 거리두기 2단계가 시행된 19일 오후 서울 송파구 일대에서 구청 관계자가 한 pc방에 코로나19 확산 억제를 위한 집합금지명령문을 붙이고 있다. 서울시는 정부의 사회적 거리두기 2단계 후속 강화조치에 따라 19일 0시부터 별도 해제시까지 유흥시설과 노래연습장 등 기존 12종의 고위험시설에 대한 영업중단 조치를 시행한다. 고위험시설로 분류된 12종은 클럽·룸살롱 등 유흥주점과 콜라텍, 단란주점, 감성주점, 헌팅포차, 노래연습장, 실내 스탠딩공연장, 실내집단운동(격렬한 GX류), 방문판매 등 직접판매홍보관, 대형학원(300인 이상), 뷔페, PC방 등이다. 2020.8.19/뉴스1 © News1 이승배 기자19일 서울 양천구 목동의 한 학원에서 관계자들이 방역 작업을 하고 있다. 정부는 신종 코로나바이러스 감염증(코로나19) 확산으로 사회적 거리두기를 2단계로 격상한 이후 전날(18일) 수도권 방역조치 강화 추진계획을 통해 대형학원, PC방, 노래연습장 등 고위험시설 12종을 대상으로 오는 30일까지 집합을 금지했다. 이를 어길 시 감염병 예방 및 관리에 관한 법률에 따라 300만원 이하의 벌금과 확진자 발생시 그에 따른 치료비 및 방역비 등 구상권이 청구된다. 2020.8.19/뉴스1 © News1 유승관 기자19일 오후 경기도 수원시내 한 예식장에서 직원들이 신종 코로나바이러스 감염증(코로나19) 예방을 위해 방역을 하고 있다. 최근 수도권 지역의 사회적 거리두기 2단계 격상으로 실내 50인, 실외 100인의 모임이나 행사가 전면 금지되며 결혼식, 동창회, 동호회, 야유회, 회갑연, 장례식, 돌잔치 등 사적 모임도 포함된다. 2020.8.19/뉴스1 © News1 조태형 기자신종 코로나바이러스 감염증(코로나19) 확산 예방을 위해 사회적 거리두기 2단계가 시행된 19일 오후 서울 마포구 홍대거리에서 시민들이 길을 거닐고 있다. 서울시는 정부의 사회적 거리두기 2단계 후속 강화조치에 따라 19일 0시부터 별도 해제시까지 유흥시설과 노래연습장 등 기존 12종의 고위험시설에 대한 영업중단 조치를 시행한다. 고위험시설로 분류된 12종은 클럽·룸살롱 등 유흥주점과 콜라텍, 단란주점, 감성주점, 헌팅포차, 노래연습장, 실내 스탠딩공연장, 실내집단운동(격렬한 GX류), 방문판매 등 직접판매홍보관, 대형학원(300인 이상), 뷔페, PC방 등이다. 2020.8.19/뉴스1 © News1 이재명 기자신종 코로나바이러스 감염증(코로나19) 확산 예방을 위해 사회적 거리두기 2단계가 시행된 19일 오후 서울 마포구 홍대거리에서 시민들이 길을 거닐고 있다. 서울시는 정부의 사회적 거리두기 2단계 후속 강화조치에 따라 19일 0시부터 별도 해제시까지 유흥시설과 노래연습장 등 기존 12종의 고위험시설에 대한 영업중단 조치를 시행한다. 고위험시설로 분류된 12종은 클럽·룸살롱 등 유흥주점과 콜라텍, 단란주점, 감성주점, 헌팅포차, 노래연습장, 실내 스탠딩공연장, 실내집단운동(격렬한 GX류), 방문판매 등 직접판매홍보관, 대형학원(300인 이상), 뷔페, PC방 등이다. 2020.8.19/뉴스1 © News1 이재명 기자김 1총괄조정관은 ""결혼식을 앞두고 있는 예비 부부들, PC방과 노래방 등을 운영하는 사업주분 등의 일상과 상업에 영향을 미친다는 점에서 정부로서도 곤혹스럽고 어려운 결정이었다""며 ""하지만 지금 방역망의 통제력을 회복하지 못한다면 전국적으로 대규모 유행으로 확산될 위험이 높다는 점에서 신속하고 과감한 조치를 취할 수밖에 없었다""고 양해를 부탁했다. seiyu@news1.kr"
43,news1,울산시장배 'e스포츠대회' 성료…코로나19 방역수칙 준수  (울산=뉴스1) 김기열 기자|2020-07-20 12:01 송고기사보기네티즌의견인쇄확대축소,"제2회 울산광역시장배 e스포츠대회 리그 오브 레전드에서 우승한 'DRX challenge'팀.(울산시 제공) ©뉴스1코로나19 재확산속에 울산에서 열린 e스포츠대회가 무사히 종료됐다.20일 울산시에 따르면 (재)울산정보산업진흥원이 주관하는 '2020 제2회 울산광역시장배 e스포츠대회'가 18~19일 이틀간 열렸다.대회는 코로나19 확산 예방을 위해 전자출입명부, 거리두기 등 방역수칙을 철저히 준수해 PC방에서 차분하고 질서 있게 진행됐으며, 안전사고나 발열이상 증세를 보였던 선수도 없었다. 대통령배 전국 아마추어 e스포츠대회의 울산지역 대표선발을 겸한 이번 대회는 리그 오브 레전드, 배틀그라운드, 오디션, 카드라이더, 모바일 게임 첫 정식 종목인 브롤스타즈까지 총 5개 종목에 182명의 선수가 선발돼 토너먼트 형식으로 진행됐다.단체전 리그 오브 레전드에서 'DRX challenge'팀(김연웅,목정규,송현민,윤세준,장재영), 배틀그라운드는 'XQ3'팀(김민재,이승철), 오디션은 '성공을 기원하며 발전을 기원하며'팀(김상구,김태현,박창희), 첫 정식 모바일게임 종목 브롤스타즈에서는 '글로리아'팀(곽재우,도지송,신은규)이 각각 우승을 차지했다.개인전 카드라이더에서는 이민형 선수가 1위를 차지했으며, 종목별 1~2위에게는 각각 울산광역시장상과 (재)울산정보산업진흥원장상의 상장과 상금이 수여됐다.리그 오브 레전드, 오디션, 브롤스타즈 1위팀과, 배틀그라운드, 카트라이더 1~2위 팀은 오는 11월 문화체육관광부가 주최하고 한국e스포츠협회에서 개최하는 '제12회 대통령배 전국 아마추어 e스포츠대회'의 울산지역 대표로 참가하게 된다.시 관계자는 ""e스포츠와 게임분야에 건전한 환경 조성과 게임콘텐츠 산업 육성을 위하여 정책적 지원을 아끼지 않겠다""며 ""울산e스포츠 협회와 함께 e스포츠 시설 확충, 지역의 e스포츠 인재발굴 및 육성과 e스포츠문화 저변확대를 위해 노력해 나가겠다""고 말했다. kky060@news1.kr"
44,news1,"""추석연휴 코로나19 확산 막자""…진안군, 특별방역 추진 (진안=뉴스1) 김동규 기자|2020-09-28 15:37 송고기사보기네티즌의견인쇄확대축소","28일 전북 진안군이 추석연휴 코로나19 방역대책 회의를 갖고 있다.(진안군제공)2020.9.28/뉴스1전북 진안군은 28일 군청 상황실에서 전춘성 군수 주재로 실·과·소·읍·면장이 참석한 가운데 추석연휴 신종 코로나바이러스 감염증(코로나19) 특별방역 대책회의를 가졌다고 밝혔다.전춘성 군수는 “이번 추석 연휴가 코로나19의 지역 재확산 여부를 판가름할 중요한 시기임을 감안해야 한다”며 “추석 전 주요시설 방역을 포함한 종합 방역대책을 세우고 연휴기간 군민이동 최소화, 사회적 거리두기, 개인방역수칙 준수 등의 ‘대군민 홍보 방안’을 마련하라”고 지시했다.이에 따라 진안군은 30일부터 내달 4일까지 비상근무반을 편성해 종합상황실을 24시간 운영하고 경찰서, 소방서, 병·의원 등 유관기관과 협력체계를 구축하기로 했다.진안군은 코로나19 예방을 위해 선별진료소를 운영하고 터미널·전통시장 등 유동인구가 많은 장소에 특별 방역주간을 운영할 계획이다. 또 중·고위험 다중이용시설 합동점검반을 편성해 사회적 거리두기, 방역수칙 준수 여부 등을 점검하고, 주요 관광지에 방역 관리 요원을 배치해 생활 방역수칙 준수를 지도할 방침이다.전춘성 진안군수는“군민의 불편함이 없도록 방역과 안전을 최우선으로 추진할 예정이다”며 “내 가족과 이웃의 안전을 위해 고향방문, 지역 간 이동 자제, 사회적 거리두기, 개인 방역수칙 준수에 적극 동참해주시기 바란다”고 말했다.kdg2066@news1.kr"
45,news1,"檢, 정부 코로나19 방역활동 방해 신천지 이만희 구속기소 (수원=뉴스1) 유재규 기자|2020-08-14 20:20 송고기사보기네티즌의견인쇄확대축소","신종 코로나바이러스 감염증(코로나19)의 정부 방역활동을 방해한 혐의로 고발된 신천지예수교 증거장막성전(신천지) 이만희 총회장(89)이 재판에 넘겨졌다.© News1 조태형 기자신종 코로나바이러스 감염증(코로나19)의 정부 방역활동을 방해한 혐의로 고발된 신천지예수교 증거장막성전(신천지) 이만희 총회장(89)이 재판에 넘겨졌다.14일 검찰에 따르면 수원지검 형사6부(부장검사 박승대)는 감염병예방법 위반 등 혐의로 이씨를 구속기소했다.이와 함께 같은 혐의로 신천지 총무 등 11명도 기소했다.이씨는 신천지 대구교회를 중심으로 코로나19가 확산하던 때인 지난 2월 방역당국에 교인명단과 시설현황을 누락하거나 허위로 제출하는 등 방역 업무를 방해한 혐의를 받는다.또 신천지 연수원인 가평 평화의 궁전 신축 등과 관련해 56억원을 빼돌리고, 공공시설에 무단으로 진입해 만국회의 행사를 수차례 강행한 혐의도 받는다.이씨를 포함한 신천지는 코로나19가 신천지 신도에 의해 확산되자 지방자치단체와 전피연 등 단체로부터 여러 차례 고발당했다.이 가운데 전국신천지피해자연대는 코로나19 관련, 정부의 방역활동을 방해해 온 국가를 위기로 빠뜨렸다는 취지로 지난 2월 이씨를 고발하고 대검찰청은 이 총회장 고발 사건을 수원지검에 배당했다. 수원지검은 과천 총회 본부와 가평 평화의 궁전, 부산과 광주, 대전의 신천지 관련 시설 여러 곳을 압수수색하고 여러 증거물을 확보, 이씨를 상대로 2차례 조사한 끝에 지난 7월28일 구속영장을 청구했다.또 같은 날에는 검찰이 방역 방해 등 혐의로 신천지 간부 A씨 등 3명을 구속기소하고 4명을 불구속 기소했다. 지난 1일 수원지법은 감염병예방법 위반, 위계에 의한 공무집행방해, 특경법 위반(횡령), 업무방해 등 혐의를 받고 있는 이씨를 '범죄혐의 일부 소명' '수사 과정의 증거인멸 정황' '추가 증거인멸 염려' 등 이유로 구속영장을 발부, 이씨를 구속했다. koo@news1.kr"
46,news1,"휴가철 방역 느슨했나…충북 8월 들어 코로나19 확진자 폭증 소규모 집단감염에 이달만 20명 확진…도내 전체 '21.5% 차지'청주서 우즈베키스탄인 6명, 옥천서 초등생 가족·친척 4명 감염(청주=뉴스1) 엄기찬 기자|2020-08-20 10:20 송고 | 2020-08-20 10:29 최종수정기사보기네티즌의견인쇄확대축소","© News1 김일환 디자이너충북의 신종 코로나바이러스 감염증(코로나19) 확진자가 소규모 집단감염을 중심으로 8월 들어 폭증하고 있다.20일 충북도 재난안전대책본부에 따르면 도내에서는 지난 2월20일 첫 확진자 발생 이후 현재까지 모두 93명이 코로나19 확진 판정을 받았다.충북은 지난 3월 11명의 확진자가 발생한 괴산군 장연면 오가리 마을 집단감염 말고는 산발적인 감염으로 비교적 안정적인 코로나19 방역을 이어오고 있었다.하지만 8월 들어 소규모 집단감염이 속출하면서 그 양상이 급변했다. 이달 들어 발생한 확진자만 20명이다. 도내 전체 확진자의 21.5%에 달한다. 8월에 발생한 확진자 20명 가운데 해외 입국자 감염 사례인 4명을 제외하고는 모두 지역 내 감염이다. 지역사회 감염 확산이 현실로 다가온 셈이다.지난 3~4일에는 청주의 한 빌라에서 함께 생활하던 우즈베키스탄 국적의 20~30대 외국인 6명이 한꺼번에 코로나19 확진 판정을 받았다.지난 19일에는 옥천의 한 초등학교에 다니는 10대 남학생이 감염된 데 이어 이튿날에는 부모와 고모까지 확진 판정을 받았다.최근에는 '수도권발 n차 감염' 사례도 잇따르고 있는데, 지난 16일 충주에서는 확진자 아들과 접촉한 50대 부부가 양성 판정을 받았다. 부부의 아들은 여의도순복음교회 신도다.지난 18일에는 서울 광화문 광복절 집회에 참석했던 50대 여성이 확진 판정을 받았다. 이 집회에만 충북에서 500명 이상이 참석한 것으로 확인돼 추가 감염까지 우려되는 상황이다.공교롭게도 본격적인 여름 휴가철과 맞물려 충북의 코로나19 확진자가 급증하면서 이동이 많은 시기 방역당국은 물론 개인까지 방역에 소홀했다는 지적이 나온다.충북도 관계자는 ""개인의 허술하고 느슨한 방역 의식은 방역을 감당하기 어려운 상황으로 만들 수 있다""며 방역수칙 준수를 당부했다. sedam_0815@news1.kr"
47,news1,"전주시 보건소, 대면업무 중단…코로나19 방역 ‘총력’ 선별진료소 운영에 인력 보강…역학조사반 10개 팀 편성(전주=뉴스1) 임충식 기자|2020-08-24 16:24 송고기사보기네티즌의견인쇄확대축소","전북지역 신종 코로나바이러스 감염증(코로나19) 확진자가 연일 발생하고 있는 20일 전북 전주시 화산체육관에 마련된 코로나19 선별진료소에서 의료진들이 검사자 검체를 채취하고 있다. 2020.8.20 /뉴스1 © News1 유경석 기자전북 전주시가 코로나19 대응에 행정력을 집중하고 있다. 전주시보건소(소장 김신선)는 24일 진료와 예방접종 등 대면사업을 일시 중단한다고 밝혔다. 대신 선별진료소에 인원을 보강하는 등 코로나19 대응 업무에 모든 행정력을 집중할 계획이다.보건소는 당장 이날부터 전주시 공중보건의와 통합돌봄창구 간호사 등 의료인력을 덕진 선별진료소에 추가 배치했다. 전북도 공중보건의와 중앙사고수습본부의 임상병리사도 추가 확보했다.또 화산체육관에 위치한 임시선별진료소에도 전주시의사회 소속 의사 6명이 추가 투입됐다.보건소는 이와 함께 전 직원을 동원, 10개의 역학조사반을 편성하고 확진자 동선 및 접촉자 파악에 총력을 기울일 예정이다.전주시는 보건소 직원들뿐만 아니라 시 직원들을 △CCTV 자료 수집 △전화상담 △확진자 방문지 방역작업 △자가격리자 관리 등의 업무에 투입, 코로나19 확산 방지 업무에 만전을 기할 계획이다.전주시보건소 관계자는 “선별진료 운영과역학조사에 총력을 기울이기 위해보건소 업무를 잠정 중단했다”며 “코로나19 확산을 막기위해 최선을 다하겠다”고 말했다.한편, 전주지역 확진자는 현재까지 총 30명이며, 이 중광복절 연휴 이후 확진자 수만 19명에 달한다. 보건소는 그간 코로나상황실 운영을 통해1만3059명의 코로나19 진단검사를 실시했다. 유선상담 건수는 5만5898건에 달한다.94chung@news1.kr"
48,news1,"대전시, 코로나 방역·안전 위주 추석명절 종합대책 수립 8개 대책반 가동 395명 비상근무대전추모공원 1일 160가족 제한(대전=뉴스1) 김경훈 기자|2020-09-21 09:38 송고기사보기네티즌의견인쇄확대축소","17일 대전 대덕구 덕암동에 추석명절 고향 방문 자제 내용이 적힌 현수막이 붙어 있다. 2020.9.17/뉴스1 © News1 김기태 기자대전시가 21일 시민들이 안심하고 편안하게 추석을 보낼 수 있도록 코로나19 방역과 안전을 위주로 한추석명절 종합대책을 발표했다.시는 21일부터 10월 4일까지 2주간을 추석명절 종합대책 중점 추진 기간으로 정하고 서민생활 안정, 생활불편해소, 환경정비, 시민안전 등 8개 분야 67개 시책에 행정력을 집중하기로 했다.오는 30일부터 추석 연휴기간 중에는 종합상황실을 중심으로 코로나19 대응, 의료·식중독, 가축방역, 교통, 청소·환경, 재난·재해, 소방, 상수도 등 8개 대책반을 가동해 1일 79명, 전체 395명이 비상근무에 들어간다.시는 수도권 발 코로나19의 전국적 확산이 지속되는 상황에서 추석 맞춤형 생활방역 수칙 확산과 실천이 절실한 상황으로 판단하고, 5개 자치구 보건소 선별진료소(오전), 감염병 전담병원, 생활치료센터를 정상 가동한다.연휴기간 자가격리자의 이탈 방지를 위해 위치확인시스템(GPS) 상황판을 통한 실시간 모니터링과 불시 현장 점검반을 투입하기로 했다.추석 명절에 발생될 코로나19 대응을 위해 4개 반 8명으로 구성된 별도의 코로나19 상황실을 운영하고, 역학조사반도 6개 반(20명)을 꾸려 24시간 비상근무를 실시한다.코로나19 감염 확산을 방지하기 위해 방문 성묘를 자제하도록 하는 복지부 방침에 따라 국립대전현충원의 위패봉안실, 제례실, 참배객 대기실, 휴게실, 식당 등은 운영하지 않는다. 다만, 안장된 국가유공자의 기일, 삼우제, 49제 등 특별한 경우에 한해서만 사전예약제로 참배할 수 있다.서구 괴곡동 대전추모공원은 사이버 참배가 불가능해 1일 160가족으로 제한하는 1일 방문총량제를 시행한다.연휴기간 중 발생한 생활쓰레기 수거 대책도 내놓았다. 9월 30일과 10월 3일은 정상 수거하고, 10월 1일은 조기에 수거하며, 10월 2일은 수거하지 않는다. 안전분야로는 전통시장, 대규모 점포, 공연장 등 재난취약시설에 대한 안전 점검을 실시하고, 9월 29일부터 10월 5일까지 전 소방관서에서 화재예방 특별 경계근무에 들어간다.어려운 이웃의 따뜻한 명절 지원을 위해 기초생활수급자 1만 6119세대, 사회복지시설 등 228곳 8724명에게 위문품을 전달하고, 쪽방 생활인, 노숙인 보호를 위해 5곳에서 무료 급식을 한다. 공동 차례상, 어울림 한마당 행사는 열지 않는다.허태정 시장은""코로나19 확산 방지를 위해 추석 연휴기간 가급적 고향·친지 방문을 자제해 줄 것""을당부했다.khoon3654@news1.kr"
49,news1,"방역당국 ""코로나19 전세계서 끝없이 확장, 1년 이상 유행 불가피""  전세계 일일 신규 확진자 20만명 훌쩍…미주 지역이 절반 넘어 국내도 확진 외국인 늘어…백신 개발할 때까지 현상황 유지(서울=뉴스1) 음상준 기자, 이영성 기자, 이형진 기자|2020-07-15 11:59 송고기사보기네티즌의견인쇄확대축소","손영래 중앙사고수습본부 전략기획반장이 정부세종청사 보건복지부 브리핑실에서 코로나19 중앙재난안전대책본부 정례브리핑을 하고 있다./뉴스1 © News1 장수영 기자방역당국은 신종 코로나바이러스 감염증(코로나19)이 전 세계적으로 끝없이 확장되고 있으며, 앞으로 1년 이상 장기적 유행이 불가피할 것으로 15일 전망했다. 이는 2021년 이후에나 백신 개발과 예방접종을 기대할 수 있다는 점을 우회적으로 표현한 것으로 풀이된다.손영래 중앙사고수습본부 전략기획반장은 이날 정부세종청사에서 열린 정례브리핑에서 ""코로나19가 국내에 발생한지 거의 반년 정도가 됐다""며 ""이 감염병이 무증상 감염을 일으키는 고유 특성을 파악한 뒤 전 세계적으로 끝없이 (유행이) 확장되고 있다""고 경고했다.이어 ""이런 상황을 고려하면 앞으로 1년 이상 코로나19의 장기적인 유행이 불가피할 것으로 보고 있다""며 ""코로나19와 공존하면서 일상생활과 사회·경제적 활동을 하는지가 전 세계적으로 던져진 숙제""라고 덧붙였다.현재 코로나19 확산 속도는 더 빨라지는 추세다. 세계보건기구(WHO)가 7월 12일 기준으로 집계한 전 세계 일일 확진자 수는 23만명이다. 지난 2월 초 2125명에서 6월 10만명, 7월 초 17만명과 비교하면 유행 속도가 매우 빨라졌다.이 같은 유행 속도는 미주 지역이 주도하고 있다. 질병관리본부 중앙방역대책본부에 따르면 12일 기준 대륙별 일일 신규 확진자 비중은 미주 지역이 전체 57.2%를 차지했다. 아시아 지역은 20.3%로 뒤를 이었다. 특히 미국은 일별 환자발생이 5만명 이상 증가하는 등 역대 최고 발생 수준을 기록 중이다.인구 10만명당 누적 확진자가 많은 국가는 카타르, 바레인, 칠레, 쿠웨이트, 오만 등이다. 코로나19 치명률이 가장 높은 5개국은 예멘, 프랑스, 벨기에, 영국, 이탈리아 등이며, 모두 10% 이상으로 보고됐다.이 같은 여파로 국내에서도 해외유입 확진자 수는 꾸준히 증가하고 있다. 지난 6월 30일부터 7월 13일까지 최근 2주일 동안 국내에서 발생한 코로나19 누적 확진자 722명 중 해외유입 확진자 수는 308명으로 전체 42.7%를 차지했다. 같은 기간 발생한 국내발생 확진자 수 256명(35.5%)에 비해 7.2% 포인트(p) 더 높았다.손영래 전략기획반장은 ""코로나19를 단기간에 종식하고 환자를 0명으로 만드는 것은 매우 힘들 것으로 본다""며 ""따라서 정부와 국민들이 방역 (활동에) 노력해 일상과 사회·경제적 활동을 조화시켜나갈 수밖에 없다""고 강조했다.그는 이어 ""지난 5월 이후 지금까지 (유행) 추이로 볼 때 생활 속 거리두기가 잘 작동했다고 평가한다""며 ""이런 성과를 믿고 국민께서도 생활방역에 힘써줄 것을 부탁한다""고 말했다.15일 중앙방역대책본부에 따르면 이날 0시 기준 코로나19 신규 확진자는 39명으로 누적 확진자는 1만3551명이 되었다. 신규 확진자 39명의 신고 지역은 서울 6명, 인천 1명, 광주 1명, 대전 3명, 경기 5명 순이고 검역 과정 23명이다. © News1 최수아 디자이너© News1 김일환 디자이너© News1 김일환 디자이너 sj@news1.kr"
50,news1,"기장군, 6개분야 추석연휴 종합대책…코로나 재확산 방역 강화  (부산=뉴스1) 조아현 기자|2020-09-28 13:32 송고기사보기네티즌의견인쇄확대축소","부산 기장군청 전경사진.(부산 기장군 제공)© 뉴스1부산 기장군은 추석 연휴를 앞두고 신종 코로나바이러스 감염증(코로나19) 재확산을 막기 위해 다중이용시설과 성묘, 봉안시설을 대상으로 집중 방역을 실시하고 있다.28일 군에 따르면 군은 이날부터 추석연휴가 끝나는 10월 4일까지 △재난 안전관리 △생활경제 안정대책 △교통수송대책 △응급 비상진료 대책 △환경정비 △생활민원 신속처리 △소외계층 나눔문화 확산 등 6개 분야로 나눠 '추석연휴 종합대책'을 추진한다.특히 추석을 계기로 전국적인 코로나19 재확산 가능성에 대비해 방역 대책이 한층 강화된다.군은 지난 21일부터 오는 29일까지는 가족과 친지 단위로 방문할 것으로 예상되는 중·고위험 다중이용시설 1316곳과 추석을 맞아 방문객이 급증하는 성묘와 봉안시설을 대상으로 집중 방역을 진행하고 있다.오는 30일부터 10월 4일까지 코로나19 선별진료소 2곳이 운영된다. 보건소 선별진료소는 오전 10시부터 오후 5시까지(점심시간 오후 12시부터 오후 1시까지는 제외)방문할 수 있다. 동남권원자력의학원 선별진료소는 오전 8시30분부터 낮 12시30분까지 운영된다.자가격리자 24시간 모니터링을 위한 점검반과 코로나19 방역을 위한 비상근무조도 유지된다. 비상진료기관과 당번약국을 안내하는 비상진료체계를 가동하고 저소득 취약계층과 무의탁 독거노인에 대한 지원사업도 시행된다.군은 추석 연휴동안 공설과 사설봉안묘지시설 6곳을 모두 임시폐쇄한다.오규석 기장군수는 ""추석연휴 동안 코로나19 재확산에 대비해 마스크 착용과 손소독제 사용, 코로나19 대응 핵심 방역수칙을 철저히 준수해 주시길 바란다""며 ""안전, 물가, 교통, 서민 지원에 대한 연휴종합대책을 체계적으로 시행해 모두가 편안한 명절을 보낼 수 있도록 최선을 다하겠다""고 말했다.choah4586@news1.kr"
51,news1,"제주, 코로나 확진 목사부부 거짓진술에 '방역망' 흔들 ""증상없다""며 비협조…휴대폰GPS 추적결과 '온천방문' 들통동시간대 온천방문자중 2명 추가확진…'n차 감염' 확산 우려(제주=뉴스1) 강승남 기자|2020-08-30 06:51 송고기사보기네티즌의견인쇄확대축소","미국 질병통제예방센터(CDC)가 제작한 2019 신종 코로나바이러스 모형도. © 로이터=뉴스1수도권에서 신종 코로나바이러스 감염증(코로나19)에 감염된 것으로 추정되는 제주의 한 목사 부부가 자신들의 방문이력에 대한 거짓 진술로 코로나19 확산이 우려되고 있다.30일 제주도 방역당국에 따르면 지난 24일 코로나19 확진 판정을 받은 제주 29번 확진자는 목사로, 지난 16일 설교차 방문한 경기 용인시 새빛교회서 감염된 것으로 추정되고 있다.제주 29번 확진자는 이 곳에서 용인시 252번 확진자와 접촉한 것으로 파악됐다.25일 확진 판정을 제주 33번 확진자는 29번 확진자의 부인으로, 29번 확진자와 동행했던 것으로 알려졌다.이들 목회자 부부는 확진 판정을 받았지만 코로나19 증상이 없다는 이유로 역학조사 과정에서 비협조적인 태도를 유지했다.특히 33번 확진자는 통신사와 동선, 접촉자 정보 등을 거짓으로 진술하기도 한 것으로 전해졌다.이에 따라 제주도 보건당국은 이들 부부의 동선 확인에 어려움을 겪자 결국 휴대전화 위성위치확인시스템(GPS) 추적을 통해 이들의 동선을 확인했다.그 결과 이들 부부가 지난 23일 오후 2시40분부터 오후 6시까지 제주 서귀포시 안덕면 소재 '산방온천'을 방문한 사실을 28일 확인했다.제주도 방역당국은 산방온천 방문자 명단을 확보, 검사 안내 문자를 보냈으며 증상과 관계없이 코로나19 진단검사를 지원했다.결국 29일 이들 부부가 산방온천을 다녀간 동 시간대에 이 곳을 방문한 이력이 있는 40번 확진자와 42번 확진자가 추가로 발생하게 됐다.40번 확진자는 온천 방문자 검사 안내에 대한 재난안전문자를 받은뒤 29일 오후 3시쯤 제주시보건소를 방문해 목회자 부부와 같은 시간대(오후 2∼오후 6시) 온천을 방문했다고 밝힘에 따라 검체를 채취한 뒤 확진 판정을 받았다.또 42번 확진자도 29일 오전 11시쯤 서귀포시서부보건소를 방문해 목회자 부부와 동시간대에 산방산탄산온천을 방문했다고 진술하며 검체를 채취한 것으로 확인됐다. 40번.42번 확진자는 자신들이 코로나19 확진자와 접촉해 감염된 사실조차도 모른 채 수일간 일상적인 생활을 보내 추가 확산 가능성을 배제할 수 없는 상황이다.제주도는 동선을 숨기거나 거짓 진술하는 방식으로 코로나19 방역을 방해한 행위에 대해 무관용 원칙을 적용해 이들 부부를 '감염병 예방 및 관리에 관한 법률 위반 혐의'로 고발한다.ksn@news1.kr"
52,news1,[서귀포시 소식] 관내 결혼식장 대상 코로나 방역수칙 점검 (서귀포=뉴스1) 오현지 기자|2020-09-09 13:24 송고기사보기네티즌의견인쇄확대축소,"서귀포시청 전경. /© News1제주 서귀포시는 신종 코로나바이러스 감염증(코로나19) 확산 방지를 위해 관내 결혼식장 12개소에 대한 방역수칙 점검을 실시한다고 9일 밝혔다.이는 사회적 거리두기 2단계 실시 및 제주형 특별방역 행정조치계획 고시에 따른 것이다.시는 30일까지 결혼식장 이용자 및 종사자 마스크 착용, 출입자 명부 작성, 방문자 발열확인, 이용자간 간격유지, 방역관리자 지정, 손 소독제 비치 여부 등 방역수칙 준수 여부를 집중 점검할 예정이다.또 다중이용시설 마스크 착용 의무화 행정조치에 따라 위반자에 대해서는 10월 13일 이후부터 고발조치 및 10만원 이하의 과태료를 부과할 예정이다.강현수 서귀포시 여성가족과장은 “코로나19 재확산이 우려되는 만큼 예식업체와 하객의 적극적인 협조를 부탁드린다""고 당부했다.◇ 사업장 폐기물 배출 실명제 지도 점검서귀포시는 관내 사업장폐기물 다량 배출 사업장 32개소에 대해 사업장 폐기물 배출 실명제 지도 점검에 나선다고 9일 밝혔다.이번 점검은 14일부터 2주간 대형호텔 및 골프장, 대형마트 등 1일 평균 300kg이상의 폐기물이 발생하는 사업장을 대상으로 추진한다.또 △폐기물 처리 기준 준수 여부 △사업장폐기물배출자의 준수사항 이행여부 △배출자 신고 및 변경신고 적정여부 △폐기물 인계 시 올바로시스템 적정사용 여부 등을 집중적으로 점검할 예정이다.폐기물 다량 배출 사업장 배출 실명제는 올바른 폐기물 분리배출과 불법 배출을 사전에 차단하기 위해 마련한 제도다. 제도 시행에 따라 폐기물 배출 시 폐기물 봉투에 폐기물 상태, 배출자 현황, 수집운반업체명을 스티커에 기재한 후 배출해야 한다.ohoh@news1.kr"
53,news1,영동‧옥천군 공공시설 운영 재개…‘코로나19 방역준칙’ 준수 (영동·옥천=뉴스1) 장인수 기자|2020-07-29 15:54 송고기사보기네티즌의견인쇄확대축소,"29일 박세복 영동군수가 노인복지관을 찾아 방역활동을 하고 있다, (영동군 제공)© 뉴스1충북 영동‧옥천군이 신종 코로나바이러스 감염증(코로나19) 확산으로 임시 휴관했던 공공시설 운영 재개를 앞두고 준비와 방역에 한창이다. 영동군은 다음 달 1일부터 문화체육센터, 실내테니스장, 탁구장, 게이트볼장 등 체육시설 19곳을 개방한다. 3일부터는 경로당 345곳, 노인복지관 1곳, 장애인복지관 1곳 등을 개방키로 했다.군은 경로당 운영 재개를 앞두고 방역소독과 방역물품 비치, 운영시간 등 방역계획을 마련했다. 경로당 내 식사는 허용하지 않고 무더위 쉼터 기능만 허용한다는 방침이다.이용시간은 오전 11시부터 오후 4시까지 제한적으로 개방하고 이용인원은 20명 이내로 한정한다. 경로당 노인회장을 경로당 관리자로 지정해 이용자들의 마스크 착용 여부와 발열 여부 등을 확인키로 했다.옥천군노인장애인복지관도 다음 달 3일부터 노인과 장애인을 대상으로 평생교육 프로그램을 운영한다.  군은 노인여가복지시설 단계적 운영재개에 따라 지난 20일 1단계로 장애인주간보호, 언어치료 프로그램을 시작했다.  복지관 운동실, 장기바둑실, 식당은 코로나 19 단계가 심각에서 경계로 조정된 후 운영할 계획이다.  개관 전 소독 등 방역 작업을 하고, 열화상카메라도 설치한다. 이용 시간은 오전 9시부터 오후 5시까지다. 마스크 착용, 출입 시 발열체크, 회원증 소지, 입실 전 손 소독제 사용, 타인과 거리두기 등 생활속 거리두기 수칙을 준수해야 한다.옥천군 관계자는 ""코로나 19가 진정되지 않은 만큼, 공공시설을 이용하는 군민은 방역 수칙을 반드시 지켜주길 바란다""며 ""군민이 안전하게 공공시설을 이용할 수 있도록 방역에 노력하겠다""고 말했다. jis4900@news1.kr"
54,news1,"'코로나 방역 방해' 신천지 이만희, 10시간 조사 후 귀가(종합) 23일 수원지검서 피의자 신분 소환돼 2차 조사 받아1차 조사 당시 때 같은 변호인 2~3명 입회 하에 출석(수원=뉴스1) 최대호 기자, 유재규 기자|2020-07-23 21:31 송고기사보기네티즌의견인쇄확대축소","수원지검 형사6부(부장검사 박승대)는 23일 감염병예방법 위반 등 혐의를 받고 있는 이만희씨를 피의자 신분으로 소환해 오전 10시~오후 7시40분 조사를 실시했다.© News1 허경 기자정부의 신종 코로나바이러스 감염증(코로나19) 방역활동을 방해한 혐의로 고발된 신천지예수교 증거장막성전(신천지) 이만희 총회장(89)에 대한 2차 조사가 마무리 됐다.23일 검찰에 따르면 수원지검 형사6부(부장검사 박승대)는 이날 감염병예방법 위반 등 혐의를 받고 있는 이씨를 피의자 신분으로 소환해 오전 10시부터 오후 7시40분까지 조사를 실시했다. 이날 이씨는 지난 1차 조사 때와 같은 변호인 2~3명과 입회 하에 검찰에 출석한 것으로 파악됐다.검찰은 이날 이씨와 관련, 이번 코로나19 정부 방역활동 방해에 대한전반적인 사항을 들여다 보며 조사한 것으로 알려졌다.앞서 지난 17일 첫 조사를 받았던 이씨는 지병을 호소해 조사를 그만 받고 싶다는 요청에 약 4시간 만에 조사를 마치고 귀가했다. 검찰은 이씨가 실제로 지병이 있는 지의 여부를 파악하기 위해 이씨의 전담 주치의를 통해 확인했다.이씨는 신천지 대구교회를 중심으로 코로나19가 확산하던 때인 지난 2월 방역당국에 신도 명단을 누락해 제출하고 집회장소를 축소 보고하는 등 허위 자료를 제출한 혐의를 받고 있다.교회 헌금을 빼돌리고 재산을 부정하게 형성한 혐의도 받는다.한편이씨를 포함, 신천지는 코로나19가 신천지 신도에 의해 확산되자 지방자치단체와 전국신천지피해자연대(전피연) 등 시민단체로부터 여러 차례 고발당했다.대검찰청은 감염병의예방및관리에관한법률 위반, 특정경제범죄가중처벌등에관한법률 위반(횡령, 배임) 혐의 등으로 고발된 이 총회장 사건을 수원지검에 배당했다.수원지검은 지난 5월22일 수사인력 100여명을 동원해 과천 총회본부와 가평 평화의 궁전, 부산과 광주, 대전 등의 신천지 관련 시설 여러 곳을 동시 압수수색했다.지난 8일에는 감염병예방법 위반 등 혐의로 과천 총회본부 소속 총무 A씨 등 신천지 간부 3명을 구속한 바 있다.이와 관련, 이씨도 구속이 필요하다는 당위성을 밝히기 위해 전피연은 이씨의 2차 소환조사와 맞물려 23일 오전 11시부터 수원지검 일대에서 기자회견을 갖고 이씨에 대한 구속수사를 촉구했다.전피연 관계자는 ""전피연은 이씨가 도망다니다 풀숲에서 사체로 발견돼 37년의 종교사기 범죄가 역사에 묻히는 것을 원하지 않는다""며 ""증거인멸과 조작, 도주우려를 막기 위해 구속수사를 촉구한다""고 말했다.koo@news1.kr"
55,news1,'코로나 방역 방해' 혐의 신천지 간부 7명 기소…이만희는 '아직' 이만희 총회장은 소환조사 내용 정리·분석 중(수원=뉴스1) 최대호 기자|2020-07-28 18:00 송고기사보기네티즌의견인쇄확대축소,"경기 과천시 신천지총회본부에서 검찰 관계자가 이동하고 있다. /뉴스1 DB정부의 신종 코로나바이러스 감염증(코로나19) 방역활동을 방해한 혐의를 받는 신천지예수교 증거장막성전(신천지) 간부 7명이 재판에 넘겨졌다.수원지검 형사6부(박승대 부장검사)는 경기 과천시 소재 신천지 과천 총회본부 소속 간부 A씨 등 3명을 구속기소했다고 28일 밝혔다. 아울러 B씨 등 다른 간부 4명은 불구속 기소했다.A씨 등은 신천지 신도를 중심으로 코로나19가 확산되던 지난 2월 방역당국에 신천지 교인명단, 시설현황, 확진자와 함께 예배에 참석한 신도명단, 중국 교인의 국내 행적을 고의로 누락하거나 허위로 제출해 방역업무를 방해한 혐의를 받는다. 또 방역 방해 사실을 은폐하기 위해 서버정보를 변경 또는 삭제하며 증거를 인멸한 혐의도 있다.검찰은 지난 6일 혐의가 중대한 간부 5명에 대해 구속영장을 청구했으나 A씨 등 3명만 구속되고 2명은 기각됐다.최근 2차례에 걸쳐 검찰 조사를 받은 이만희 총회장(89)은 이번 기소대상에서 제외됐다.이만희 신천지예수교 증거장막성전 총회장이 2일 오후 경기 가평 신천지 평화의 궁전에서 열린 코로나바이러스 감염증(코로나19) 사태 관련 기자회견을 하던 중 성도들을 향해 쓴 편지를 들어 보이고 있다. 2020.3.2/뉴스1 © News1 허경 기자이 총회장은 코로나19 방역 방해 혐의와 함께 교회 헌금을 빼돌리고 재산을 부정하게 형성한 혐의도 받는다. 검찰은 이 총회장에 대한 조사 내용을 정리·분석 중인 것으로 전해졌다.앞서 이 총회장을 포함한 신천지는 코로나19가 신천지 신도에 의해 확산되자 지방자치단체와 전국 신천지피해자연대(전피연) 등 시민단체로부터 여러 차례 고발당했다.대검찰청은 감염병의 예방 및 관리에 관한 법률 위반, 특정경제범죄가중처벌등에 관한 법률 위반(횡령, 배임) 혐의 등으로 고발된 이 총회장 사건을 수원지검에 배당했다.수원지검은 지난 5월22일 수사인력 100여명을 동원해 과천 총회본부와 가평 평화의 궁전, 부산과 광주, 대전의 신천지 관련 시설 여러 곳을 동시 압수수색했다.sun0701@news1.kr"
56,news1,"교육부, 코로나 장기화에 학부모·교직원 심리방역 지원 강화 교육부, 학부모 대상 실시간 온라인 강연교직원 마음치유과정·학교응급심리 지원(서울=뉴스1) 권형진 기자|2020-09-29 12:00 송고기사보기네티즌의견인쇄확대축소","코로나 우울 극복 실시간 영상 대면 교육이 한 장면 (교육부 제공) © 뉴스1교육부는 가정에서 자녀들의 코로나 우울을 극복하는 데 도움을 주기 위해 대한소아청소년정신의학회와 함께 학부모를 대상으로 다양한 강의를 10월에 집중 제공한다고 29일 밝혔다. 자녀와의 소통·이해법에 대한 학부모 유튜브 실시간 강연을 비롯해 '세상을 바꾸는 시간, 15분' 방송, 온라인 강의, 코로나 극복 소식지(뉴스레터) 교직원 마음치유 과정 등을 준비했다. 먼저 대한소아청소년정신의학회와 지난 23일부터 매주 수요일 오후 8시부터 총 5회에 걸쳐 학부모를 위한 실시간 온라인 강연을 진행한다. 지난 23일 소아정신과 전문의가 출연한 첫 강연회에는 학부모 900여명이 참여해 코로나 시대 아이들의 학업과 대인관계에 대해 이야기를 나눴다. 실시간 온라인 강의에 참여하지 못한 학부모를 위해 교육부는 추석 연휴기간인 29일부터 10월4일까지 1회차 강연 녹화 영상을 유튜브 채널에서 제공할 계획이다. 청소년모바일상담센터와 학생정신건강지원센터 유튜트 채널에서 확인할 수 있다. 두번째 강연은 '코로나로 인한 우울증, 청소년 자해와 자살'을 주제로 10월7일 오후 8시부터 진행한다. 30일에는 학교 심리방역에 대한 대국민 소통을 위해 '세상을 바꾸는 시간 15분'(세바시) 방송 영상을 실시간 방송(CBS)과 세바시 누리집, 유튜브를 통해 제공한다. 강윤형 학생정신건강센터장과 김은지 청소년모바일상담센터장이 출연한다. '세상을 바꾸는 시간 15분'에서 강윤형 학생정신건강지원센터장이 강연하는 모습 (교육부 제공) © 뉴스1교육부는 이와 함께 신종 코로나바이러스 감염증(코로나19) 장기화로 학교 방역강화에 지친 교직원을 위해 교직원 마음치유 과정, 학교 응급심리지원, 학생정신건강 소식지(뉴스레터) 등을 지원하고 있다. 교직원 마음치유 과정은 코로나19 방역에 따른 심리적 소진 극복 등 교직원의 정서적 상호지지, 정신적 충격 해소 등을 위해 집합과 실시간 대면 영상으로 진행한다. 특히 코로나19 감염병 확진자와 자가격리자가 발생한 학교 교직원의 응급심리지원을 위해 실시간 비대면 영상교육을 운영, 상호 소통방법과 감염병 대처 방법을 안내한다.학생정신건강 뉴스레터는 코로나19 장기화로 가정 학습 증가에 따라 자녀와의 의사소통 방법과 자녀 지도법을 쉽게 이해할 수 있게 카드뉴스로 제공한다.유은혜 부총리 겸 교육부장관은 ""코로나19가 장기화돼 학교 방역이 여전히 중요하나 코로나 우울 극복을 위해 학교 구성원의 심리방역 또한 중요하고 시급한 조치""라고 강조했다.jinny@news1.kr"
57,news1,'코로나 차단' 화천군 관광지‧상가방역단 가동 (화천=뉴스1) 김정호 기자|2020-09-15 20:02 송고기사보기네티즌의견인쇄확대축소,"코로나19 확산방지를 위한 ‘화천군 관광지 및 상가 방역단’이 15일 군청에서 발대식을 갖고 본격적인 활동을 시작했다.(화천군 제공)© 뉴스1강원 화천군은 15일 코로나19 차단을 위한 ‘관광지 및 상가 방역단(이하 방역단)’ 발대식을 갖고 본격적인 운영에 들어갔다.주민 36명으로 구성된 방역단은 화천읍·하남권, 간동권(오음리 일대), 상서권(산양‧다목‧봉오리 일대), 사내권에 나눠 투입돼, 연말까지 코로나19 소독작업을 벌인다.특히 유동인구가 늘어나는 추석 연휴 전‧후 강력한 소독작업을 펼칠 계획이다.앞선 지난 3~4월 공무원과 주민 30여명으로 이뤄진 ‘화천 클린 상가 방역단’이 운영돼 호응을 얻었다.최문순 군수는 “지금이 코로나19 방역에 중요한 분기점인 만큼 방역단의 활약을 기대한다”고 말했다. kjh@news1.kr"
58,news1,추석 5일 연휴에 '초긴장' 서울시…코로나 방역 '총력전' 태세 (서울=뉴스1) 김진희 기자|2020-09-29 17:21 송고기사보기네티즌의견인쇄확대축소,"추석 연휴를 하루 앞둔 29일 오후 경기도 수원시 장안구 수원보훈요양원에서 입소 어르신이 신종 코로나바이러스 감염증(코로나19) 확산 방지를 위해 딸과 화상 면회로 사랑을 주고받고 있다. 2020.9.29/뉴스1 © News1 조태형 기자서울시가 5일간 추석 연휴 기간 신종 코로나바이러스 감염증(코로나19) 확산을 막기 위해 특단의 대책을 내놨다. 대규모 이동이 예상되는 이번 연휴를 가을철 유행 여부를 결정하는 분수령으로 보고 코로나19 확산을 철저히 막겠다는 의지를 내비쳤다.서울시는 10월 11일까지를 '추석 특별방역기간'으로 지정하고 사회적 거리두기 2단계 핵심 조치를 이어간다. ◇실내50인·실외 100인 이상 집합 금지…다중이용시설 거리두기 강화추석맞이 잔치나 지역 축제를 포함해 실내 50인·실외 100인 이상 집합은 금지된다. 이에 프로야구, 씨름 등 스포츠 경기도 무관중으로 진행된다. 유흥주점·방문판매·감성주점·노래연습장 등 11종 고위험시설 집합금지도 유지된다. 종교시설은 소모임과 식사금지 등 기존 방역지침이 유지되며 교회의 경우 비대면 예배만 가능하다.여의도·뚝섬·반포 한강공원의 일부 밀집지역 통제 역시 추석 특별방역기간 연장된다. 서울함공원 등 시민편익시설과 분수 등도 운영이 중단된다.다중이용시설은 마스크착용과 출입자 명단관리 등 핵심 방역수칙을 의무화한다. 음식점, 카페, 영화관 등에서는 거리두기가 일부 강화된다. 20석을 초과하는 일반 및 휴게음식점, 카페를 포함한 제과점 등은 테이블 간 1m 거리두기를 의무화하고 이를 지키기 어려울 경우에는 좌석 한 칸 띄워 앉기, 테이블 간 띄워 앉기, 테이블 간 칸막이·가림막 설치 중 하나를 지켜야 한다.영화관·공연장과 PC방은 좌석 한 칸씩 띄워 앉아야 하며 PC방은 음식섭취는 가능하지만 미성년자의 출입은 계속 금지된다. 놀이공원·워터파크는 수용인원의 절반이하로 입장이 제한된다.서울시는 전통시장 350곳, 백화점과 마트 등 총 217곳, 5개 터미널, 물류시설같은 고위험시설에 대해 특별점검을 통해 방역을 강화한다. 추석 선물용품을 취급하는 직접 판매 홍보관 등을 소유한 방문판매업체 398곳은 불시점검이 실시된다.◇공공·문화시설 운영 제한…개천절 집회시 강경 대응 시립미술관, 서울도서관 등 63개 공공문화시설은 평소 이용 인원의 50%로만 운영된다. 방역수칙 준수는 필수다. 잠실보조경기장, 월드컵경기장 풋살구장 등 실외 공공체육시설 880곳도 방역수칙을 철저히 준수하면서 10월 11일까지 한시적 운영을 재개한다.10인 이상의 모든 집회는 지속적으로 금지된다. 서울시는 10인 이하 집회, 집회금지구역 외 집회도 감염 위험이 있다면 금지 조치할 예정이다. 차량을 이용한 집회를 비롯해 모든 형태의 집회가 원천차단된다.서울시는 정부, 서울지방경찰청과 협력해 철저히 현장 채증을 시행하고 불법집회 주최자는 물론 참여자에 대해 고발·손해배상 청구 조치를 취할 방침이다. 개천절, 한글날 불법집회를 차단하고자 광화문광장과 주변 지역에 대한 불법주정차 특별단속도 실시한다. 지하철 5호선 광화문역과 1·2호선 시청역 등의 무정차 통과도 검토되고 있다.◇대중교통 연장운행…주요 지하철역 집중 방역서울시는 이동이 불가피한 시민이 심야 시간에도 안전하게 귀가할 수 있도록 추석 당일과 다음날인 10월 1~2일 지하철·버스 막차 시간을 새벽 2시까지로 연장한다. 지하철은 종착역 도착시간, 버스는 차고지 출발시간 기준이다.올빼미버스 9개 노선과 심야 전용 택시 3100여 대도 연휴기간 내내 정상 운행한다.서울시는 귀성·귀경길 바이러스 전파를 막기 위해 서울역·청량리역·수서역·고속터미널역을 포함한 주요 역사와 버스터미널 등 대중교통 시설 방역을 강화한다.이와 함께 자치구별로 선별진료소를 1곳 이상 운영하고 감염병 전담병원 7곳, 생활치료센터 8곳도 평소대로 가동한다.김학진 서울시 행정2부시장은 ""코로나19라는 전례 없는 재난 속에서 맞이하는 이번 한가위 고향 방문과 여행을 비롯해 일체의 이동을 최소화해 달라""며 ""긴장과 경각심이 느슨해지기 쉬운 명절 연휴 기간 사회적 거리두기를 강화해 코로나19 재확산을 차단하겠다""고 강조했다.jinny1@news1.kr"
59,news1,"주호영 ""北계몽군주는 소총-文대통령은 경찰버스로 코로나 방역"" ""군 특수정보서 북한군이 소총 지칭하는 '762' 하라고 지시해""(서울=뉴스1) 김정률 기자, 유새슬 기자|2020-10-04 12:08 송고기사보기네티즌의견인쇄확대축소","주호영 국민의힘 원내대표(오른소리 유튜브 캡처)© 뉴스1주호영 국민의힘 원내대표는 4일 개천절 집회와 관련해 ""북한의 계몽군주는 소총과 휘발유로 코로나19를 방역했고, 우리 대통령은 경찰 버스와 공권력을 동원해 코로나19를 방역하고 있다""고 비판했다.주 원내대표는 이날 오전 국회에서 열린 기자간담회에서 ""문재인 정권은 개천절이었던 어제 서울 시내에 90곳의 검문소를 설치하고 180여개 부대, 1만명의 경찰력을 동원했을 뿐 아니라 경찰 버스 300대로 광화문에 산성을 쌓아 시민들의 집회를 원천 봉쇄했다. 어제 광화문 광장에 경찰 버스로 겹겹이 쌓인 '재인산성'이 국민을 슬프게 했다""며 이렇게 말했다.그는""어제 광화문 광장에는 사실상 코로나19 계엄령이 선포됐다""면서 ""언제부터 경찰이 나서 방역까지 떠맡는 나라가 됐냐. 의료 방역과 보건 방역은 오간데 없고, 정치방역, 경찰방역 국가가 됐다""고 지적했다.그는 ""어느 분은 1만 명을 일일이 검문하는 것이 방역의 구멍이라고까지 얘기하고 있다""면서 ""광화문 광장 이외에 전국의 유원지에 얼마나 많은 사람들이 모였냐. 경찰방역·정치방역이라는 것을 증명한다""고 했다.주 원내대표는 ""문재인 정권은 어제 하루 경찰 버스와 경찰력으로 집회를 잘 봉쇄했다고 자축하고 있을지 모르지만 시민들의 성난 분노가 점점 불타오르고 있다는 현실을 직시하기 바란다""고 말했다.주 원내대표는 북한의 해양수산부 공무원 피격 사건에 대해 ""이 사건은 정권의 위기극복 능력과 국민 생명을 대하는 이중적 태도와 굴종적인 대북관계가 한 번에 드러난 사건""이라며 ""제 나라 공무원이 해상에서 조난 당한 끝에 총에 맞아 비참하게 죽고 시신마저 소각해도 청와대와 정부·여당은 뚜렷한 증거도 없이 (공무원을) 월북자로 몰아가며 북한에 대해 제대로 말 한마디 못하고 있다""고 지적했다.그는 ""(정부는) 시신이 소훼됐다고 주장하면서도 형식적인 수색을 계속하고 있다""면서 ""시신 소훼가 확실하다면서 시신 수색을 계속하는 이유가 궁금하다""고 했다.주 원내대표는 ""청와대는 궁지 탈출을 위해 정보의 편의적 왜곡 및 생산을 계속하고 있다""며 ""우리군 특수정보에 따르면 북한 상부에서 '762'를 하라고 했다. 762는 북한군 소총을 지칭하는 것으로 (북한이) 762로 하라고 한 것은 762로 사살하(라)는 지시가 분명하게 있었던 것""이라고 주장했다.이어 ""우리당은 해수부 직원의 유해송환과 사건진실 규명을 위한 청문회 등 모든 가능한 조치를 취할 것""이라고 덧붙였다.주 원내대표는 오는 7일부터 시작하는 21대 국회 첫 국정감사에 대해서 ""부동산 정책 실패와 탈원전, 태양광 비리, 추미애 법무부 장관 아들 사건, 울신시장 선거공작, 북한 김정은 앞에만 가면 입도 뻥긋 못하는 굴종적인 대북관계 등 모든 국정 난맥상을 적나라하게 파헤쳐 국민들에게 보고할 것""이라고 했다. jrkim@news1.kr"
