﻿,Press,Title,Text
0,JTBC,"""공공의료정책 논의할 의정 협의체 조속히 구성해야""","['  정세균 국무총리가 공공의료 정책을 논의할 의료계와 정부 협의체를 조속히 구성하라고 지시했습니다.  ', ' 정 총리는 오늘(15일) 국정 현안 점검 조정 회의에서 ""지난달 의료계와 정부가 코로나19 상황이 안정되면 협의체를 구성해서 현안을 논의하기로 합의했다""며 조속히 협의체를 구성하라고 박능후 보건복지부 장관에게 지시했습니다.  ', ' 이에 대해 손영래 보건복지부 대변인은 ""대한의사협회에 이번 주 중 실무협의를 진행하자고 요청한 상태""라고 말했습니다.  ', ' 앞서 보건복지부와 의료계는 지난 9월 이뤄진 의정 합의에서 코로나19 사태가 안정되면 의정 협의체를 구성해서 공공 의대 설립과 의대 정원 확대, 첩약급여 시범사업과 비대면 진료 등 4대 정책을 다시 논의하기로 결정했습니다.  ', "" 텔레그램 'n번방' 과 박사방 등에서 아이들을 가르치는 교사들도 최소 4명이 가입해서 아동 성착취물을 전송받은 것으로 확인됐습니다.  "", "" 더불어민주당 이탄희 의원이 교육부와 시·도 교육청으로부터 제출받은 자료에 따르면 인천과 충남·강원 등에서 교사 4명이 'n번방'과 '박사방' 등에 가입해서 아동성착취물 등을 받은 혐의로 수사당국의 수사 개시 통보를 받은 것으로 알려졌습니다.  "", ' 이들 중 3명은 정교사로 현재 직위 해제된 상태고 기간제 교사 1명은 수사 개시 통보에 앞서서 퇴직한 것으로 파악됐습니다.  ']"
1,JTBC,"'의료정책 반대' 전공의들, 오늘부터 순차 파업 시작","['  정부 의료정책에 반대하는 인턴, 레지던트 등 종합병원에서 수련하는 전공의들이 오늘(21일) 오전 7시를 기해 파업에 돌입했습니다.  ', ' 전공의들의 단체행동은 지난 7일 집단휴진, 14일 대한의사협회의 1차 전국의사총파업 참여에 이어서 세 번째입니다.  ', ' 대한전공의협의회에 따르면 오늘 인턴과 4년 차 레지던트를 시작으로 내일 3년 차 레지던트, 23일 1년 차와 2년 차 레지던트가 업무에서 손을 뗍니다.  ', ' 응급의학과는 연차와 관계없이 오늘부터 모두 업무를 중단하기로 했습니다.  ', "" 이들의 파업은 복귀 시점이 정해지지 않은 '무기한' 파업입니다.   ""]"
2,JTBC,"동맹휴학·국시 거부 의대생들 ""의료정책 감독기구 필요""","['  의대생들이 정부 의료정책에 반대해 집단행동의 일환으로 벌이고 있는 동맹휴학을 계속하기로 했습니다.  ', ' 11일 의료계에 따르면 의대생들을 대표하는 대한의과대학·의학전문대학원 학생협회(의대협)는 전날 오전 10시부터 동맹휴학 지속 여부를 논의한 결과 휴학을 유지하기로 했습니다.  ', "" 이날 회의에선 '기존에 의결했던 동맹휴학 등을 중단한다'는 안건이 상정됐으나, 이에 대해 전체 40표 중 찬성 13표, 반대 24표, 기권 3표가 나와 휴학을 유지하기로 한 것으로 전해졌습니다.  "", ' 대한의사협회와 정부 간 합의가 타결되고, 전공의·전임의들이 모두 진료 현장으로 복귀하며 투쟁 동력이 상실된 상황에서도 의대생들은 여전히 휴학을 고수하기로 한 것입니다.  ', ' 의대협은 동맹휴학 유지 결정을 내린 건 의협과 여당·보건복지부 간 합의안을 받아들일 수 없기 때문이라는 입장을 견지하고 있습니다.  ', ' 의대협은 이날 호소문을 내고 ""수업거부와 동맹 휴학, 국가시험 거부를 유지하겠다""고 밝히면서 ""선배님들은 병원과 학교로 돌아갔고, 학생들은 홀로 남아 낙동강 오리알 신세가 됐다. 함께 해주시길 간절히 부탁드린다""며 의료계의 지지를 촉구했습니다.  ', ' 의대협은 의료 정책의 운영 방향을 감시할 수 있는 의료계 내부의 감독기구가 출범해야 한다고 주장했습니다.  ', ' 김기덕 의대협 부회장도 이날 유튜브 방송에 출연해 ""\'프라이머리 엔드포인트\'(최우선 지향점)는 정책의 정상화""라며 ""정책의 정상화가 이뤄졌다는 의대생들의 동의가 있어야 시험 응시에 나서겠다""고 말했습니다.  ', ' 그는 ""국가고시 재응시 기회를 바라고 단체행동을 지속하는 건 아니다. 재응시 기회를 염두에 뒀다면 애초에 단체행동을 하지 않았을 것""이라며 국시 구제를 바라지 않는다는 입장을 재차 강조했습니다.  ', ' 그러나 일각에서는 본과 4학년의 국가고시 응시 문제가 해결되지 않은 상황에서 휴학을 멈출 수 없었을 것이라는 관측도 나옵니다.  ', ' 익명을 요구한 한 의대생은 ""의대 사회는 위계질서가 확실한 집단인데, 본과 4학년들이 국가고시를 포기하겠다는 분위기가 조성된 상황에서 본과 3학년 이하의 후배들이 휴학을 쉽게 철회할 수 없는 상황""이라고 설명했습니다.  ', ' 다만 이날 회의에서 본과 4학년들이 국가고시 거부를 지속할지는 정해지지 않았습니다.  ', ' 의대협은 현재 국시 응시자인 본과 4학년을 대상으로 응시거부에 대해 설문조사를 하고 있습니다.  ', ' 의대협은 이런 설문조사 결과를 바탕으로 이르면 이날 회의를 열어 국시거부 방침에 대해서도 재논의에 들어가 결론을 낼 예정인 것으로 알려졌습니다.  ', ' 이에 앞서 의대생들은 의대정원 확대 및 공공의대 신설 정책에 반대해 예과 1학년부터 본과 3학년까지는 동맹휴학을, 본과 4학년은 의사 국가고시 응시 거부를 집단행동 방침으로 정했습니다.  ']"
3,JTBC,"'원점 재검토' 시사에 최대집 회장 ""긍정적…논의 진전""","['  여당이 보건의료정책에 대한 원점 재검토 방침을 시사하자 의료계가 범의료계 4대악 저지투쟁 특별위원회(범투위)에서 내부 의견 수렴에 나섭니다.  ', ' 의료계에 따르면 대한의사협회는 내일(3일) 전공의, 전임의, 의대생들이 참여하는 젊은의사 비상대책위원회와 함께 범투위 회의를 열어 협상안을 논의하기로 했습니다.  ', ' 어제 더불어민주당 한정애 정책위의장과 최대집 의협 회장과 만남이 진일보했다는 판단에 따른 것입니다.  ', ' 한 의장은 최 회장에게 의대 정원 확대, 공공의대 설립 등의 정책에 대해 ""완전하게 제로의 상태에서 논의할 수 있다""고 말했습니다.  ', ' 당장 의료계와 국회, 정부의 의견이 일치된 건 아니지만 국회가 원점에서 재검토할 수 있고 이를 명문화할 수 있다는 가능성도 열어두면서 의료계에서도 긍정적인 평가가 나오고 있습니다.  ', ' 최 회장은 언론에 ""내일 범투위에서 논의하는 게 맞다""며 ""(전날 한 의장과의 대화는) 긍정적으로 본다. 논의가 진전된 것""이라고 말했습니다.  ', ' 이에 따라 범투위는 개원의는 물론 전공의, 전임의, 의대생 등과 함께 합의된 의료계 단일 협상안을 도출할 것으로 전해졌습니다.  ', ' 현재 범투위 위원장은 최 회장이 맡고 있고, 젊은의사 비대위에서도 정부와의 접촉 창구를 범투위로 단일화한 상태여서 범투위에서 결론이 날 경우 정부와의 협상에도 속도가 날 것으로 기대됩니다.  ', ' 간밤 대한전공의협의회에서도 의료정책에 일방적으로 반대하는 게 아니라며 언제든 대화에 응하겠다는 입장을 표했습니다.  ', ' 대전협 비대위는 ""우리는 지역의료 불평등, 필수과 기피 문제, 대형병원 쏠림 현상 등 고질적인 대한민국 의료 취약점에 깊이 공감한다""며 ""정부와 의료계가 진정성 있게 논의해 대한민국 의료를 올바른 방향으로 나갈 수 있길 바라는 것""이라고 밝혔습니다.  ', ' 그러면서 ""문제가 되는 정책들을 원점에서 재논의하겠다고 명문화한다면 젊은 의사들은 국회와 정부가 마련해주신 토론의 장에 적극적으로 참여할 것""이라고 덧붙였습니다.  ']"
4,JTBC,"부산대 의대 교수진 ""현 상황 참담, 제자들의 뜻 지지""","['  정부 의료정책에 반대하는 전공의의 무기한 파업이 이어지는 가운데 부산대학교병원 소속 교수들이 의대생과 전공의들의 집단행동을 지지하고 나섰습니다.  ', ' 부산대학교병원·양산부산대학교병원 교수비상대책위원회는 오늘(31일) 성명서를 내고 ""정부의 의대 증원과 공공의대 설립, 한방첩약 급여화 사업 추진으로 벌어지는 현 상황이 참담하다""며 ""병원을 떠난 전임의와 전공의, 국가고시를 거부하고 휴학을 선택한 의과대학 학생들의 뜻을 지지한다""고 말했습니다.  ', ' 이들은 ""정부가 의료계와 협의 없이 무리한 정책을 발표해 의사들을 극한투쟁으로 몰아가고 있다""고 밝혔습니다.  ', ' 이어 ""필수 진료과목 의사가 부족한 원인을 고민하고 의료계와 의논했는지, 시도지사와 시민단체 추천으로 입학하는 공공의대가 제대로 된 의사를 배출할 수 있을지, 희귀병 치료 등 재원보다 검증되지 않은 한방첩약 급여화가 더 시급한지 의문""이라며 정부에 항의했습니다.  ', ' 위원회는 ""지역 의료를 담당할 공공의료 병원을 만들고, 기피 진료과목에 대한 적절한 지원 방안 등을 마련한다면 당장이라도 해결 가능한 문제를 불확실한 의사 수 증원으로 해결하려 한다""고 말했습니다.  ', ' 이들은 ""의사와 학생들의 정당한 항의를 집단이기주의로 매도하는 태도는 사태 해결에 전혀 도움이 되지 않고, 의료계 전문가와 협의해야 한다""며 ""정부가 강경책으로만 일관한다면 전임의, 전공의, 의과대학생 등 전체 의사와 끝까지 뜻을 함께할 것""이라고 말했습니다.  ', ' 한편 부산대병원에 따르면 일부 전임의, 전공의들이 정부의 의료정책에 반발하며 사직서를 제출했습니다.  ', ' (사진=부산대병원 제공, 연합뉴스) ']"
5,JTBC,"의대생 국시 거부·동맹 휴학 ""공식 중단""…의협 ""학생 결정 존중""","['  정부 의료정책에 반대해온 의대생들이 동맹휴학과 국가고시 거부 등 단체행동을 중단합니다.  ', ' 의대생들을 대표하는 대한의과대학·의학전문대학원 학생협회(의대협)는 오늘(14일) 성명문을 내고 ""오늘 오전 보건의료정책 상설감시기구의 발족으로 협회의 목표를 달성했기에 모든 단체행동을 공식적으로 중단한다""고 밝혔습니다.  ', ' 의대협은 ""대한의사협회(의협)가 정부·여당과 공공의대 및 의대정원 확대의 원점 재논의 명문화를 이룬 과정은 유감이지만, 이에 대한 우리의 실망보다 더 나은 의료와 국민의 건강이 우선이라 판단했다""고 말했습니다.  ', ' 의대협은 ""숙의 끝에 선배 의료인과 합심해 의·정 합의문의 성실한 이행을 지켜봐야 한다는 데 뜻을 모았다""고 말했습니다.  ', ' 의대협은 ""(단체행동 중단이) 우리의 연대가 멈춘다는 것을 의미하지는 않는다""며 ""또다시 국민의 건강권을 위협하는 정책이 강행된다면 언제든 단체행동을 불사할 것""이라고 강조했습니다.  ', ' 의협도 오늘 입장문을 내고 ""학생들의 결정을 전적으로 신뢰하고 존중한다""며 ""(정부·여당에) 합의문의 성실한 이행을 촉구한다""고 밝혔습니다.  ', ' 이에 따라 동맹휴학에 나섰던 예과 1학년생부터 본과 3학년생들은 휴학계를 철회하고 학교로 돌아갑니다.  ', ' 주요 대학 개강일이 2주나 지난 시점이지만, 코로나19로 휴학계 수리 및 철회 기간이 평소보다 길어졌기 때문입니다.  ', ' 한양대 관계자는 ""원래 휴학계 관련 행정처리 기간은 개강 후 일주일 정도까지였는데, 개강 후 뒤늦게 비대면 강의의 질을 문제 삼으며 휴학하겠다는 학생들이 많아 지난 학기부터 이 기간을 늘렸다""고 말했습니다.  ', ' 애초부터 의대생들의 휴학계가 행정상으로 접수되지 않은 대학도 있습니다.  ', ' 성균관대 관계자는 ""개인적으로 휴학 의사를 표시했을 경우처럼 바로 처리한 게 아니고, 집단행동인 만큼 학생들의 휴학계를 의과대학 차원에서 보류하고 있었다""고 설명했습니다.  ', ' 다만 본과 4학년생들이 국가시험을 다시 볼 수 있을지는 여전히 미지수입니다.  ', ' 손영래 보건복지부 대변인은 오늘 브리핑에서 ""당사자들이 자유의지로 시험을 거부하는 상황에서 추가시험을 검토할 필요성은 떨어진다고 보고 있다""고 말했습니다.  ', "" 의대협도 '집단행동 중단'이 국시를 응시하겠다는 의미는 아니라는 입장입니다.  "", ' 조승현 의대협 회장은 ""국가고시 거부를 포함한 단체행동을 중단하는 건 맞지만, 지금 국시를 볼 수 있는 상황은 아니기 때문에 재응시 뜻을 표한 건 아니다""라고 말했습니다. ']"
6,JTBC,"의사 극단투쟁에 한발 물러선 여권…""정치적 타격 불가피""","['  정부의 공공의료 확충 정책을 둘러싼 정부와 의료계의 강대강 대치가 4일 가까스로 봉합됐지만 여권으로선 적지 않은 정치적 타격을 입게 됐습니다.  ', ' 이번 합의안은 핵심 쟁점인 의대 정원 확대 및 공공의대 신설안을 원점에서 재논의하는 대신 의사들도 파업을 중단하는 것이 골자입니다.  ', "" 겉으로는 양측이 절충점을 찾은 모양새를 취했으나, 사실상 정부와 여당이 의료계의 집단적 실력행사에 주요 국정과제 논의를 중단한 것이어서 '백기 투항'을 한 것 아니냐는 시선이 제기됩니다.  "", ' 여권에서는 이번 사태가 문재인 정부 임기 후반 국정동력 확보와 과제 추진에 걸림돌이 될 수 있다는 우려와 함께 상황관리 실패에 따른 책임론이 불거질 수 있다는 관측이 나오고 있습니다.  ', ' 정부와 여당은 의료계 파업을 시작할 때만 해도 업무개시 명령 불이행 의사들을 고발하는 등 강경 대응하며 끝까지 정책을 관철하겠다는 뜻을 내비쳤습니다.  ', ' 문재인 대통령 역시 ""코로나19 위기 상황에서 의료인들이 의료 현장을 떠난다는 것은 전시상황에서 군인들이 전장을 이탈하는 것""이라고 강력 비판했습니다.  ', ' 그러나 코로나19 재확산 사태 속에서 대립이 길어지면서 환자 피해가 가중되고 국민의 원성이 커지자 여권의 강경 기류가 누그러지기 시작했습니다.  ', ' 정부는 의대생 피해 최소화를 명분으로 의사 국가고시 실기시험을 일주일 연기했고, 정세균 국무총리도 ""단 한명의 의료인 처벌도 원치 않는다""고 말했습니다.  ', "" 이낙연 대표와 한정애 정책위의장 등 민주당 새 지도부도 대화를 통한 해결을 강조하고 나섰고, 결국 정부와 여당은 이날 의료계와 '의대 정원 확대와 공공의대 신설 논의 중단'에 합의하기에 이르렀습니다.  "", ' 재논의 가능성을 열어두기는 했으나, 사실상 의료계의 요구가 관철된 것으로 평가할 수 있습니다.  ', ' 이처럼 정부와 여당이 한발 물러선 데에는 코로나19 재확산이 결정적 원인이 된 것으로 보입니다.  ', ' 최근 확산세가 조금 수그러들기는 했으나, 여전히 세자릿수 신규 확진자가 나오는 등 엄중한 상황 속에 의료공백 사태 장기화는 어떻게든 막아야 한다는 판단인 작용한 것입니다.  ', ' 이처럼 갈등이 일단 봉합되긴 했으나 문재인 정부가 감당해야 할 후폭풍 또한 만만치 않을 전망입니다.  ', "" 우선 핵심 정책들에 대해 '코로나19 안정화 이후 모든 가능성을 열어놓고 재논의'라고 합의문에 명시했지만 의료계의 이번 반발 강도를 고려해보면 정부가 정책을 다시 원래대로 추진하는 것은 어려울 것으로 보입니다.  "", ' 단순히 의료정책뿐 아니라 문재인 정부 국정운영 전반에서 어려움이 가중되리라는 우려도 제기됩니다.  ', ' 정부가 강력하게 밀어붙였던 정책이 이해당사자들의 집단 반발에 좌초되는 모양새가 노출됐기 때문입니다.  ', "" 당장 야권에서는 다수 의석을 앞세운 여당의 '입법 독주'가 제동이 걸린 것 아니냐는 목소리도 나옵니다.  "", ' 이에 더해 특정 집단과 세력의 이해관계에 막혀 국정과제를 힘있게 관철하지 못한 것에 대한 핵심 지지층의 반발이나 수도권-지역 의료격차 해소 정책의 차질로 인한 지역민심 이탈 가능성 등도 정부와 여권의 난제가 될 수 있습니다.  ', ' 일부에서는 이번 사태를 제대로 관리하지 못한 것에 대한 책임론이 여권 내에서 불거질 것이라는 예상을 내놓고 있습니다.  ', ' 정부가 짊어지게 된 부담이 커진 만큼 정책을 주도한 인물이 상응하는 책임을 져야 한다는 것입니다.  ', ' 정치권의 한 인사는 ""의사들의 파업에 대한 비판 여론도 거세긴 하지만, 사전에 충분한 의견수렴 없이 정책을 강행해 논란의 빌미를 제공한 정부에 대한 실망감도 번진 것이 사실""이라고 말했습니다.  ', ' 그러면서 ""애초 코로나19로 인해 공공의료 확충 필요성에 대한 공감대가 커진 만큼 지금이 정책 실현의 적기라고 봤겠지만, 의료계의 반발이 이처럼 거세리라고는 미처 생각하지 못한 것""이라며 ""결과적으로는 정무적 판단에서 미흡함이 있었던 것""이라고 지적했습니다.  ']"
7,JTBC,[Pick] 경기도 '수술실 CCTV' 설치 정책…'신생아실'까지 확대,"['  경기도에서 처음으로 의료기관 신생아실 내부에 CCTV가 설치됩니다.  ', "" 오늘(12일), 경기도는 '도 내 의료기관 2곳(경기도의료원 포천병원, 경기여주공공산후조리원)의 신생아실 내부 CCTV 시범 설치 및 운영 계획'을 밝혔습니다. 이재명 경기도지사의 핵심 보건의료정책인 '수술실 CCTV'가 수술실에서 신생아실까지 확대된 겁니다.  "", ' 이에 따라 해당 의료기관 2곳에서는 신생아실 운영 상황이 24시간 모니터링되고, 보호자는 신생아 학대 등이 의심되는 경우 요청에 따라 절차를 거쳐 암호화된 영상물을 받아볼 수 있게 됐습니다.  ', ' 경기도는 ""사고나 감염 등으로부터 \'절대 약자\'인 신생아를 보호하려는 차원""이라는 배경을 설명하며 ""출산가정의 불안감을 해소하는 것은 물론 신생아 가족과 의료진 간 신뢰를 높이는 계기를 마련할 수 있을 것""이라는 기대감을 표했습니다.  ', ' CCTV 설치는 이달 중으로 마무리돼 내년 1월부터 본격 운영되며, 효과가 있다고 판단되면 점진적으로 확대 설치될 방침입니다.  ', ' 최근 전국적으로 신생아실 안전사고가 잇따르면서 정부 차원에서도 내부 CCTV 설치를 의무화하는 의료법 개정에 대해 적극 검토 중인 것으로 알려졌습니다.  ', ' (사진=연합뉴스)                 ']"
8,JTBC,"보건의료노조 ""의·정 밀실거래 규탄…공공의료 개혁 포기한 격""","['  전국 보건의료산업 노동조합은 정부·여당과 대한의사협회가 밀실 협의 끝에 공공의료 개혁을 포기했다고 강력 규탄했습니다.  ', ' 보건의료노조는 ""시민의 건강과 안전에 직결된 공공의료 정책을 논의하면서 시민을 배제하고 이익단체인 의사단체의 요구를 들어줬다""고 정부를 비판했습니다.  ', ' 그러면서 ""정부가 그동안 민간 중심의 의료시스템을 방조하면서 의사들을 코로나19 위기에도 당당히 파업하고 어떤 협상안을 내밀어도 물러서지 않는 집단으로 만들었다""고 꼬집었습니다.  ', ' 또 ""의사단체가 시민의 안전을 내려놓고 자신들의 기득권을 위해 집단휴진을 이어간 비윤리적 행위도 모자라 의료 공공성 논의까지 좌초시켰다""고 의료계를 규탄했습니다.  ', ' 아울러 ""공공의료 강화 없이 감염병을 성공적으로 방역하고 지역 간 의료 불평등을 해소하는 건 불가능하다""고 강조했습니다.  ', ' 한국노총도 성명을 내고 정부 여당과 의협의 합의에 대해 ""사실상 공공의료 강화를 포기하는 선언""이라며 ""강력히 규탄한다""고 밝혔습니다.  ']"
9,JTBC,"대한간호협회 ""의사 진료거부 중단하라…간호사 업무 과중""","['  대한간호협회가 정부 의료정책에 반대해 집단행동에 나선 의사들에게 진료거부를 즉각 중단하라고 촉구했습니다.  ', ' 간호협회는 성명서를 내고 코로나19 재확산 위기 상황에서 의료현장을 떠난 것은 윤리적 의무를 저버린 행위라고 비판했습니다.  ', ' 이들은 전공의들이 떠난 진료현장에 남은 건 간호사들의 근무환경 악화와 업무부담 가중이라며 위계적 업무 관계에 놓인 간호사들은 일부 불법적인 진료 업무까지 떠맡고 있다고 말했습니다.  ', ' 또 일부 의사들이 간호사들에게 대정부 투쟁 협조를 구하고 있지만, 간호사들은 나이팅게일 선서에서 환자의 생명에 해로운 일은 어떤 상황에서도 하지 않고 간호를 받는 사람들의 안녕을 위해 헌신할 것을 다짐했다고 밝혔습니다.  ', ' 그러면서 의대 정원 증원은 당연하다며 국가 책임 아래 공공의료기관을 만들어야 한다고 주장했습니다.  ', ' 간호협회는 ""우리나라 의료 이용량이 경제협력개발기구(OECD) 평균의 두배인데, 의사 수는 OECD 국가 중 꼴찌라는 사실을 의료계는 인정해야 한다""고 강조했습니다.  ']"
10,JTBC,'밥그릇 싸움?' 의사들이 가운 벗고 의대생이 국시 거부하는 진짜 이유,"['  의료계가 4대 의료정책 철회를 요구하며 집단휴진을 이어가고 있습니다. 의료계가 반대하고 있는 4대 정책은 의대 정원 확대, 공공의대 설립, 한방 첩약 급여화, 비대면 진료 도입인데요, 도대체 어떤 내용이길래 코로나19로 인한 엄중한 상황에서 의료진이 병원을 떠나는 걸까요? 자세한 내용은 영상으로 확인하세요!  ', ' 총괄 프로듀서 하현종 프로듀서 이아리따 구성 박수정 편집 정혜수 내레이션 박은영 담당 인턴 홍진솔  ']"
11,JTBC,홍준표 불참에 맥없이 문 닫는 진주의료원 국조,"['  진주의료원 폐업 사태의 진실을 규명하고 공공의료 정책 전반을 점검하고자 했던 국회 공공의료 국정조사 특별위원회의 활동이 기대했던 성과를 내지 못한 채 오는 12일 종료된다.  ', ' 특위는 이날 전체회의를 열어 국회 동행명령을 거부한 홍준표 경남지사를 고발할 것을 여야 합의로 의결하는 한편 국조 보고서를 채택하고 활동을 마무리한다.  ', "" 특위는 애초 홍 지사를 증인으로 불러 이번 국조의 핵심 의제였던 진주의료원 폐업 사태의 사실 관계를 파악할 예정이었으나 홍 지사의 불참으로 '속빈 강정'에 그쳤다는 비판을 면하기 어렵게됐다.  "", ' 특위 위원장인 새누리당 정우택 의원은 11일 CBS 라디오 \'김현정의 뉴스쇼\'에서 ""진주의료원 폐업 과정을 결국 조사하지 못하고 진상 규명도 하지 못해 아쉽다는 생각을 갖는다""며 이 같은 비판 여론을 시인했다.  ', ' 홍 지사가 국회의 증인 동행명령이 헌법에 규정된 신체의 자유와 양심의 자유를 침해한다는 점을 들어 헌법소원 심판까지 검토하는 것을 두고서는 특위의 안이한 대처 탓에 국회가 제 스스로 권위를 깎아 먹었다는 지적까지 나온다.  ', "" 다만 이번 국조가 지방의료원 운영 실태를 파악하고 공공의료가 나아갈 방향을 설정하는 '정책개발 국조'의 성격을 띠었음을 고려하면 어느 정도 성과를 냈다는 평가도 나온다.  "", "" 공공의료원 운영 시 발생하는 적자를 사업비 개념으로 보는 이른바 '착한 적자'의 불가피성을 인정하는 한편 적자 규모가 부풀려지는 현상을 해결하는 새로운 회계 제도를 정부가 검토하기로 한 것은 긍정적으로 볼 만하다는 것이다.  "", ' 홍 지사가 폐업의 원인으로 제기한 강성노조와 관련해서는 보건의료 노조 측이 단체협약의 불합리한 내용은 사측과 협의해 개선하겠다는 뜻을 밝히기도 했다.  ', ' 특위 야당 측 간사인 민주당 김용익 의원은 11일 연합뉴스와의 통화에서 ""이번에 논의된 정책적 제안이 공공의료 관련 법령 개정 등에 이바지할 것으로 본다""며 ""여야가 큰 마찰 없이 정책개발에도 힘썼다는 점은 모범이 될 만하다""고 자평했다.  ']"
12,JTBC,"정세균 ""의협 휴진하면 국민 불안…열린 자세로 의료정책 논의""","['  정세균 국무총리는 오늘(24일) 정부서울청사에서 최대집 대한의사협회장을 만나 ""의협이 집단 휴진을 강행하면 환자는 두려워하고 국민은 불안해 할 것""이라며 ""의대 정원 확대 등 보건의료 현안정책에 대해 의료계와 열린 자세로 진지하게 논의하겠다""고 말했습니다.  ', ' 의협은 의대 정원 확대, 공공의대 설립, 한방 첩약 급여화, 비대면 진료 육성 등 정부 정책의 철회를 촉구하면서 26일 파업을 예고한 상태로, 정 총리의 오늘 발언은 양측이 절충점을 찾아 파업 사태를 막을 수 있도록 노력하겠다는 의지를 밝힌 것으로 풀이됩니다.  ', ' 정 총리는 ""코로나19와 싸운 지 7개월이 흘렀고, 돌아보면 K방역이라는 말이 낯설지 않을 만큼 우리의 대응 노력이 국제적으로 평가를 받았다""며 ""의료진의 헌신과 희생이 있어 가능했고 국민도 인내하고 적극적으로 협조해준 덕""이라고 평가했습니다.  ', ' 정 총리는 ""하지만 최근 수도권을 중심으로 동시다발적 코로나 집단 감염이 발생했고 그 불씨가 전국으로 확산하는 양상을 보이며 방역전선이 최대의 위기를 맞았다""며 ""지금까지 힘들게 쌓아온 성과와 평판이 한순간에 무너지지 않을까 우려된다""고 말했습니다.  ', ' 그러면서 ""코로나19와 사투를 벌이는 현장 의료진의 피로도도 더욱 가중될 것""이라고 부연했습니다.  ', ' 정 총리는 ""어려운 상황이지만 정부는 의료진 여러분과 힘을 합쳐 이번 위기를 극복하고자 한다""며 ""국민이 바라는 것도 정부와 의료계의 대립이 아니라, 힘을 모아 당면한 위기를 극복하고 의료 현안을 지혜롭게 푸는 모습일 것""이라고 강조했습니다.  ', ' 이어 ""어제 대한전공의협의회와도 장시간 많은 의견을 나누고 진정성 있는 대화 의지를 확인했듯, 오늘 대화가 정부와 의료계가 뜻을 합치는 계기가 됐으면 한다""고 당부했습니다.  ']"
13,JTBC,[광주] 대규모 질병 발생 시 위험…낙후 의료보건 정책에 '우려',"[' 메르스 같은 대규모 질병 사태가 또 발생한다면 과연 광주시는 제대로 대응할 수 있을까요. 취재결과 광주시의 공공의료 정책은 타 시도에 비해 뒤떨어진 것으로 드러났습니다. 실제 서울과 6대 광역시 중 광주시에만 유일하게 병원급 공공의료기관이 없다고 합니다.  ', ' 새 지방 정부 출범 이후 광주시는 조직개편안 중 하나로 인구복지국 신설 계획을 밝혔습니다.  ', ' 인구 감소 문제를 대처하기 위해 기존 복지건강국을 인구복지국으로 재편하겠다는 것입니다.  ', ' [김종효/광주광역시 기획조정실장 : 청소년가정과는 인구복지국, 건강복지국입니다. 이름을 인구복지국으로 변경을 해서 그쪽으로 이관을 하고…]  ', ' 보건·의료 분야에 대한 지방 정부의 관심이 소홀해지는 것 아니냐는 우려가 제기되고 있습니다.  ', ' 타 시도에 비해 광주시의 공공의료 정책은 걸음마 수준에 불과합니다.  ', ' 실제 서울과 6대 광역시 중 광주만 유일하게 병원급 공공의료기관이 없습니다.  ', ' 지난 2012년 서울을 시작으로 현재는 5개 시도로 확대된 공공의료지원단 사업은 광주에서는 언급조차 제대로 되지 않고 있습니다.  ', ' 지역 의료계에서는 광주시가 지역 공공의료의 컨트롤 타워로서 역할을 확대해야 한다고 지적합니다.  ', ' 그렇지 않으면 메르스와 같은 대규모 질병 사태나 경제력에 따른 의료 질 격차 등의 문제를 제대로 해결할 수 없다는 이유에서입니다.  ', ' [신민호/전남대학교 의과대학 예방의학과 교수 : 만약 메르스 환자가 다수가 발생했었다면 그 사람들을 입원시킬 병원들이 없었거든요. 그런 역할을 할 수 있는 병상 또는 공공병원이 당연히 필요하다고밖에 볼 수 없습니다.]  ', ' 공공의료 정책에 대한 새 지방 정부의 무관심과 무대책을 걱정하는 목소리가 높습니다.      ']"
14,JTBC,"[전문] 복지부·의협 합의문 ""의대증원·공공의대 추진 중단""","['  의대정원 확대 등 의료정책을 두고 충돌해온 보건복지부와 대한의사협회(의협)가 ""의대정원 확대와 공공의대 신설 추진을 중단한다""는 내용의 합의문을 오늘(4일) 발표했습니다.  ', ' 합의문에는 ""보건복지부는 의대정원 확대와 공공의대 신설 추진을 중단하고, 코로나19 안정화 이후 의정협의체에서 모든 가능성을 열어놓고 대한의사협회와 협의한다""는 내용이 담겼습니다.  ', '다음은 보건복지부와 대한의사협회 합의문 전문입니다.  ', ' 『보건복지부―대한의사협회 합의문 보건복지부와 대한의사협회는 국민의 건강과 보건의료제도의 발전이라는 공동의 목표 아래 지역의료, 필수의료, 의학교육 및 전공의 수련체계의 발전과 코로나19 극복을 위하여 다음과 같이 합의한다.  ', ' 1. 보건복지부는 의대정원 확대, 공공의대 신설 추진을 중단하고 코로나19 안정화 이후 의정협의체에서 모든 가능성을 열어놓고 대한의사협회와 협의한다.  ', ' 이 경우 대한의사협회와 더불어민주당의 정책협약에 따라 구성되는 국회 내 협의체의 논의 결과를 존중한다.  ', ' 또한 의대정원 통보 등 일방적 정책 추진을 강행하지 않는다.  ', ' 2. 보건복지부와 대한의사협회는 지역수가 등 지역의료지원책 개발, 필수의료 육성 및 지원, 전공의 수련환경의 실질적 개선, 건정심 구조 개선 논의, 의료전달체계의 확립 등 주요 의료현안을 의제로 하는 의정협의체를 구성한다.  ', ' 보건복지부는 협의체의 논의 결과를 보건의료발전계획에 적극 반영하고 실행한다.  ', ' 3. 보건복지부와 의료계는 대한의사협회가 문제를 제기하는 4대 정책(의대증원, 공공의대 신설, 첩약 급여화 시범사업, 비대면진료)의 발전적 방안에 대해 협의체에서 논의한다.  ', ' 4. 코로나19 위기의 극복을 위하여 보건복지부와 대한의사협회는 긴밀하게 상호 공조하며 특히 의료인 보호와 의료기관 지원에 대한 구체적인 대책을 마련하여 시행한다.  ', ' 5. 대한의사협회는 집단행동을 중단하고 진료 현장에 복귀한다.  ', ' 2020.9.4 보건복지부-대한의사협회』  ']"
15,JTBC,"[핫포토] '적정근무 투쟁', 검은 리본 다는 전공의들","[""  정부 의료정책에 반발해 집단휴진을 벌인 대한의사협회가 주 40시간 '적정근무 투쟁'을 벌이고 있는 가운데 12일 오후 서울 흑석동 중앙대학교병원에서 전공의들이 정부 정책에 대한 항의의 의미로 가슴에 검은 리본을 달고 있다./연합  ""]"
16,JTBC,의협회장 '보건의료 규제 기요틴 반대' 단식 돌입,"[""  정부의 '보건 의료 규제 기요틴' 정책에 반발하며 추무진 대한의사협회장이 단식 투쟁에 돌입했습니다.  "", ' 추 회장은 오늘 오전 서울 용산구 의협회관에서 기자회견을 열고 ""정부가 국민 건강과 생명을 지키는 방향으로 보건의료정책을 수정할 때까지 단식을 통해 양심의 목소리를 대변할 것""이라고 말했습니다.  ', ' 추 회장은 이어 ""정부가 경제 논리를 앞세워 전문가와 논의 없이 한의사들에게 현대의료기 사용을 허용하려 한다""고 비판했습니다.  ', ' 특히 ""분리된 의사·한의사 면허 제도에서 한의사가 의료기기를 사용하려면 필요한 절차와 교육을 통해 의사면허를 추가로 취득해야 할 것""이라고 주장했습니다.  ', "" 앞서 의협은 지난달 28일 정부가 한의사들에게 의료기기 사용을 허용하는 내용 등은 담은 규제기요틴 민관합동 회의 결과를 공개하자 '국민 건강권을 위협하는 조치'라며 강력히 반발했습니다.  "", "" 이에 대해 정부는 한의사 의료기기 사용의 위해성 여부를 충분히 고려해 정책을 추진하겠다고 밝혔지만 의협과 한의사 협회는 각각 '국민 건강권'과 '국민 편의'를 앞세우며 맞서고 있습니다. ""]"
17,JTBC,'의료개시명령'이란…위반 시 면허정지·징역·벌금형,"[""  정부가 오늘(26일) 의과대학 정원 확대 등에 반발하며 무기한 집단휴진(파업)에 나선 수도권 내 전공의·전임의들에게 진료 현장으로 복귀할 것을 명령한 가운데 이들에게 내려진 '업무개시 명령'에 관심이 쏠립니다.  "", ' 보건복지부에 따르면 업무개시 명령이란 보건의료 정책을 위해 필요하거나 국민 보건에 중대한 위해가 발생 또는 발생할 우려가 있다고 판단할 때 정부와 지방자치단체가 의료기관이나 의료인에게 내릴 수 있는 지도·명령 중 하나입니다.  ', ' 의료법 제59조(지도와 명령)에 근거를 두고 있습니다.  ', ' 이 법 조항에 따라 복지부 장관, 시·도지사 또는 시장·군수·구청장은 의료인이 정당한 사유 없이 진료를 중단하거나 의료기관 개설자가 집단으로 휴업·폐업해 진료에 막대한 지장을 초래 또는 그럴 우려가 있다고 인정할 만한 이유가 있으면 의료인 및 기관 개설자에게 업무 개시 명령을 할 수 있습니다.  ', "" 오늘 복지부가 서울·경기·인천에 소재한 수련병원 95곳에서 근무하는 전공의·전임의에게 내린 명령 내용을 보면 '국민의 생명과 안전을 담보로 한 집단행동을 중지하고 즉시 환자 진료 업무에 복귀할 것을 명령한다'고 돼 있습니다.  "", "" 업무개시 명령은 의료진 또는 의료기관을 대상으로 한 '초강경' 대응 카드로 손꼽힙니다.  "", ' 정당한 이유 없이 명령을 따르지 않으면 면허정지 처분이나 3년 이하의 징역 또는 3천만 원 이하의 벌금형을 받을 수 있습니다.  ', ' 의료인의 경우 의료법 위반으로 금고 이상의 처분을 받으면 결격 사유로 인정돼 면허까지 취소될 수 있습니다.  ', ' 지난 2000년 의약분업 사태, 2014년 원격의료 반대 때도 업무개시 명령이 발동된 바 있습니다.  ', ' 복지부 관계자는 ""오늘 발표한 명령은 수도권 수련병원 전체 전공의·전임의를 대상으로 하는 포괄적인 업무개시 명령""이라며 ""개별 명령은 업무에 종사하는지 등을 확인한 뒤 내리게 되며 위반했을 경우 행정처분 등이 따를 수 있다""고 설명했습니다.  ']"
18,JTBC,전국 전공의 무기한 파업 돌입…'의료 대란' 현실화되나,"[' 이런 가운데 전국 종합병원 전공의들이 정부의 의료정책에 반발해서 오늘(21일)부터 무기한 파업에 들어갔습니다. 정부는 진료 개시 명령을 따르지 않으면 의사면허가 취소될 수도 있다는 뜻을 내비쳤습니다.  ', ' 자세한 내용, 박찬범 기자입니다.  ', ' 전국 종합병원의 인턴과 4년 차 레지던트가 오늘부터 무기한 파업에 들어갔습니다.  ', ' 나머지 연차 레지던트들은 내일과 모레, 각각 진료 거부에 동참합니다.  ', ' 대체 인력이 투입돼 큰 혼란은 피했지만 수술 일정이 연기되면서 불안과 불편을 호소하는 환자도 많았습니다.  ', ' [환자 가족 : 지금은 다른 데 (암) 전이가 없고 빨리 수술하면 더 빨리 쾌유 하는데 훨씬 도움이 될 텐데 지금 굉장히 불안하죠.]  ', ' 대한의사협회는 다음 주 수요일부터 사흘간은 2차 총파업을 이미 예고했습니다.  ', ' [최대집/대한의사협회장 : 분만, 응급, 중환자치료 등의 필수적인 기능들은 그대로 유지돼 있습니다. 누가 시켜서가 아닌 의사들의 자율적인 조치입니다.]  ', ' 정부는 의료계가 파업을 중단하고 대화에 나서면 의대 정원 확대 등 정책을 유보하겠다는 뜻을 밝혔습니다.  ', ' 하지만 정책부터 먼저 철회하라는 의사단체의 요구는 받아들이지 않겠다는 입장입니다.  ', "" 국민 피해를 막기 위해 '업무개시 명령'을 내릴 뜻도 내비쳤는데 이 명령을 거부하면 징역형이나 벌금형을 받을 수 있는 만큼 의사면허가 취소될 수도 있다고 설명했습니다.  "", ' [김강립/보건복지부 차관 : 국민의 생명과 안전을 담보로 한 집단 휴업을 강행하는 것은 그 어떤 이유로도 정당화하기 어렵습니다.]  ', "" 정부와 의료계가 서로의 입장을 굽히지 않으면서 코로나19 대유행 조짐 속에 '의료 대란' 현실화 우려가 커지고 있습니다.  "", ' (영상취재 : 박대영, 영상편집 : 정성훈, CG : 최진회) ']"
19,JTBC,"정책 반대 전공의, '가운 벗고' 무기한 파업 돌입",[]
20,JTBC,의사협회 오늘부터 주 40시간 '적정근무' 투쟁,"[""  정부 의료정책에 반발해 어제(10일) 집단휴진을 벌인 대한의사협회가 오늘부터는 주 40시간 '적정근무'를 실시하는 방식으로 대정부 투쟁을 이어갑니다.  "", ' 방상혁 의협 투쟁위원회 간사는 ""오늘부터 23일까지 개원가를 중심으로 \'주 5일 주 40시간\' 적정근무에 들어간다""며, ""2차 휴진의 동력을 확보하는 동시에 주6일 근무가 관습화된 상황에 대한 문제의식을 환기시킨다는 의미도 있다""고 밝혔습니다.  ', ' 이에 따라 일부 동네의원들은 수요일이나 목요일에 평소보다 단축 진료를 실시하는 방식 등으로 참여할 것으로 예상됩니다.  ', ' 전공의들의 경우 주 40시간 근무는 현실적으로 힘들기 때문에 참여하지 못하고 대신 17일부터 가운에 검은 리본을 부착해 투쟁의 뜻을 밝힌다는 방침입니다.  ', "" 다만 이번 '적정근무' 투쟁은 24일부터 29일까지로 예고된 2차 휴진의 동력을 확보하고 사태 해결의 시간을 벌기 위한 성격이 강하다는 점에서 의협 차원에서 회원들에게 강하게 동참을 독려하지는 않을 것으로 보입니다.  "", ' 방 간사는 ""2차 집단휴진의 참여율은 어제보다 훨씬 높을 것으로 전망한다""면서도 ""기본적으로는 대화를 통해 파국을 막고 싶다는 입장""이라고 말했습니다.  ']"
21,JTBC,의·정 대화 물꼬 텄지만…전임의 파업 가세 '변곡점 맞나',"[""  의대정원 확대 등 의료정책을 놓고 첨예하게 맞서고 있는 정부와 의료계가 대화의 '물꼬'는 텄으나 의료계의 단체행동 강도는 계속 높아지고 있어 의료 공백 우려가 가라앉지 않고 있습니다.  "", "" 정부는 어젯(23일) 밤 정세균 국무총리가 단체행동에 나선 대한전공의협의회(대전협)와 만나 '진정성 있는 논의의 시작과 전공의들의 코로나19 진료 적극 참여'에 합의, 대화를 통한 사태 해결 가능성에 대한 기대를 낳고 있습니다.  "", ' 하지만 전공의들의 무기한 파업이 시작된 후 주요 병원은 외래 진료와 신규 환자 입원, 수술 등을 줄이며 한정된 인원으로 업무를 이어가고 있습니다.  ', ' 실제로 진료 예약이 연기된 환자 사례가 보고되고 있습니다.  ', ' 이번 주에는 전공의에 이어 전임의와 봉직의, 대한의사협회의 주요 구성원인 개원의의 파업까지 예정돼있어 진료 차질은 불가피할 것으로 보입니다.  ', ' 의료계에 따르면 서울대병원 전임의 288명은 오늘(24일) 오전 9시를 기해 파업을 시작할 예정입니다.  ', ' 이로써 서울대병원은 전공의에 이어 전임의 상당수도 업무에서 손을 뗐습니다.  ', ' 다만 응급실, 중환자실, 분만실, 투석실 등 환자의 생명과 직결된 필수 업무는 유지하기로 했습니다.  ', ' 서울대병원뿐만 아니라 서울아산병원 전임의 일부도 오늘부터 파업에 동참하는 것으로 알려졌습니다.  ', ' 임상강사, 펠로 등으로 불리는 전임의들은 순차적으로 단체행동에 돌입해 오는 26일로 예정된 대한의사협회의 제2차 전국의사총파업에도 참여할 예정입니다.  ', ' 이에 따라 2차 총파업에는 의협의 주요 구성원인 개원의는 물론 전공의, 전임의, 봉직의 등 의사 전 직역이 참여할 것으로 보입니다.  ', ' 의료계에서는 전공의의 공백을 메웠던 전임의마저 파업에 나설 경우 진료에 상당한 지장이 생길 것으로 우려합니다.  ', ' 서울시 내 빅5 병원 관계자는 ""신규 환자 유입을 제한하고 수술 건수를 줄이는 등 대처하고 있다""며 ""전임의 등이 전부 병원 밖으로 나갈 경우 진료 차질이 불가피하다""고 말했습니다.  ', ' 전공의 파업이 지속하면서 주요 대형병원은 외래 진료와 신규 환자 입원, 수술 등을 줄이고 있습니다.  ', ' 인력 부족으로 정상적인 운영이 불가능하다는 판단에서입니다.  ', ' 정부와 의협은 코로나19 상황이 엄중하다는 데에는 공감하면서도 정책을 둘러싼 입장 차이는 좀처럼 좁히지 못하고 있습니다.  ', ' 정부는 의과대학 정원 확대 등 의료계에서 반대하는 정책 추진을 보류한 채 의료계와 대화에 나서겠다고 밝혔으나, 의협은 아예 ""정책을 철회하라""고 요구하면서 좀처럼 해결될 기미가 보이지 않는 모양새입니다.  ', ' 정부와 의료계 모두가 국민의 생명을 담보로 서로 먼저 물러서라며 치킨게임을 벌이는 양상입니다.  ', ' 최대집 의협 회장은 본인의 페이스북에 ""정책을 철회하면 파업을 즉각 중단하고 복귀할 것""이라고 적기도 했습니다.  ', ' 정부가 정책을 보류하거나 유보한다며 대화의 제스쳐를 보이는 데 대해서도 의료계의 불신이 만만치 않습니다.  ', ' 의협은 ""\'유보\', \'당분간\' 등의 표현은 사실상 조속한 시일 내에 정책을 다시 추진하겠다는 것""이라며 ""의료계의 반발이 심하니 잠시 숨을 고르겠다는 것과 다름없다""고 지적했습니다.  ', ' 다만 정부와 의료계가 진정성 있는 논의에 착수하기로 합의해 향후 대화가 주목됩니다.  ', ' 대전협은 어젯밤 정부서울청사에서 정세균 국무총리와 2시간 30분 동안 면담을 통해 정부와 의료계가 진정성 있는 논의를 시작했다는 데 합의하고 전공의들은 코로나19 대응 진료에 적극 참여하기로 했다고 밝혔습니다.  ', ' 대전협이 공지를 통해 ""전공의 단체행동의 철회를 의미하는 것은 아니다""라고 못 박았지만 대립으로만 치닫던 정부와 의료계 사이에 \'진정성 있는 논의\'는 시작된 셈입니다.  ', ' 26일 제2차 전국의사총파업 돌입을 예고한 의협도 대전협에 이어 오늘 오후 정 총리를 만나 의료정책과 의료계 총파업 등 현안에 대해 논의할 예정입니다.  ']"
22,JTBC,"공공의료대학원 2022년 개교…""학비 무료·10년 의무 근무""","['  공공보건의료 핵심인력을 양성하기 위한 4년제 국립공공보건의료대학원이 오는 2022년 3월 전북 남원에서 개교합니다.  ', ' 학생들은 학비 전액을 국가에서 지원받되 의사 면허 취득 후에는 의료취약지에서 10년간 의무적으로 근무해야 할 전망입니다.  ', "" 1일 보건복지부에 따르면 정부는 의료취약지와 필수 공공보건의료 분야 등에서 지속해서 근무할 인력을 양성하기 위해 이러한 내용이 담긴 '공공보건의료 발전 종합대책'을 마련했습니다.  "", ' 의대 졸업자 대부분이 수도권에 집중하는 등 지역에서의 의료인 부족 현상이 심화한 데 따라 공공보건에 종사할 인력을 국가가 직접 양성해 공급하겠다는 것입니다.  ', "" 복지부는 공공의료 분야에서 일종의 '사관생도'를 양성해 배출하는 일이라고 소개했습니다.  "", ' 국립공공보건의료대학원 정원은 폐교된 서남대 의대 정원 49명을 그대로 활용합니다.  ', ' 의료인력 배출 시기를 최대한 앞당기기 위해 6년제 의과대학 대신 4년제 의학전문대학원으로 설립하기로 했습니다.  ', ' 선발 인원은 시·도별로 일정 비율로 배분하고, 시·도지사에 추천권을 부여하기로 했습니다.  ', ' 출신 대학교의 소재지는 다르더라도 일정 비율로 배분된 시·도에서 중·고등학교를 졸업하는 등 지역 거주 경험이 충분한 학생을 중심으로 선발한다는 계획입니다.  ', ' 시·도지사가 2~3배 정도 인원을 추천하면 대학원의 선발위원회가 심층 면접과 자기소개서 등을 평가해 공공보건의료에 기여하고자 하는 동기가 확고한 학생을 가려낼 예정입니다.  ', ' 교육 과정에서는 공공의료 전문가를 양성하기 위해 공공 분야 교육을 기존 의과대학보다 강화하기로 했습니다.  ', ' 일반 의과대학 석사와 보건학석사(MPH) 과정을 함께 운영해 모두 이수토록 할 방침입니다.  ', ' 질병을 치료하는 의사일 뿐 아니라 공공보건의료 정책을 이끌어 갈 전문가를 배출하겠다는 취지에서입니다.  ', ' 교육을 위한 별도의 부속 병원은 만들지 않고 서울 국립중앙의료원이 교육병원 역할을 맡습니다.  ', ' 학비 전액은 정부에서 지원하고, 기숙사도 제공합니다.  ', ' 대신 학생들은 의사 면허를 취득한 후 도서 지역이나 농어촌 의료취약지의 지방의료원 등에서 일정 기간 근무해야 합니다.  ', "" 김태년 더불어민주당 의원이 대표 발의한 '국립공공보건의료대학 설립 운영에 관한 법률안'에서 의무 근무 기간은 10년으로 제시됐습니다.  "", ' 의무 근무 기간에서 군 복무 기간, 전문의 수련 기간 등은 제외합니다.  ', ' 이 기간 졸업생은 도 단위 공공의료기관이나 지역의 역학조사관으로 근무하게 됩니다.  ', ' 구체적인 인력 배치는 시·도지사가 지정하는 형태다.  ', ' 보수는 소속 병원의 규정에 따라 지급됩니다.  ', ' 의무 근무를 이행하지 않을 경우에 대비하는 강력한 제재안도 마련될 예정입니다.  ', ' 앞선 법안에서는 의무 근무를 하지 않은 졸업생의 경우 지원금 환수는 물론 의사 면허를 취소하고 10년 내 재발급을 금지토록 했습니다.  ', ' 국가의 지원을 받아 의사 면허를 취득한 뒤 의무 근무는 하지 않고 지원금만 반환한 뒤 민간의료 분야에서 근무하는 일을 원칙적으로 차단하기 위한 조치입니다.  ', ' 복지부가 이처럼 국립공공보건의료대학원 설립과 운영, 제재에 이르는 구체적인 방안을 내놨지만, 실제 시행까지는 의료계의 거센 반발을 넘어야 할 것으로 보입니다.  ', ' 의료계에서는 기존의 국립 의과대학과 공공의료기관 시스템을 활용해 인력을 양성하는 동시에 의료취약지의 근무환경을 개선하는 게 우선이라는 입장입니다.  ', ' 정성균 대한의사협회 대변인은 ""현재 의과대학 시스템만으로 충분히 해결할 수 있는데도 국민의 세금으로 새로운 의대를 설립하는 건 반대한다""며 ""적극적으로 반대 입장을 개진해 공공의대 설립을 막겠다""고 밝혔습니다.  ', ' 그러면서 ""아무리 의료취약지라고 해도 동남아 등과 비교하면 우리나라의 의료접근성은 매우 좋은 편이므로 기존 시스템을 잘 이용하는 법이 더 현실적이고 합리적""이라고 덧붙였습니다.  ']"
23,JTBC,"의사협회, 오늘 끝내 집단휴진…진료 차질 불가피","['  대한의사협회가 원격의료 등 정부의 의료정책에 반발해 10일 오전부터 하루 동안 집단휴진에 들어갔다.  ', ' 이번 집단휴진은 응급실, 중환자실 등 필수 진료인력을 제외하고 주로 동네 개원의들이 운영하는 동네 의원과 대학병원 등 수련병원에 근무하는 인턴, 레지던트 등 전공의들을 중심으로 진행된다.  ', ' 의사들의 대규모 집단휴진은 지난 2000년 의약분업사태이후 14년만의 일이다.  ', ' 의협은 ""정부가 강행하려는 원격의료와 의료영리화 정책에 반대하고 더이상 잘못된 건강보험제도와 의료제도를 방치할 수 없기 때문""이라고 휴진 배경을 밝혔다.  ', ' 의협은 지난해 12월23일 정부의 의료정책에 반발해 총파업을 결의했고, 지난 1일 끝난 회원들의 집단휴진 찬반투표에서 찬성안이 가결됨에 따라 이날 집단휴진을 실행하는 것이다.  ', ' 휴진에 참여하는 의사들은 이미 병원 입구에 ""사정상 오늘 휴진한다""는 공고를 붙이고 병원문을 열지 않았고, 일부 의원들은 오전부터 진료를 중단했다.  ', ' 휴진에 참가한 전공의들도 오전8시부터 진료를 하지 않고, 세미나를 갖는 방식으로 의협의 투쟁에 동참한다.  ', ' 전국의 동네 의원들이 얼마나 이번 휴진에 참여할지 주목되는 가운데 전공의들이 휴진에 동참키로 결의한 병원은 50-60여개 병원으로 파악되고 있다고 송명제 전공의 비대위원장은 전했다.  ', "" 의협은 이날 집단휴진 후 11∼23일에는 '주 5일 주 40시간 근무'의 준법진료와 준법근무를 실시하는 방식으로 투쟁을 이어가다 24∼29일 6일간 전면 집단휴진에 들어갈 계획이다.  "", ' 하지만 10일 의사들의 집단휴진 참여율이 어느 정도냐에 따라 향후 의협의 투쟁에 변수가 될 전망이며, 준법진료 기간에 정부와 의협간 물밑대화를 통한 협상 가능성도 배제할 수 없다.  ', ' 집단휴진이 이뤄지는 10일은 환자들이 가장 많이 몰리는 월요일이어서 전국 곳곳에서 진료 차질로 환자들의 불편이 예상되고 있다.  ', ' 또, 전공의들까지 휴진에 동참함에 따라 이들이 수련중인 대학병원 등의 진료업무도 일부 파행이 불가피할 전망이다.  ', ' 정부는 집단휴진에 따른 피해를 최소화하고 의료 공백을 막기 위해 이날 새벽부터 보건소를 비롯한 전국 공공의료기관의 진료시간을 연장하는 등 비상의료체계를 본격 가동하기 시작했다.  ', ' 다니던 의료기관이 문을 닫은 환자들에게는 유관기관 홈페이지와 보건복지콜센터(☎129), 119구급상황관리센터(☎119), 국민건강보험공단 콜센터(☎1577-1000) 등을 통해 진료가 가능한 인근 의료기관을 안내하고 있다.  ', ' 아울러 지역별로 의료기관의 휴진 여부를 파악한 후 의료법에 의거해 신속하게 업무개시 명령을 내린다는 방침이다.  ', ' 대한약사회도 의료계의 집단휴진이 강행됨에 따라 국민불편 해소를 위해 약국들이 비상근무 체제에 들어가 운영시간을 연장했다고 밝혔다.  ']"
24,JTBC,"홍준표 ""지방의료원 저소득층 전문병원 전환""","['  홍준표 경남지사가 23일 지자체 최초로 서민 무상의료 실현과 의료사각지대 해소를 중심으로 공공의료정책 패러다임을 전환하겠다고 밝혔다.  ', ' 그는 이날 오후 기자회견을 열고 지방의료원이 중앙정부의 재정지원 없는 상태에서 현재처럼 민간의료기관과 무한경쟁 속에서 공공의료기능을 수행하는 것은 구조적으로 불가능하다고 전제했다.  ', ' 이에 따라 지방의료원의 공공성을 강화해 저소득층을 위한 전문병원으로 기능 전환하는 등 방안을 정부에 건의했다.  ', ' 홍 지사는 건강보험제도로 공공의료가 보편적으로 실현된 지금은 생활이 어려운 서민을 위한 대책이 절실하다며 의료급여 1종 수급권자를 대상으로 내년부터 무상의료를 전면 실시하겠다고 밝혔다.  ', ' 의료 사각지대 해소를 위해 의료시설이 취약한 지역을 중심으로 보건소에 시설개선과 의료장비 확충을 위한 예산을 집중 투입, 예방 의료기능을 강화하겠다는 계획이다.  ', ' 경남도에 따르면 도내 저소득층은 2012년 말 현재 의료급여 1종 수급자 7만8천여명, 2종 수급자 2만4천여명, 차상위 계층 13만명으로 총 23만2천명으로 추산된다.  ', ' 경남도 서민의료 무료화 계획의 구체적인 내용을 살펴보면 우선 도내 7만8천여명의 의료급여 1종 수급자를 대상으로 진료비 가운데 건강보험 대상이 되는 본인부담금 전액 32억원을 지원한다는 구상이다.  ', ' 의료사각지대 해소를 위해선 18억5천만원의 예산을 들여 서부경남 의령·남해·하동·산청·합천 등 5개 군 보건소와 보건지소에 시설을 개선하기로 했다.  ', ' 진주·의령·남해·하동·합양·거창·합천등 7개 시·군에 물리치료·방사선 등 39종의 의료장비를 확충한다는 방침이다.  ', ' 이러한 서민 무상의료 정책은 금년 하반기 준비작업을 거쳐 내년부터 본격 시행할 계획이다.  ', ' 홍 지사는 지방의료원 기능 전환을 위한 정책제안을 하고 정부에 건의할 내용도 공개했다.  ', ' 우선 정책제안으로 지방의료원에 혜민서(惠民署) 개념을 도입, 34개 지방의료원은 의료급여 1·2종 수급자 및 차상위계층이 이용하는 저소득층 전문병원으로 전환하고 질병관리 응급전문 병원의 기능을 강화하자는 것이다.  ', ' 저소득층이 지방의료원을 이용할 때는 진료비를 전액 무료로 하거나 최소화하고 의료급여 1종 수급자를 대상으로 무상 의료정책을 시·도비로 시행하자는 것이다.  ', ' 또 이를 위해 전국 지방의료원은 진주의료원과 같이 비정상적인 경영구조로 복지예산의 누수가 있을 것으로 보고 지방의료원에 대한 정밀진단과 이에 따른 조직 및 기능의 혁신적 재정비를 위한 감사원 감사를 건의하겠다고 밝혔다.  ', ' 지방의료원의 사업내용 조정, 지방의료원의 설립·운영에 대한 정부의 재정지원을 위해 지방의료원의 설립 및 운영에 관한법률 개정과 지방의료원의 저소득층 진료로 발생하는 예상손실분에 대한 예산지원도 정부에 건의했다.  ', ' 홍 지사는 ""이번에 제시한 경남도 서민의료 무료화 계획과 대정부 건의안을 통해 생활이 어려운 저소득계층에게 더 많은 의료혜택이 돌아가도록 하는 서민무상의료의 토대를 마련할 것으로 기대한다""고 설명했다.  ']"
25,JTBC,공공 의료시설에 수용자 병동 추진…구금시설 공중보건의 확대,"['  법무부가 교도소 등 구금시설 수용자 건강권 증진을 위해 공중보건의 충원, 공공의료시설 내 수용자 병동 설치 등을 추진하기로 했습니다.  ', ' 이런 내용은 법무부가 구금시설 의료정책을 개선하라는 국가인권위원회 권고를 받아들여 만든 수용자 건강권 개선안에 담겼습니다.  ', ' 앞서 인권위는 지난해 8월 법무부에 수용자 1차 진료 강화, 야간·공휴일 등에 의료 공백 최소화, 응급 당직의사 제도 도입 등을 담은 구금시설 의료정책 개선을 권고했습니다.  ', ' 또 정기 건강검진 항목을 확대하고 여성과 저소득층, 정신질환자, 중증질환자 등 취약 수용자를 위한 적극적인 조치를 법무부에 주문했습니다.  ', "" 인권위가 2016년 실시한 구금시설 건강권 실태조사에 따르면 몸이 아픈 경험이 있는 수용자의 37.4%가 '의무과 진료 방문이 어렵다'고 답했고, 야간·공휴일에 몸이 아파 의료진 면담을 신청한 수용자 중 68.2%는 면담 자체를 못했습니다.  "", ' 16일 인권위에 따르면 법무부는 인권위 권고에 따라 수용자 1차 진료를 강화하기 위해 올해 공중보건의를 55명에서 71명으로 늘렸고, 의무관 순회 진료도 확대했습니다.  ', ' 체계적 진료 관리를 위해 전자 의무기록 세부입력도 더 철저히 하기로 했습니다.  ', ' 의무관 충원을 위해 인사혁신처와 의무관 처우 개선방안을, 보건복지부와는 의료인력 확대를 협의했으며 의무관 숙직제도 및 응급환자 대응 체계도 구축했습니다.  ', ' 올해부터 수용자 건강검진에 B·C형 간염을 추가하는 등 검진 항목도 늘렸습니다.  ', ' (사진=연합뉴스TV 제공, 연합뉴스) ']"
26,JTBC,"정 총리, 박능후에 ""의정협의체 조속 구성""","['  정세균 국무총리는 공공의료 정책 논의를 위한 의정협의체를 조속히 구성하라고 박능후 보건복지부 장관에게 지시했습니다.  ', ' 정 총리는 정부서울청사에서 주재한 국정현안점검조정회의에서 지난달 의료계와 정부가 코로나19 상황 안정시 협의체를 구성해 현안을 논의하기로 합의한 것을 언급하면서 이렇게 말했습니다.  ', ' 정 총리는 코로나19 대응이 이번주부터 1단계로 조정됐음을 배경으로 설명한 뒤, ""국민과 의료계 모두에게 도움이 될 수 있도록 지혜를 모아 달라""고 당부했습니다.  ', ' 복지부와 의료계는 지난달 의정합의에서 코로나19 사태 안정 후 의정협의체를 구성해 공공의대 설립, 의대 정원 확대, 첩약급여 시범사업, 비대면 진료 등 4대 정책을 재논의하기로 했습니다.  ']"
27,JTBC,'응급의료 버팀목' 故 윤한덕 센터장 국가유공자 추진,"[' 명절 연휴에도 쉬지 못하고 환자들을 위해 애쓰다가 세상을 떠난 윤한덕 중앙응급의료센터장 빈소에는 오늘(8일)도 많은 사람들이 찾아 애도의 뜻을 전했습니다. 정부는 고인을 국가유공자로 지정하는 방안을 추진하고 있습니다.  ', ' 빈소가 차려진 국립중앙의료원에는 윤한덕 센터장의 죽음을 애도하는 동료들의 발길이 이어졌습니다.  ', ' [윤순영/국립중앙의료원 재난응급상황실장 : 응급의료 체계를 발전시키고 변화시켜 나가기 위한 고민들이 많으셨고, 그런 계획들을 수행하시고 업무를 실제 하시느라고 집에도 못 가시고 그렇게 근무를 하셨던 겁니다.]  ', ' 너무 일찍 황망하게 동료를 떠나보낸 데 대한 안타까움이 컸습니다.  ', ' [권용진/서울대병원 공공보건의료 사업단장 (어제) : 강제로라도 집에 가게 했어야 했는데 동료로서 그러지 못한 점에서 굉장히 큰 아쉬움이 남고, 지금이라도 편히 쉬었으면 좋겠습니다.]  ', ' 이낙연 국무총리도 빈소를 찾아 조문하고 고인의 뜻에 따라 응급의료 체계 보강을 약속했습니다.  ', ' 정부는 고 윤한덕 센터장이 17년간 국립중앙의료원 응급의료센터에서 일하면서 응급의료 체계를 만드는 일에 헌신했다며 국가유공자로 지정하는 방안을 추진하겠다고 밝혔습니다.  ', ' [복지부 관계자 : 유공자 결정될지 여부는 복지부에서 판단하는 부분은 아니지만, 윤한덕 센터장님께서 응급의료 정책에 기여 하신 바가 크기 때문에 그 부분을 적극 지정 과정에 반영을 해서….]  ', ' 국가 유공자 지정 결정은 법에 따라 심사를 거쳐 국가보훈처가 최종적으로 결정하게 됩니다.  ', ' (영상취재 : 강동철, 영상편집 : 원형희)   ']"
28,JTBC,"""전공의 76% 사직 의사 표시""…아직 사직서 제출 인원은 많지 않아","['  의과대학 정원 확대 등 정부의 보건의료정책에 반대하는 전공의와 전임의 일부가 27일 소속 병원에 사직서를 제출했습니다.  ', ' 의료계에 따르면 세브란스병원 응급의학과 소속 전공의 전원이 이날 사의를 표했습니다.  ', "" 인턴과 레지던트 등 전공의를 대표하는 대한전공의협의회(대전협)이 이날 오전 10시부터 희망자에 한해 사직서를 내는 '제5차 젊은의사 단체행동'을 시작한 데 따른 것입니다.  "", ' 전날 정부가 집단휴진에 나선 수도권 수련병원의 전공의와 전임의를 대상으로 업무개시 명령을 내린 데 맞선 행동이라고 대전협은 설명했습니다.  ', ' 대전협 관계자에 따르면 중간 취합 결과, 76% 상당의 전공의가 사직 의사를 표시했습니다.  ', ' 대전협은 이날 저녁까지 전공의들의 사직 의사를 취합할 예정이어서 더 많은 전공의가 동참할 것으로 보고 있습니다.  ', ' 단 아직 사직서를 제출한 인원은 많지 않습니다.  ', ' 서울대병원, 서울아산병원, 삼성서울병원, 서울성모병원 등은 아직 공식 접수된 전공의 사직서는 없다고 밝혔습니다.  ', ' 중앙대병원 전공의 170명이 사직서를 작성했다는 이야기가 확산하자 병원 관계자는 ""공식 접수된 건이 없다""며 ""정정을 요청하는 등 대응하고 있다""고 말했습니다.  ', ' 임상강사, 펠로 등으로 불리는 전임의들도 사직을 결의했습니다.  ', ' 전임의들은 이날 \'전국 전임의 성명\'을 통해 ""무너진 의료전달 체계가 개선되지 않은 채 진행되는 공공의대 설립과 의과대학 정원 확대는 의료의 질을 떨어뜨릴 것이 자명하다""며 ""정부의 정책 추진에 강력히 반대함을 결의하며 사직서를 제출한다""고 밝혔습니다.  ', ' 실제 서울아산병원에서는 전임의 총 300여명 중 10여명이 사직서를 냈습니다.  ', ' 정부는 이날 수도권 20개 병원 응급실과 중환자실 인력 358명에 대한 개별 업무개시 명령을 발동했습니다.  ', ' 전날 휴진에 나선 전공의 가운데 다수가 전화를 꺼 놔 연락이 닿지 않은 것으로 전해졌습니다.  ', ' 중앙사고수습본부(중수본)는 ""대다수 휴진자가 휴대전화를 끄고 연락을 받지 않는 등의 방법으로 명령서 수령을 회피했다. 병원 관계자 등에게 명령서 수령증과 확인서를 교부한 뒤 휴진자에게 송달할 수 있도록 하고 관련 채증을 했다""고 말했습니다.  ', "" 대전협은 26일 오전 10시부터 오후 10시까지 12시간 동안 연락 가능한 모든 휴대기기를 끄고 외부와의 접촉을 최소화하는 'Blackout(블랙아웃) 행동지침'을 시행했습니다.  "", ' 대전협은 정부의 업무개시명령 수령 여부와 관계없이 응하지 않겠다는 입장입니다.  ', ' 김현숙 보건복지부 의료자원정책과장은 ""판례상 사직서 제출도 집단행위의 한 사례다. 이 경우에도 업무개시명령을 발부할 수 있으며 불응 시 그에 따른 조치는 동일하게 진행된다""고 말했습니다.  ', ' 업무개시 명령에 응하지 않을 경우 3년 이하의 징역 또는 3천만원 이하의 벌금이 부과될 수 있습니다.  ']"
29,JTBC,의사 가운 벗은 전공의들…정부와는 아직도 평행선,"[' 정부의 의료정책에 반대하는 전국의 모든 연차 전공의들이 무기한 파업에 들어갔습니다. 당장 이번 주부터 환자 진료와 수술에 차질이 우려됩니다. 정부는 코로나로 엄중한 시기인 만큼 의료계에 파업 중단을 촉구했습니다.  ', ' 대학병원 전공의들이 하나둘 앞으로 나와 의사 가운을 벗습니다.  ', ' 현장의 목소리를 배제한 정부의 의료 정책을 비판하며 파업에 동참하겠다는 의미입니다.  ', ' [서울대병원 전공의협의회 : 저희 젊은 의사들이 오죽하면 병원 밖으로 나오게 됐겠습니까. 대한민국 보건의료 미래가 걸려 있는 중대한 정책을 졸속으로 추진하는 것을 당장 멈춰주십시오.]  ', ' 그제 인턴과 4년 차 전공의부터 시작된 전공의 파업이 오늘(23일)은 모든 연차로 확대됐습니다.  ', ' 전공의협의회가 집계한 파업 참여율도 95%에 육박합니다.  ', ' 병원들이 대체 인력을 투입해 응급실과 중환자실 운영에 큰 차질은 없었지만, 문제는 앞으로입니다.  ', ' 서울의 한 대학병원은 인력 부족을 이유로 내일부터 수술실을 30% 줄여 운영하기로 했고, 또 다른 병원은 병상 부족에 파업 여파까지 겹쳐 응급실을 통한 내과 중환자 입원을 받지 못하고 있는 실정입니다.  ', ' 상황이 이런데도 의료계와 정부의 입장은 좀처럼 좁혀지지 않고 있습니다.  ', ' 의사협회는 정부와의 대화에 한계가 있다며 국무총리, 여야 정치권에 긴급 대화를 제의한 반면, 정부는 코로나19 위기 상황을 고려해 먼저 진료 현장으로 복귀해 달라고 거듭 요청했습니다.  ', ' [윤태호/보건복지부 공공보건정책관 : 코로나19의 엄중한 상황에 대한 인식을 같이하고 모든 문제는 추후에 논의하기로 하고 지금은 진료현장으로 복귀해 줄 것을 다시 한번 요청드립니다.]  ', ' 정세균 국무총리도 오늘 밤 전공의 대표들과 긴급 면담에 나서며 파업 중단을 요청할 계획입니다.  ', ' 오는 26일부터는 의사협회 차원의 2차 파업이 예고돼 있습니다.  ', "" 정부는 입장차가 좁혀지지 않을 경우 '업무개시명령'까지 발동한다는 방침입니다.  ""]"
30,JTBC,"동네 의원 1/3 문 닫았다…""26~28일 2차 총파업""","[' 정부의 의료정책에 반대한 의사협회가 오늘(14일) 총파업을 강행했습니다. 응급실과 같은 필수인력만 남기고 전국의 동네병원 3분에 1 가까이가 문을 닫았습니다.  ', ' 대한의사협회 소속 개원의들과 대학병원 전공의, 전임의들이 하루 동안의 총파업을 위해 거리로 나섰습니다.  ', ' 주최 측 추산 2만 명이 넘는 의사와 의대생들이 이렇게 마스크와 얼굴 가리개를 착용한 채 이곳 여의대로에 모였습니다.  ', ' 의대 정원 확대와 한방 첩약 급여화 등 정부의 보건의료 정책이 졸속으로 만들어져 받아들일 수 없다는 이유에서입니다.  ', ' [최대집/대한의사협회장 : 국민의 생명과 안전을 지켜야 한다는 사명감 하나로 아무것도 바라는 것 없이 몸과 마음을 던져왔습니다. 그런데 정부는 4대 악 의료정책을 기습적으로 쏟아내고…]  ', ' 오늘 오후 5시 기준, 전국 3만 3천여 개 동네 병원 가운데 3분의 1 정도인 1만 1천여 곳이 파업에 동참했습니다.  ', ' 지난주 전공의 집단휴진 때와 달리 응급실 등 필수 진료 담당 인력은 파업에 참여하지 않았습니다.  ', ' 다만 동네 병원의 갑작스러운 휴진에 일부 환자들은 발길을 돌려야 했습니다.  ', "" [동네 병원 환자 : 엄연히 오늘 (진료를) 하는 날이니까 '하겠지' 해서 치료받으려고 왔는데 (병원이 쉬어서) 약국에서 다 치료를 받았어요.]  "", ' 정부는 의대 정원 확대는 불가피하다는 입장입니다.  ', ' [박능후/보건복지부 장관 : 의대 정원 확대 방안은 의사 인력 부족과 지역 격차 문제를 해소하기 위해 꼭 필요한 정책이라고 생각합니다.]  ', ' 의협은 정부의 입장 변화가 없을 경우 오는 26일부터 사흘간 2차 총파업에 들어가겠다고 선언했습니다.  ', ' (영상취재 : 이용한, 영상편집 : 김종우, VJ : 신소영)  ']"
31,JTBC,의협-복지부 협상 결과 오늘 오전 발표,"['  정부 의료 정책에 반발해 의사들이 오는 24일부터 2차 집단 휴진을 예고한 가운데, 집단 휴진 여부를 가늠할 수 있는 보건복지부와 대한의사협회의 협상 결과가 오늘(17일) 오전 발표됩니다.  ', ' 의협과 복지부는 어제 저녁 6시부터 6시간에 걸쳐 보험수가 인상 등을 비롯한 의료계 현안에 대한 협상을 진행했습니다.  ', ' 의협과 복지부는 이번 협상에서 원격의료 시범사업의 실행 시기와 의료 영리화 우려를 해결한 안전장치 마련 등 건강보험제도의 구체적인 개선안을 집중적으로 논의했습니다.   ']"
32,JTBC,의사협회 오늘 집단휴진…진료 차질 불가피,"['  대한의사협회가 원격의료 등 정부의 의료정책에 반발해 오늘 하루 동안 집단휴진에 들어갔습니다.  ', ' 이번 휴진은 주로 개원의들과 대학병원 등 수련병원에 근무하는 인턴, 레지던트 등 전공의들을 중심으로 진행됩니다.  ', ' 단 응급실과 중환자실 등에 근무하는 필수 진료인력은 파업에 참여하지 않습니다.  ', ' 의사들의 대규모 집단휴진은 지난 2000년 의약분업사태이후 14년만의 일입니다.  ', ' 의협은 ""정부가 강행하려는 원격의료와 의료영리화 정책에 반대하고 더 이상 잘못된 건강보험제도와 의료제도를 방치할 수 없기 때문""이라며 휴진 배경을 밝혔습니다.  ', ' 휴진에 참여하는 의사들은 병원 입구에 ""사정상 오늘 휴진한다""는 공고를 붙이고 병원문을 열지 않았고, 일부 의원들은 오전부터 진료를 중단했습니다.  ', ' 휴진에 참가한 전공의들도 오늘 아침부터 진료를 하지 않고, 의협 회관에 모여 세미나를 갖는 방식으로 투쟁에 동참하고 있습니다.  ', ' 전국의 동네 의원들이 얼마나 이번 휴진에 참여할지 주목되는 가운데 전공의들이 휴진에 동참키로 결의한 병원은 50-60개 선으로 파악되고 있습니다.  ', ' 의협은 오늘 집단휴진 이후 내일부터 23일까지 주 5일 40시간을 근무하는 준법진료와 준법근무를 이어가다 다시 24일부터 29일까지 6일동안 전면 집단휴진에 들어갈 계획입니다.  ', ' 정부는 집단휴진에 따른 의료 공백을 최소화하기 위해 오늘 새벽부터 보건소를 비롯한 전국 공공의료기관의 진료시간을 연장하는 등 비상의료체계를 본격 가동하기 시작했습니다.  ', ' 또 환자들에는 방문하려는 의료기관이 오늘 문을 여는지 미리 전화로 확인해 달라고 당부했습니다.  ']"
33,JTBC,"오바마케어 고안 의사 '75세에 죽고 싶다' 발언, 파문","[""  오바마 행정부의 보건의료정책 특보를 역임한 의학계 거물급 인사가 '75세에 죽고 싶은 이유'를 역설해 논란이 일고 있습니다.  "", "" 11일(현지시간) 시카고 트리뷴 보도에 따르면 미국의 생명윤리학자 겸 종양학 전문의인 이즈키얼 이매뉴얼(57)이 월간지 '애틀랜틱'(The Athlantic) 10월호에 기고한 글이 의료 윤리를 위반했다는 지적을 받고 있습니다.  "", ' 이매뉴얼은 \'75세에 죽고 싶은 이유\'(Why I Hope to Die at 75)라는 제목의 글에서 ""(75세가 되는) 2032년부터 생명 연장을 위한 노력이나 예방 치료를 거부하겠다""며 ""수명을 끝없이 연장하고자 하는 욕심은 잘못된 것이고 결국 재앙이 될 수 있기 때문""이라고 밝혔습니다.  ', ' 그는 ""나이가 들수록 창조적 능력이 저하된다""며 ""75세가 되면 \'소비하는 만큼 생산적인 일을 하고 있는지\'를 스스로에게 물어야만 한다""고 주장했습니다.  ', ' 이같은 주장은 이매뉴얼이 소속된 미국의학협회(AMA) 일부 의사들의 반발을 샀습니다.  ', ' 시카고에 본부를 둔 AMA는 ""\'나이로 인해 삶의 가치가 떨어진다\'는 이매뉴얼의 주장은 AMA의 윤리강령을 무시한 것""이라고 지적했습니다.  ', ' 최근 소집된 AMA 대표단 회의에서 뉴욕 안과의사 그레고리 핀토는 ""\'AMA는 이매뉴얼의 주장에 동의하지 않는다\'는 결의안을 채택하고, 공식 입장을 밝히자""는 제안을 내기도 했습니다.  ', ' 핀토는 ""미국의 보건의료정책 설계가 중 한 명인 이매뉴얼이 이같은 주장을 펼쳐 파장이 더 우려스럽다""고 강조했습니다.  ', "" 이매뉴얼은 미 국립보건원(NIH)의 생명윤리 부문 총책을 지냈고 '오바마케어'로 불리는 미국 건강보험개혁법이 만들어질 당시 백악관 보건의료정책 자문위원으로 일했습니다.  "", ' 그는 오바마 행정부 초대 백악관 비서실장을 역임한 람 이매뉴얼 시카고 시장의 형이기도 합니다.  ', ' 이매뉴얼은 자신의 글에서 이같은 관점이 정책 결정에 영향을 미칠 수 있음을 인정했습니다.  ', ' 그는 ""기대수명이 보건관리 수준의 척도로 이용돼서는 안 되며 생의학 연구의 초점이 \'죽어가는 과정의 연장\'이 아닌 알츠하이머와 만성질환 치료 등에 맞춰져야 한다는 말""이라고 설명했습니다.  ', ' AMA 전직 회장이자 뉴올린스 외과의사인 도널드 팔미사노는 ""개인적으로는 이매뉴얼의 주장에 동의하지만, 정부가 건강보험법의 비용절감독립자문위원회(IPAB)를 통해 이같은 접근법을 도입하게 된다면 그것은 큰 문제가 될 것""이라고 말했습니다.  ']"
34,JTBC,"박근혜 ""선택적 의료"" vs 문재인 ""보편적 의료""","[' 대선 후보 정책 진단, 오늘(30일)은 의료정책입니다. 박근혜 후보는 선택적 의료, 또 문재인 후보는 보편적 의료를 내세운 점이 대조적입니다.  ', ' 현재 60% 대에 머물고 있는 건강보험의 보장 비율을 OECD 평균인 80% 이상으로 끌어올려야 한다는 데는 박근혜, 문재인 두 후보 모두 이견이 없습니다.  ', ' 하지만 보장 비율을 끌어올리는 방법에는 차이가 있습니다.  ', ' 박근혜 후보는 암, 심장병, 중풍, 난치병 같은 4대 중증 질환 치료비를 100% 국가가 부담하겠다고 밝혔습니다.  ', ' 65세 이상 노인의 임플란트 치료, 경증 치매환자에 대한 요양비용은 보험 혜택을 받게 하겠다고 약속했습니다.  ', "" 의료 취약계층에 집중하는 이른바 '선택적 의료' 전략입니다.  "", ' [박근혜/새누리당 대선 후보 : 꼭 필요한 지원을 제공해 드리겠습니다. 중병에 걸려 병원비 때문에 가정이 파탄 나는 일도 책임지고 막겠습니다.]  ', ' 반면, 문재인 후보는 보편적 의료를 내세웁니다.  ', ' 개인이 부담하는 연간 입원 진료비에 100만 원 상한제를 도입해, 그 이상은 국가가 부담하겠다고 약속했습니다.  ', ' 간병 서비스에도 건강보험을 적용하고, 임신·출산에 필수적인 의료비도 전액 국가가 지원하겠다고 밝혔습니다.  ', ' [문재인/민주통합당 대선 후보 : 돈보다 생명이 먼저입니다. 어떤 질병에 걸리더라도 돈 걱정 없이 치료 받을 수 있는 믿음직한 건강보험을 만들겠습니다.]  ', ' 박근혜 후보의 공약에 대해서는 특정 질병만 보장을 확대할 경우 건강보험 보장률을 80%까지 올리기는 어렵다는 지적이 있습니다.  ', ' 문재인 후보의 공약은 최소 40조 원이 더 들어가는 재원 문제를 어떻게 해결할지가 모호하다는 비판을 받고 있습니다.  ']"
35,JTBC,건강보험 의료수가 내년 2.29%↑…건보료 인상 불가피,"[""  의료서비스를 제공하는 기관에 국민건강보험공단(건보공단)이 지불하는 '수가'가 내년에 평균 2.29% 인상됩니다.  "", ' 이에 따라 환자가 내는 진료비도 내년에 100원 정도 오를 수 있고, 국민이 내는 건강보험료도 인상될 전망입니다.  ', ' 건보공단은 2020년 의료기관별 수가인상률이 약국 3.5%, 치과 3.1%, 한방 3.0%, 병원 1.7%, 조산원 3.9%, 보건기관(보건소) 2.8%로 결정됐다고 밝혔습니다.  ', ' 이에 따른 추가 소요재정은 1조478억원으로 추산했습니다.  ', ' 건보공단은 가입자의 부담능력과 재정건전성, 진료비 증가율 등을 고려해 올해(2.37%)보다 다소 낮은 수준으로 수가 인상률을 결정했다고 설명했습니다.  ', ' 건보공단과 대한의사협회·대한병원협회·대한치과의사협회·대한한의사협회·대한약사회·대한조산협회·보건복지부 등 7개 의약단체와의 2020년도 요양급여비용(수가) 협상은 의료계의 원가 보전 요구와 최저임금 인상에 따른 운영비 증가 문제 등을 놓고 의견이 첨예하게 대립 되면서 난항을 겪었습니다.  ', ' 의원을 대표하는 대한의사협회는 건보공단이 최종적으로 제시한 2.9% 인상안을 받아들이지 않아 협상이 결렬됐습니다.  ', "" 대한의사협회는 '문재인 케어'로 불리는 건강보험 보장성 강화 대책으로 비급여진료 수입이 축소되고, 대형병원으로의 환자 쏠림 현상이 심해지고 있다는 점을 들어 인상률이 크게 높아져야 한다고 주장했습니다.  "", ' 건보공단은 내년도 수가 계약 결과를 오는 5일 국내 의료정책을 의결하는 최고 의사결정기구인 건강보험정책심의위원회(건정심)에 보고할 예정입니다.  ', ' 건정심은 협상이 결렬된 의원의 수가 인상률을 이달 중 최종적으로 결정합니다.  ', ' 건정심은 건보공단이 제시한 인상률을 확정하거나, 벌칙을 부과해 건보공단 제시안보다 낮게 인상률을 책정할 전망입니다.  ', ' 내년도 수가 인상은 건강보험료 인상으로 이어질 수 있습니다.  ', ' 건보공단은 가입자들로부터 거둔 보험료로 조성한 건강보험재정에서 수가를 지급합니다.  ', ' 보건복지부는 수가 인상과 더불어 치료에 필요한 모든 의학적 비급여를 급여화하는 문재인 케어 시행에 필요한 재원을 마련하고자 건강보험료율을 2018년 2.04%, 올해 3.49% 인상했습니다.  ']"
36,JTBC,14년만의 집단 휴진…환자들 대처 방법은?,"['  대한의사협회가 정부의 의료정책 전반에 반발하며 예고한 대로 오늘(10일) 집단 휴진에 들어감에 따라 환자와 가족들의 불안이 커지고 있습니다.  ', "" 일단 규모가 큰 병원급 이상 의료기관 소속 의사들 대부분은 이번 휴진에 동참하지 않을 것으로 예상돼 지난 2000년과 같은 '의료 대란' 수준의 혼란은 없을 전망입니다.  "", ' 다만 아이 독감·눈병에서부터 돌발 외상에 이르기까지 여러 이유로 당장 가까운 동네 의원을 찾은 시민들이 닫힌 의원 문 앞에서 당황하는 일도 적지 않을 것으로 우려됩니다.  ', ' 오늘 하루 불필요한 지체와 차질 없이 진료를 받으려면 우선 시민들은 자신이 찾을 동네 의원이 실제로 문을 닫았는지 확인하는 것이 좋습니다.  ', ' 국민건강보험공단은 하루 종일 실시간으로 휴진한 동네 의원이 어디인지 전산 시스템 등을 통해 파악, 보건복지부와 건강보험심사평가원, 소방방재청 등과 정보를 공유할 계획입니다.  ', ' 보통 진료가 시작되는 오전 9시 이후부터 속속 집계가 이뤄질 것으로 예상됩니다.  ', ' 오전 10시 이후부터 시민들은 보건복지콜센터(☎129), 소방방재청 119구급상황관리센터(☎119), 국민건강보험공단 콜센터(☎1577-1000), 건강보험심사평가원 콜센터(☎1644-2000) 등을 통해 동네 의원 중 어느 곳이 문을 열었는지 닫았는지 안내받을 수 있을 것으로 보입니다.  ', ' 아예 처음부터 이번 집단 휴진과 관계가 없는 병원급 이상 의료기관이나 보건소를 찾아갈 수도 있습니다.  ', ' 거주지 인근 병원급 이상 의료기관 현황은 중앙응급의료센터 E-gen(www.e-gen.or.kr), 응급의료정보센터(www.1339.or.kr), 건강보험심사평가원(www.hira.or.kr) 홈페이지 등에서 확인할 수 있습니다.  ', "" 또 스마트폰의 응급의료정보제공' 애플리케이션에서도 조회가 가능합니다.  "", ' 병원 경영자들의 단체인 대한병원협회는 의협의 집단 휴진에 따른 비상진료 대책으로서 오늘 하루 평소보다 진료 시간을 늘려 환자를 받기로 했습니다.  ', ' 당뇨·고혈압 등 만성질환 환자들도 평소 진료를 받던 동네 의원이 문을 닫았다면 가까운 보건소나 병원급 의료기관에서 약을 처방받으면 됩니다.  ', ' 이 밖에 약국·치과·한의원 등의 의료기관도 이번 집단 휴진에 동참하지 않기 때문에 정상 진료와 조제에 문제가 없습니다.  ', ' 복지부 관계자는 ""의사협회 휴진에 대응, 국민의 불편이 없도록 전국 보건소·대학병원·군 병원·산재병원·소방방재청과 함께 비상진료체계와 응급환자 이송 시스템을 가동하고 있다""고 설명했습니다.   ']"
37,JTBC,"의협, 오늘 하루 집단휴진…전공의 대거 참여","['  대한의사협회가 원격의료 등 정부 의료정책에 대한 반대와 건강보험제도 개선 등을 촉구하며 오늘(10일) 하루 집단휴진에 들어갔습니다.  ', ' 의협이 집단휴진에 들어간 것은 지난 2000년 의약분업 사태 이후 처음입니다.  ', ' 이번 집단휴진은 주로 개원 의사들과 대형병원에 근무하는 전공의들을 중심으로 진행되고 있으며, 응급실과 중환자실 필수 인력은 참여하지 않습니다.  ', ' 의협은 자체 집계 결과, 현재 전국 병원 70곳 전공의 1만 7천 명 가운데 42.2%인 7천 1백 명이 휴진에 참여하고 있다고 밝혔습니다.  ', ' 복지부가 각 지역 보건소를 통해 전수 조사한 데 따르면, 오후 1시 반 현재 전국의 휴진 의원은 모두 8천 3백 39곳으로 전체 의원의 29.1%에 달합니다.  ', ' 현재 의협회관엔 휴진에 참여하는 전공의 1천 6백 명이 모여 향후 일정을 논의하고 있습니다.  ', ' 의협은 내일부터 23일까지 주 5일 40시간을 근무하는 준법진료 투쟁을 벌인 뒤, 오는 24일부터 엿새간 다시 집단휴진에 들어갈 계획입니다.  ', ' 정부는 집단휴진에 따른 의료 공백을 최소화하기 위해 보건소를 비롯한 전국 공공의료기관의 진료시간을 연장하는 등 비상의료체제를 가동한다고 밝혔습니다.  ', ' 정부는 현재 각 지역 보건소와 건강보험공단 지사 등을 통해 해당 지역 의원들을 방문해 휴진 여부를 파악하고 있습니다.  ', ' 정부는 휴진 중인 의료기관에 대해서는 현장에서 업무개시 명령을 내리고, 정당한 사유 없이 응하지 않을 경우 업무정지 15일의 행정처분과 함께 고발 조치한다는 방침입니다.  ', ' 보건복지부는 오늘 병·의원을 찾는 환자들의 경우, 미리 해당 의료기관이나 복지부 콜센터에 전화해 휴진 여부를 확인해 달라고 보건복지부는 당부했습니다.  ']"
38,JTBC,의사협회 '원격의료·영리병원 반대' 궐기대회,"['  대한의사협회 소속 의사들이 원격의료 도입과 낮은 수가 체계 등 정부의 의료정책에 반대하며 여의도공원에서 집회를 열었습니다.  ', "" 오늘(15일) 열린 '의료제도 바로세우기 전국의사궐기대회'에는 주최측 추산 2만명, 경찰 추산 만명의 의사와 전공의 등이 참석했습니다.  "", "" 이들은 집회에서 원격의료와 영리병원 도입을 위한 의료법 및 서비스산업발전기본법 개.제정 작업을 중단하라는 내용의 '대투쟁 결의문'을 채택했습니다.  "", ' 또 저부담·저수가·저보장으로 왜곡된 의료를 조장하는 현행 건강보험제도를 개혁하고, 의약분업 원칙에 맞지 않는 대체조제 활성화와 성분명 처방 등을 추진하지 말라고 요구했습니다.  ', ' 의사들은 결의문을 통해 ""36년 전 의료보험제도가 도입된 이래 원가 이하의 낮은 수가에도 사명감 하나로 고통을 감내했다""며 이제는 ""잘못된 의료제도를 개혁하기 위해 의료혁명을 이뤄낼 때""라고 주장했습니다.  ', ' 아울러 ""정부가 의사들의 주장을 외면하고 일방적 관치의료를 지속하면 대한민국 의료는 중단될 것""이라며 진료거부 등 집단행동 가능성도 시사했습니다.  ', ' 오늘 대회에서 의사협회의 추무진 정책이사와 임병석 법제이사, 방상혁 기획이사 등은 공개 삭발을 진행했습니다.  ']"
39,JTBC,전국 병의원 휴진 참가율 '저조'…의료공백 미미,"['  원격진료 등 정부 의료정책에 반대하는 대한의사협회가 집단 휴진에 들어간 10일 전국 각 지역에선 실제 휴진에 참여한 병의원이 많지 않아 우려됐던 의료대란은 일어나지 않았다.  ', ' 각 지방자치단체는 병의원 휴진 현황을 파악하고 보건소 진료시간을 연장하는 등 대응에 나섰다.  ', "" ◇집단휴진 예상 참가율 '저조'  "", ' 오전 10시 현재 경기, 충북, 광주, 전남, 경남, 부산, 강원, 울산 등 8개 시도가 휴진 참가율을 잠정 집계한 결과 문을 닫은 병의원은 전체의 17.4%로 추정됐다.  ', ' 각 지자체는 의협의 집단휴진 예고 이후 병의원에 미리 진료명령서를 보냈으며, 수령을 거부하거나 휴진을 예고한 병원을 휴진 참가 예상 병의원으로 집계했다.  ', ' 휴진 참가율은 울산이 33.7%로 가장 높았고, 충북 23.3%, 경남 22.9% 순이었다.  ', ' 울산은 병의원 576곳 가운데 98곳이 문을 닫고, 96곳이 진료명령서 수령을 거부했다. 충북은 의원 783곳 가운데 183곳이 휴진을 예고했고 경남은 의원 1천469곳 가운데 337곳이 휴진하는 것으로 파악됐다.  ', ' 반면 광주는 100병상 이상 종합병원 22곳과 30병상 이상 병원 65곳, 의원 854곳 중 의원 12곳만 휴진에 참가할 것으로 예상돼 1.3%로 가장 낮았다.  ', ' 대형 병원은 거의 정상 진료하고 있고, 소규모 의원 위주로 10곳 중 2곳만 휴진한 상황이어서 전국적으로 우려된 의료대란은 찾아보기 어려웠다.  ', ' 다만 충북 제천의 경우 병의원 80곳 중 76곳이 휴진하기로 해 이날 하루 환자들의 불편이 예상된다.  ', "" ◇대형병원 일부 전공의 휴진 동참…'진료차질은 없어'  "", ' 수원 가톨릭대학교 성빈센트병원은 전공의 145명 중 내과 20명, 정신건강의학과 8명 등 모두 28명이 집단휴진에 참여한 것으로 파악됐다. 고양 명지병원도 전체 전공의 114명 중 20∼30명의 전공의만 휴진에 참여, 큰 차질은 빚지 않을 전망이다.  ', ' 세브란스병원 소속 전공의 170여명이 근무하는 건강보험공단 일산병원은 아예 휴진에 동참하지 않은 것으로 알려졌다.  ', ' 일부 병원에선 전공의 상당수가 휴진에 참가했지만 실질적인 진료는 대부분 교수들이 맡는데다 일부 병원은 대체 의료진을 투입해 대비, 의료공백은 그리 크지않을 것으로 것으로 예상된다.  ', ' 인천 인하대병원에선 전공의 240명 중 절반인 120명이, 길병원에선 268명 중 188명이 휴진에 참가하고 있다.  ', ' 또 경남에서는 경상대병원 전공의 132명 중 100명, 양산부산대병원 전공의 122명 모두, 부산에서는 4개 대학병원과 17개 병원에서 근무하는 전공의 913명 중 절반가량이 휴진에 참여한 것으로 파악됐다.  ', ' 하지만 병원 관계자는 ""전공의 업무가 직접적인 진료보단 교수의 진료를 보조하는 역할이어서 큰 문제는 없다""고 입을 모았다.  ', ' 강원대병원은 전공의 78명이 진료 휴진에 동참함에 따라 70여 명의 전문의를 투입해 의료 공백을 메우고 있다.  ', ' 응급실과 중환자실을 담당하는 전공의를 포함 190여명이 파업에 동참한 원주 세브란스 기독병원도 200여 명의 전문의를 응급실과 중환자실, 수술실 등 현장에 배치해 별다른 문제는 발생하지 않고 있다.  ', ' 경북대병원 관계자는 ""다른 병원에서 응급환자들이 올 경우에 대비, 응급수술을 제외하고 오늘 하루 예정된 일반 수술 일정을 하루 정도씩 연기했다""고 말했다.  ', ' 계명대 동산병원측은 ""모든 교수들이 오늘 진료에 참여하고 행정직원이나 의료기사 등이 근무시간을 연장하는 등 지원한다""며 ""전공의들이 주로 입원병동에 많기에 입원 환자들의 검사 시간이 지연된다거나 하는 정도의 불편은 있을 수 있다""고 전했다.  ', ' ◇각 지자체 휴진 현황파악 분주…대응 나서  ', ' 전국 각 지자체는 휴진 동참 병의원과 전공의 현황을 명확히 파악하느라 분주한 상황이다.  ', ' 경기 수원 영통보건소 관계자는 ""관내 208곳의 의원이 있지만 휴진에 참여하는 곳은 아직 파악되지 않아 일일이 전화를 해 확인하고 있다""며 ""내원하는 환자도 아직 많지 않다""고 설명했다.  ', ' 전국적으로 휴진 참가 병의원은 정오가 넘어서야 집계될 것으로 예상된다.  ', ' 일선 지자체는 진료공백을 최소화하기 위해 보건소와 지방의료원, 응급의료기관 등을 중심으로 진료시간을 연장하는 등 비상진료체제를 구축했다.  ', ' 경기도는 오전 9시부터 오후 6시까지인 도립의료원 산하 6개 병원의 진료시간을 오후 7시 30분으로 1시간 30분 연장하고 45개 보건소와 121개 보건지소 진료시간도 오후 9시까지 연장하기로 했다.  ', ' 또 응급의료센터로 지정된 도내 63개 병원에는 응급진료체계를 유지하도록 하고, 병원급 의료기관은 외래 진료시간을 연장하도록 요청했다.  ', ' 휴진 참가율이 다소 높은 충북도는 휴진을 예고한 의원에 진료명령서를 발송하고, 휴진율이 높은 제천시에 한해서는 이보다 한 단계 높은 업무개시명령을 내렸다.  ', ' 제주도 또한 의료계의 집단휴진에 따른 환자들의 불편은 크지 않을 것으로 예상하지만 집단휴진 참여율이 어느정도인지 예의주시하며 각 보건소 등 공공의료기관의 진료시간을 연장하는 등 비상의료체계를 가동하고 있다.  ']"
40,JTBC,"대한전공의협의회, 코로나 진료와 정부 협상 병행하기로","['  의대 정원 확대 등 정부의 의료정책에 반발해 순차적 파업에 돌입한 대한전공의협의회(대전협)가 코로나19 대응을 위한 진료에 적극 참여하기로 했습니다.  ', ' 또한, 사태 해결을 위해 정부와 진정성 있는 논의에 착수하기로 했습니다.  ', ' 정세균 국무총리와 대전협은 오늘(23일)밤 정부서울청사에서 회동한 뒤 이같이 합의했습니다.  ', ' 코로나19의 전국적인 확산으로 의료진 부족 사태가 우려됨에 따라 코로나19 대응을 위한 진료와 정부와의 협상을 병행하기로 결정한 것입니다.  ', ' 이번 결정이 전공의들의 파업 철회 내지 전면 현장 복귀를 뜻하는 것은 아닙니다.  ', ' 정 총리는 대전협 대표단에게 ""현재 코로나19 확진자와 가족들은 절박하다""""결단에 대해 감사하게 생각하며, 정부도 상응하는 조치를 취할 것""이라고 밝혔습니다.  ', ' 대전협 대표단은 ""진정성 있는 대화의 자리가 계속 마련되길 바란다""고 말했습니다.  ']"
41,JTBC,"코로나 위기 속 전공의 순차 파업…""대란 없지만 내주부터가 문제""","['  의과대학 정원 확대 등 정부 의료정책에 반대하는 인턴과 레지던트 등 전공의들이 오늘(21일)부터 순차 파업에 들어갔습니다.  ', ' 오늘 인턴과 4년차 레지던트를 시작으로 내일은 3년차 레지던트, 모레 1년차와 2년차 레지던트가 업무에서 손을 뗍니다.  ', ' 응급의학과는 연차와 관계없이 오늘부터 모두 업무를 무기한 중단하기로 했습니다.  ', ' 서울의 주요 상급종합병원들은 전공의 파업에 대비해 급하지 않은 수술 일정을 조정하고 인력을 재배치하는 등 대책을 수립해놓은 상황이어서 아직 큰 문제는 발행하고 있는 것으로 알려졌습니다.  ', ' 하지만 모든 연차의 전공의가 파업에 돌입하는 모레 이후가 큰 고비가 될 것으로 보입니다.  ', ' 세브란스병원 관계자는 ""집단휴진이 장기화하면 남은 교수와 전임의, 간호사 등의 업무 피로도가 쌓일 수 있다며 전공의 모든 인력이 손을 떼는 모레(23일) 혹은 다음 주 월요일(24일)부터 문제가 두드러질 수 있다""고 말했습니다.  ', ' 더욱이 오는 26일에는 대한의사협회가 주도하는 2차 전국의사총파업이 예정돼 있어 의료대란이 현실화할 수 있다는 우려가 커지고 있습니다.  ', ' 이에 대해 정부는 코로나19 속 의료계 집단휴업은 어떤 이유로도 정당화하기 어렵다며 집단행동을 중단하면 의대정원 확충 등 정책추진을 일단 유보하겠다고 밝혔습니다.  ']"
42,JTBC,건강보험 의료수가 내년 2.37%↑…건보료 인상 불가피,"['  동네병원이나 한의원에서 환자가 내는 진료비가 내년에 100원 오릅니다.  ', "" 내년에 의료서비스를 제공하는 기관에 국민건강보험공단(건보공단)이 지불하는 '수가'가 올해보다 평균 2.37% 인상된 데 따른 것입니다.  "", ' 수가가 오르면서 국민이 내는 건강보험료도 인상이 불가피할 전망입니다.  ', ' 건보공단은 2019년 의료기관별 수가인상률이 병원 2.1%, 한방 3.0%, 약국 3.1%, 조산원 3.7%, 보건기관(보건소) 2.8%로 결정됐다고 1일 밝혔습니다.  ', ' 건보공단은 올해 인상률이 의료물가 상승, 진료비 증가율 감소 등을 감안해 전년도 인상률(2.28%)보다 높게 결정됐다고 설명했습니다.  ', ' 수가인상률이 가장 높은 한의원의 경우, 외래 환자를 처음 진료하고 건보공단에서 받는 수가(외래초진료)가 올해 1만2천510원에서 1만2천890원으로 380원 증가해 환자가 내는 본인부담액은 3천700원에서 3천800원으로 100원 오릅니다.  ', ' 의원급 의료기관의 외래초진료는 1만5천350원에서 1만5천640원으로 290원 오르고, 본인부담액은 6천100원에서 6천200원으로 100원 증가합니다.  ', ' 대한의사협회 등 7개 의약 단체와의 2019년도 요양급여비용(수가) 협상은 20조8천억원에 달하는 건강보험 누적 흑자를 둘러싸고 의견이 첨예하게 대립하면서 난항을 겪었습니다.  ', ' 협상은 기한인 지난달 31일 자정을 넘겨 이날 오전 3시 30분쯤 마무리됐습니다.  ', "" 의료 공급자들은 '문재인 케어'에 따른 비급여 수입 축소로 인해 요양기관의 경영상 어려움이 예상되고, 최저임금 인상에 따라 요양기관 운영 비용 중 가장 큰 비중을 차지하는 인건비 부담이 커져 수가 인상률도 크게 높아져야 한다고 주장했습니다.  "", ' 의원을 대변한 대한의사협회(의협)는 건보공단이 제시한 최종안인 2.7% 인상안을 받아들이지 않아 양측의 협상은 결렬됐습니다.  ', ' 치과협회도 2.1% 인상안을 거부했습니다.  ', "" '문재인케어'에 반대하는 의협은 진료비 정상화와 비급여의 전면 또는 대폭 급여화 저지를 위한 투쟁을 예고한 상태입니다.  "", ' 수가 인상안은 이날 건보공단 재정운영위원회에서 심의·의결되고, 협상이 결렬된 의원과 치과의 수가 인상률은 이달 중 국내 의료정책을 의결하는 최고 의사결정기구인 건강보험정책심의위원회(건정심)에서 최종적으로 결정됩니다.  ', ' 건정심에서는 건보공단이 제시한 인상률을 확정하거나, 벌칙을 부과해 건보공단 제시안보다 낮게 인상률을 책정할 전망입니다.  ', ' 내년도 수가 인상은 국민이 내는 건강보험료 인상으로 이어질 전망입니다.  ', ' 건보공단은 가입자한테서 거둔 보험료로 조성한 건강보험재정에서 수가를 지급하기 때문입니다.  ', ' 정부는 수가 인상과 치료에 필요한 모든 의학적 비급여를 급여화하는 건강보험 보장성 강화 정책 시행에 필요한 재원 마련 등을 이유로 건보료율을 지난해 6.12%에서 올해 6.24%로 올린 바 있습니다.  ', ' 정부는 ""보험료 인상률은 지난 10년간의 평균 3.2%보다 높지 않도록 관리하겠다""고 밝히고 있어 내년 보험료는 최대 3.2% 안에서 인상될 것으로 전망됩니다.  ']"
43,JTBC,"의료계, 내부 단일 합의안 도출…""요구안으로 국회·정부와 대화""","['  의과대학 정원 확대 등 정부의 의료정책에 대한 반발로 전공의 등이 파업 중인 의료계가 내부의 단일 합의안을 도출해 국회, 정부와의 대화에 나섭니다.  ', ' 범의료계 4대악 저지투쟁 특별위원회는 오늘(3일) 오후 대한의사협회, 젊은의사 비상대책위원회 등이 모여 회의를 열고 이렇게 결정했다고 밝혔습니다.  ', ' 김대하 의사협회 대변인은 ""투쟁에 가장 적극적으로 나서고 있는 젊은 의사의 요구안을 범투위에서 받았고, 그 내용을 반영해 의료계 단일안을 도출했다""며 ""이른 시일 안에 요구안을 들고 정부, 국회와 대화를 시작하겠다""고 말했습니다.  ', ' 다만 현재 진행 중인 전공의, 전임의 집단휴진이나 7일로 예고된 전국의사총파업 계획에는 아직 변화가 없다고 밝혔습니다.  ', ' 김 대변인은 ""대화에 나선다고 바로 집단휴진을 접는 건 아니며, 계획에도 변화가 없다""면서도 ""7일 이전까지 최대한 적극적으로 성실하게 대화에 임할 것""이라고 말했습니다.  ']"
44,JTBC,[핫포토] 굳게 닫힌 병원 문…집단 휴진,['  대한의사협회가 원격의료 등 정부 의료정책에 대한 반대와 건강보험제도 개선을 요구하며 집단휴진에 들어간 10일 오전 서울시내 한 동네 의원 출입문이 닫혀 있다./연합  ']
45,JTBC,"""단골의원 갔더니 휴진""…집단휴진에 환자들 '불편'","[""  대한의사협회가 정부의 의료정책에 반발해 진료를 거부한 오늘(10일) 우려했던 '의료대란'은 없었으나 환자들이 진료를 받지 못하고 발길을 돌리는 등 불편을 겪어야 했습니다.  "", ' 일부는 이른 아침 병원을 찾았다가 문이 닫힌 것을 확인하고 다른 병원을 수소문했고, 보건소나 병원에는 진료 여부를 확인하는 문의 전화가 이어졌습니다.  ', ' 오늘 하루 전국적으로 동네병원 의사와 대학병원에서 수련을 받는 전공의 등 약 1만7천명이 집단휴업에 동참했습니다.  ', ' 서울 광진구의 피부과를 찾은 김모(70)씨는 ""주말에 생선을 잘못 먹고 얼굴에 뭐가 났길래 참고 있다가 평소 다니던 피부과를 갔는데 문을 닫았다""며 ""원래 다니던 곳을 가지 못하고 여기저기 찾아다니려니 불편했다""고 말했습니다.  ', ' 문을 연 다른 의원들도 평소보다 많은 환자가 몰릴 것에 대비, 분주한 모습이었습니다.  ', ' 도봉구의 한 정형외과 관계자는 ""평상시보다 차 등 음료를 1.5배 정도 준비하고 의자도 30개 이상 준비했다""고 전했습니다.  ', ' 이른 아침 충북 제천에서 출발해 서울 노원구의 정형외과를 찾은 환자 주모(62)씨는 ""유명한 정형외과라고 해서 일찌감치 예약을 해놨는데 휴업으로 진료를 못 받을까 봐 금요일부터 전화로 거듭 확인했다""고 말했습니다.  ', ' 집단 휴업의 여파로 각 보건소는 오후 10시까지 진료실을 연장운영하기로 했습니다.  ', ' 보건소는 오전 10시부터 관내 병원에 전화를 돌려 휴진 여부를 확인하고 있고 휴진이 확인된 병원에는 직접 찾아가 업무개시 명령서를 붙이고 있습니다.  ', ' 서울 마포구 보건소 관계자는 ""오늘까지는 주말에 이어 \'3일 연휴\'와 비슷한 상황이라고 생각하면 큰 문제는 아니다""라면서 ""진짜 문제는 (2차 집단휴진이 시작되는) 24일부터""라고 말했습니다.  ', ' 전공의(인턴·레지던트)들이 휴진한 대학병원은 수술실, 응급실, 중환자실 등 필수인력은 법적으로 휴진에서 제외되기 때문에 응급상황에서나 수술은 지장을 받지 않을 것으로 예상됩니다.  ', ' 다만 외래진료에서는 일부 차질이 우려됐지만 오전까지 큰 혼잡은 없었습니다.  ', ' 병원에서 만난 환자들은 일단 ""큰 불편을 느끼지는 못했다""고 안도하면서도 ""앞으로가 걱정""이라고 입을 모았습니다.   ']"
46,JTBC,의사협회 집단휴진…'대란' 없었지만 불편 잇따라,"['  대한의사협회가 원격의료 도입과 현행 건강보험체계 등 정부 의료정책에 반발해 10일 하루 집단휴진을 실시했습니다.  ', "" 지난 2000년 의약분업사태 이후 14년 만에 대규모로 진행된 집단휴진이었지만 응급실, 중환자실 등 필수 진료인력과 병원급 이상 의료기관이 휴진에 참여하지 않아 '의료대란'으로 이어지지는 않았습니다.  "", ' 다만 일부 환자들은 다니던 의원이 문을 닫아 진료를 받지 못하는 등 불편을 겪었습니다.  ', ' 정부는 집단휴진으로 인한 피해를 최소화하기 위해 지역별로 공공의료기관의 운영시간을 늘리는 등 비상의료체계를 가동했고, 휴진에 참여한 의료기관에 대해서는 업무개시 명령을 내렸습니다.  ', ' 업무개시 명령에 정당한 사유 없이 불응한 의료기관에 대해서는 업무정지 등 행정처분은 물론 형사고발에도 나설 방침입니다.  ', "" 의협은 내일부터 23일까지는 '주 5일, 40시간 근무'를 하며 준법 투쟁을 이어갈 예정이며 정부와의 협상에 진전이 없을 경우 24일부터 6일간 다시 2차로 집단휴진에 들어갈 계획입니다.  "", ' 오늘 휴진 참여율과 관련해 복지부는 오후 6시를 기준으로 전국 의원급의 21%가 휴진에 참여했으며 전공의들의 경우 31% 정도가 파업에 나선 것으로 집계됐다고 밝혔습니다.  ', ' 반면 의협은 전국 개원의의 49%, 단축진료 인원까지 포함하면 60% 이상이 집단휴진에 참여했으며, 전공의의 경우도 42%가 파업에 나섰다고 집계했습니다.  ', ' 정부와 의협의 휴진 참여율 집계가 엇갈리는 것은 정부가 단축진료 후 문을 닫은 의원이나 휴진에 참여했다 오후에 복귀한 전공의들을 휴진 인원에서 제외했기 때문입니다.  ']"
47,JTBC,"의협 ""의정 합의문 없었다"" vs 정부 ""전공의 거절에 합의 결렬""","["" 정부가 의대정원 확대 등 신설 의료정책을 '중단'하는 대신 의료계가 집단휴진을 '철회'하기로 한 의·정 합의가 전공의를 대표하는 대한전공의협의회(대전협)의 반대로 무산됐다는 정부 발표를 최대집 의협 회장이 정면 반박했습니다.  "", ' 최 회장은 2차 총파업 첫날인 오늘(26일) 온라인으로 열린 의협 궐기대회에서 이같이 밝혔습니다.  ', ' 그는 ""일부 언론과 정부에서 말하는 \'정부 제안문\'은 의협과 정부가 함께 제시한 \'합의문\'이 아니며, 협상 과정에서 정부 측에서 먼저 제안한 내용일 뿐""이라고 말했습니다.  ', ' 그는 ""정부 제안을 받아들이기 전에 무기한 총파업 중인 전공의들의 의견을 듣는 것이 필요하다고 정부에도 전달했다""고 강조했습니다.  ', ' 이런 정부 제안에 대해 대전협이 내부 대의원 회의를 거쳐 ""정부가 결국 정책을 추진하겠다는 걸로 보여 파업을 지속하겠다""는 기존 입장을 고수하자 의협도 해당 제안문을 받아들이지 않았다는 것입니다.  ', "" 이에 앞서 보건복지부는 오늘 오전 8시 의료계 파업 관련 브리핑에서 지난 24일 국무총리-의협 간담회 이후 진행된 복지부 장관-의협 협의 내용 등을 자세히 소개하며 '합의문'을 공개했습니다.  "", "" 복지부에 따르면 양측은 어제 새벽까지 이어진 대화에서 '보건복지부는 의대정원 확대, 공공의대 신설 추진을 수도권 코로나19 확산이 안정화 될 때까지 중단하고 코로나19 안정화 이후 협의체에서 모든 가능성을 열어놓고 대한의사협회와 협의하기로 했습니다.  "", ' 협의 기간에는 의대 정원 통보 등 일방적 정책 추진을 강행하지 않기로 했습니다.  ', ' 그러면서 복지부는 ""엄중한 코로나19 사태를 고려해 수차례에 걸쳐 양보와 대화를 위한 노력을 했지만, 의협과 대전협은 정책의 철회 또는 원점 재검토만을 주장하다 결국 합의된 내용을 번복하는 등 진정성과 책임성 있는 모습을 보이지 않았다""고 강하게 비판했습니다.  ', ' 최 회장은 무기한 집단휴진에 나선 전공의와 전임의들에게 정부가 내린 업무개시 명령이 악법이라며 강력하게 반발했습니다.  ', ' 최 회장은 ""정부의 업무개시 명령은 의사들의 단체행동권을 부정하는 악법""이라며 ""위헌적인 이 법은 소송을 통해 반드시 폐기돼야 한다""고 소리높였습니다.  ', ' 이에 앞서 박능후 보건복지부 장관은 코로나19가 급속히 확산하는 수도권 소재 수련병원에서 근무 중인 전공의, 전임의를 대상으로 즉시 환자 진료 업무에 복귀할 것을 명령했습니다.  ', ' 정부가 의료기관이 아닌 의사인 전공의·전임의에게 업무개시명령을 내린 것은 이번이 처음입니다.  ', ' 그동안은 집단휴진에 참여한 의원급 의료기관에 주로 업무개시명령이 내려졌습니다.  ', ' 실제로 정부는 2000년 의약분업 사태, 2014년 원격의료 반대 때 업무개시명령을 내렸는데, 당시 집단휴진에 참여한 의원급 의료기관이 주된 대상이었습니다.  ', ' 업무개시명령을 정당한 이유 없이 따르지 않으면 면허정지 처분이나 3년 이하의 징역 또는 3천만 원 이하의 벌금형을 받을 수 있습니다.  ', ' 의료인의 경우 의료법 위반으로 금고 이상의 처분을 받으면 의료인 결격 사유로 인정돼 면허가 취소될 수 있습니다.  ', ' 최 회장은 ""정부가 내린 업무개시명령에 불응한 후배 의사 단 한 명에게라도 행정처분이나 형사고발 등 무리한 행정조처가 가해진다면 전 회원 무기한 총파업으로 강력히 저항하겠다""고 밝혔습니다.  ', ' 정부가 의협의 집단휴진을 공정거래법 위반으로 공정거래위원회에 신고하겠다고 한 것에 대해서도 물러서지 않겠다는 입장입니다.  ', ' 최 회장은 ""2014년 원격의료 저지투쟁 당시에도 노환규 회장과 방상혁 기획이사가 고발당했지만, 작년 1심 판결에서 무죄가 났다""며 ""집단휴진은 공정거래법 위반이 아니""라고 강조했습니다.  ', ' 그는 업무 개시 명령이나 공정위 고발 등 조치에 대한 의협 법조팀 차원의 법적 자문을 아끼지 않겠다고 말했습니다.  ', ' 최 회장은 그러면서 ""의사들의 요구사항을 사회에 관철할 방법이 많지 않아 진료에서 손을 떼는 최종적인 수단을 선택했다""며 ""그렇지만 코로나19로 상심했을 국민 여러분께 죄송하다""고 덧붙였습니다.  ', ' 그는 오늘 페이스북에 ""감옥은 내가 갈 테니 후배 의사들은 소신을 굽히지 말고 끝까지 투쟁해달라""는 호소문을 올리며 의사들에게 정부 조치에 굴하지 말고 집단행동을 이어나갈 것을 재차 촉구했습니다.  ', ' (사진=보건복지부 제공, 페이스북 캡처, 연합뉴스)  ']"
48,JTBC,"의협 집단 휴진…""일부 종합병원 응급실 평소보다 붐벼""","['  대한의사협회가 의과대학 정원 확대 등 정부 의료정책에 반대해 14일 하루 집단휴진에 들어갔습니다.  ', ' 외래 진료 대기시간 등이 길어지는 등 환자들의 불편이 예상되는 가운데 이날 오전 서울대병원 등 일부 상급종합병원의 응급실이 평소보다 붐비고 있습니다.  ', ' 집단휴진에는 응급실, 중환자실 등 필수 진료를 담당하는 인력은 제외하고 의협의 주요 구성원인 동네의원 개원의와 대학병원 등 수련병원에서 근무하는 인턴, 레지던트 등 전공의가 참여했습니다.  ', ' 전문의 자격을 딴 뒤 대학병원에서 세부 전공을 수련하는 임상강사인 전임의 일부도 참여한 것으로 알려졌습니다.  ', ' 이들은 의대 정원 확대, 공공의대 설립, 첩약 급여화, 비대면 진료 도입에 강력히 반대하고 있습니다.  ', ' 필수 업무인력이 남아있는 만큼 우려할 만한 의료대란은 벌어지지 않을 가능성이 크지만 환자가 몰리는 시간에는 진료 대기시간이 길어질 수 있어 불편이 예상됩니다.  ', ' 이날 오전 서울대병원 외래 진료는 특이사항 없이 운영되고 있으나, 응급실에는 일부 환자가 몰린 것으로 확인됐습니다.  ', ' 현재 병원급 의료기관의 응급실, 중환자실 등은 정상 운영되고 있습니다.  ', ' 보건복지부 조사에서도 병원급 의료기관 중에서 이날 휴진하겠다고 신고한 곳은 없습니다.  ', ' 서울대병원 관계자는 ""동네의원이 휴진하면서 일부 환자들이 응급실을 찾는 것으로 보인다""며 ""지난 7일은 물론, 평소보다 더 붐비는 상황""이라고 전했습니다.  ', ' 서울대병원 앞에서는 전공의들이 15분씩 돌아가며 1인 시위를 하는 모습도 목격됐습니다.  ', "" 이들은 '의료환경 고려 없는 유령의대 양산말라'는 손피켓을 들었습니다.  "", ' 동네의원들이 집단휴진에 참여하면서 환자들이 헛걸음하는 모습도 목격되고 있습니다.  ', ' 이날 오전 서울 마포구의 한 내과는 16일까지 병원 전체가 휴가라는 안내문을 붙여놨습니다.  ', ' 파업 등에 참여한다는 내용은 찾아볼 수 없었습니다.  ', ' 병원 앞에서 마주친 환자는 ""병원에서 약을 처방받아 복용하다 어제부터 증상이 달라져 새로 진료를 받고자 왔다""며 ""먼 걸음을 한 건 아니지만 휴진 등 사전 공지가 없어서 당황스럽다""고 말했습니다.  ', ' 서울 종로구의 내과 역시 이날부터 16일까지 하계휴가라는 안내문을 붙였습니다.  ', ' 전날 기준 전국 의원급 의료기관 3만3천836곳 중 8천365곳(24.7%)이 휴진 신고를 마쳤으나, 휴가철이라는 상황을 고려하면 이날 실제 문을 열지 않은 병원은 더 많을 것으로 추정됩니다.  ', ' 더욱이 문을 닫은 의료기관이 실제 휴가인지, 정부 정책에 반발하며 집단휴진에 참여한 것인지도 구분하기 쉽지 않은 상황입니다.  ', ' 주요 상급 종합병원은 이날 전공의, 전임의의 업무 공백에 대비해 이미 수술이나 검사 일정 등을 모두 조정한 상태입니다.  ', ' 지난 7일 전공의의 업무를 대체했던 전임의들 일부가 집단휴진에 참여하면서 스케줄 조정, 인력 재배치에 힘을 기울였습니다.  ', ' 정부는 이날 휴진하는 의료기관이 많아져 환자 피해가 발생할 경우 원칙에 따라 대응한다는 입장입니다.  ', ' 휴진율이 높아져 환자 진료에 피해가 예상되는 경우 해당 지역의 보건소가 업무개시 명령을 발동하도록 조처했습니다.  ', ' 의료법에 따라 복지부 장관과 시·도지사, 시장·군수·구청장은 의료인이 정당한 사유 없이 진료를 중단하거나 의료기관 개설자가 집단으로 휴업해 환자 진료에 막대한 지장을 초래할 경우 해당 의료인 등에게 업무개시 명령을 내릴 수 있습니다.  ', ' 명령을 위반한 의료기관은 업무정지 15일, 의료인은 3년 이하 징역 또는 3천만원 이하 벌금형에 처할 수 있습니다.  ']"
49,JTBC,"의협-정부, 핵심 쟁점 합의…원격의료 6개월 시범 실시","[' 대규모 파업까지 우려됐던 정부와 의사협회 간의 의료정책 갈등이 핵심 쟁점에 합의하면서 한숨 돌렸습니다. 다음 주로 예정된 2차 집단 휴진은 회원 투표를 걸쳐 결정하기로 했습니다.  ', ' 집단 휴진을 놓고 평행선을 달리던 정부와 의사협회가 어젯밤 극적으로 타협안을 도출해냈습니다.  ', ' 양측은 그동안 쟁점이 돼 온 원격진료와 투자 활성화, 그리고 건강보험제도 문제 등을 개선하기로 합의했습니다.  ', ' 동네 의원의 반발이 거셌던 원격의료 문제는 다음 달부터 6개월 동안 시범 사업을 한 뒤, 그 결과를 입법 논의에 반영하기로 했습니다.  ', ' [권덕철/보건복지부 보건의료정책관 : 시범사업의 기획, 구성, 시행, 평가는 대한의사협회의 의견을 반영하여 대한의사협회와 정부가 공동으로 수행하기로 하였습니다.]  ', ' 의료법인이 영리자회사를 세울 수 있게 하는 방안은 보건의료 단체가 참여하는 위원회를 구성해 재논의하기로 했습니다.  ', ' 이번 사태의 근본원인으로 꼽힌 의료수가 문제는 수가를 결정하는 건강보험정책 심의위원회의 인적 구성을 개편하는 선에서 합의했습니다.  ', ' [노환규/대한의사협회 회장 : 건강보험법개정안을 추진하는데 함께 노력하기로 약속했다는 점이 가장 유의한 진전이 있었다.]  ', ' 또 전공의들의 근무환경 개선도 추진하기로 했습니다.  ', ' 현재 주당 88시간 근무 시간이 48시간인 유럽보다 과도하다고 보고 단계적으로 낮춰 가기로 합의한 겁니다.  ', ' 의사협회는 목요일날 12시까지 투표를 진행한 뒤 투표참여자의 과반수 이상이 협의 결과에 찬성하면 24일로 예정된 2차 집단휴진을 철회할 예정입니다. ']"
50,JTBC,"여야, 집단휴진 자제·철회 촉구…해법은 온도차","['  여야는 대한의사협회가 원격진료 등 정부의 의료정책에 반대해 내일(10일)부터 집단휴진에 돌입하기로 한 데 대해 자제와 철회를 촉구하면서도 해법에서 뚜렷한 차이를 보였습니다.  ', ' 민주당과 안철수 의원 측은 \'의료 공공성 강화 의료제도 개선을 위한 협의체\'를 제안했고, 새누리당은 지속적인 대화를 강조하면서도 새로운 협의체 구성 제안에 대해서는 ""무슨 의미가 있느냐""고 가능성을 일축했습니다.  ', ' 새누리당 함진규 대변인은 브리핑에서 ""국민의 건강권을 무시한 집단휴진 강행에 깊은 유감을 표한다""면서 ""국민이 외면하는 파업은 의료계의 명예와 신뢰만 실추시킬 뿐이며, 집단 이기주의라는 비판을 면치 못할 것""이라고 비판했습니다.  ', ' 그는 ""그동안 정부와 의협은 의료발전협의체를 꾸려 여러 차례 논의를 거쳤다""면서 ""지난달 18일에는 원격의료 및 투자활성화 대책, 의료제도 개선 등에 대한 협의 결과를 공동으로 발표하기도 했는데, 의협이 이를 일방적으로 부정하고 파업을 강행하는 것은 정부와 의료계 간 신뢰를 무너뜨리는 무책임한 모습""이라고 지적했습니다.  ', ' 야권 통합신당의 공동신당추진단장인 민주당 김한길 대표와 새정치연합 안철수 중앙운영위원장은 긴급 기자회견에서 ""의료인들이 처한 상황과 입장을 충분히 이해한다""면서도 ""어떤 명분과 정당한 요구도 환자의 건강과 생명에 우선할 수는 없다""면서 집단휴진 자제를 호소했습니다.  ', ' 안 위원장은 ""그동안 정부가 추진하는 원격의료와 의료영리화 정책의 문제점을 지적한 바 있다""면서 ""공공의료 확충과 의료수가 구조 개선 등 건강보험과 국민보건의 시급한 사안들을 외면한 채 추진하는 원격의료와 의료영리화는 중단돼야 한다""고 지적했습니다.  ', ' 그는 ""이 사태의 근본원인은 국민과 소통하지 않은 박근혜 정부에 있다""면서 ""여·야·정과 의협을 포함한 의료단체, 전문가 등이 포함된 의료공공성 강화와 의료제도 개선을 위한 협의체를 만들 것을 제안한다""고 덧붙였습니다.  ', ' 그러나 새누리당 윤상현 원내수석부대표는 협의체 구성 제안에 대해 ""지난번 정부와 의협이 합의했는데 의협이 깼다""면서 ""지금 파업을 하겠다고 하는 마당에 협의체를 만든다는 게 무슨 의미가 있느냐""며 부정적 반응을 보였습니다.  ']"
51,JTBC,"전국 동네 의원 1만 곳 문 닫았다…""정오 기준 31.3% 휴진 신고""","['  의료계가 14일 의과대학 정원 확충 정책에 반발하며 집단 휴진에 들어간 가운데 의원급 의료기관의 31%가량이 휴진 신고를 한 것으로 집계됐습니다.  ', ' 보건복지부에 따르면 이날 낮 12시 기준으로 전국의 의원급 의료기관 3만3천836곳 가운데 휴진 신고를 한 의료기관은 총 1만584곳으로 파악됐습니다.  ', ' 의원급 의료기관 전체의 31.3%에 해당하는 수치입니다.  ', ' 전날 오후 6시 기준으로 의료기관 8천365곳(24.7%)이 휴진 신고를 했고, 하루 새 2천여곳이 휴진 신고를 더 하면서 이날 진료를 하지 않는다고 밝힌 의원의 비율은 30%를 웃돌았습니다.  ', ' 집단휴진에 들어간 대한의사협회(의협)는 동네병원 개원의가 주축인 단체입니다.  ', "" 의협은 정부의 의과대학 정원 확대, 공공의대 설립, 한방첩약 급여화, 비대면 진료 육성 방안을 '4대악 의료정책'으로 규정하면서 정부에 철회를 촉구하고 있습니다.  "", ' 이날 휴진에는 대학병원 등에서 수련하는 인턴, 레지던트 등 전공의도 참여했으나 응급실, 중환자실, 투석실, 분만실 등과 같이 환자 생명과 직결된 필수 업무 종사자는 참여하지 않았습니다.  ', "" 정부는 지역 내 진료 기관 휴진 비율이 30% 이상으로 올라서는 등 진료 공백이 확실시되는 상황에서는 각 지역 보건소가 '업무개시명령'을 발동하라고 지시한 상태입니다.  "", ' 의료법 제59조에 따르면 보건복지부 장관, 시·도지사 또는 시장·군수·구청장은 의료인이 정당한 사유 없이 진료를 중단하거나 의료기관 개설자가 집단으로 휴업내지 폐업해 환자 진료에 막대한 지장을 초래하거나 그럴 우려가 있다고 인정할 만한 상당한 이유가 있으면 그 의료인이나 의료기관 개설자에게 업무개시 명령을 할 수 있습니다.  ', ' 정부는 집단휴진이 시작되기 전 일부 지역에 대해 업무개시 명령을 내렸고, 일부는 휴진 참여율을 파악하면서 조처를 검토하고 있습니다.  ']"
