﻿,Press,Title,Text
0,TV조선,"의사단체들, 與중재안 수용 여부 논의…3일 정부 협상안 마련","           play-rounded-fillplay-rounded-outlineplay-sharp-fillplay-sharp-outline   pause-sharp-outlinepause-sharp-fillpause-rounded-outlinepause-rounded-fill   00:00              ShareTwitterEmbed      ▶  다음 동영상이 곧 재생됩니다. 취소    3분 미리보기가 종료되었습니다. 풀 영상을 감상하시려면 아래의 VOD 구매를 통해 이용하실 수 있습니다. VOD 구매       [앵커]지금 의사협회를 비롯한 의사 단체들이 여당이 제시한 의료정책  원점 재논의  방안을 수용할 것인지를 두고 회의를 열고 있습니다. 의사협회는 오는 7일  무기한 총파업을 예고한 상태인데, 오늘 밤이 중요한 고비가  될 것 같습니다. 취재기자 연결하겠습니다. 송민선 기자  (대한의사협회입니다.) 타협안이  좀 나왔으면  좋겠는데 분위기는? [리포트]이곳 7층에서는 저녁 7시부터 최대집 회장 등 의사협회 관계자와 박지현 젊은의사 비대위원장 등이 만나고 있습니다. 비대위는 전공의, 전임의, 의대생들이 연대한 조직입니다. 이들은 여당이 제시한 중재안을 수용할지 논의하고 있습니다. 앞서 한정애 민주당 정책위의장은 어제 최 회장을 만나 의대 정원 확대와 공공의대 설립 등 4대 의료정책을 원점에서 재논의하겠다고 약속했습니다. 박지현 비대위원장은 한 위원장과 만난 뒤에 ""발전적 방향으로 정책을 논의할 가능성을 확인했다""고 말하기도 했습니다. 중재안 수용을 결정하면 의사들은 내일 범투위를 열어서 정부에 제시할 구체적인 협상안을 마련한다는 계획입니다. 정부도 국회와 의사단체들의 합의를 존중하겠다며 한발 물러선 상황입니다. 정세균 국무총리는 전국 시, 도 의사회 회장단과 비공개 만찬을 갖고 대화 의지를 강조한 것으로 알려졌습니다. 7일 의협의 무기한 총파업을 앞두고 의정 갈등이 해결의 돌파구를 찾은 모습입니다. 지금까지 대한의사협회 회관에서 TV조선 송민선입니다."
1,TV조선,"젊은 의사 비대위 ""원점 재논의 명문화""…정부 ""법 위반 불가능""","           play-rounded-fillplay-rounded-outlineplay-sharp-fillplay-sharp-outline   pause-sharp-outlinepause-sharp-fillpause-rounded-outlinepause-rounded-fill   00:00              ShareTwitterEmbed      ▶  다음 동영상이 곧 재생됩니다. 취소    3분 미리보기가 종료되었습니다. 풀 영상을 감상하시려면 아래의 VOD 구매를 통해 이용하실 수 있습니다. VOD 구매       [앵커]이런 가운데 정부와 의료계의 힘겨루기는 오늘도 이어졌습니다. 의료계는 정부가 약속한  의료정책  원점 재논의를 문서로  확인해 달라고 요구하고 있지만 정부는 권한 밖의 일이라며 난색을  표시하고 있습니다.  황병준 기자가 취재했습니다.[리포트]전공의와 전임의,  의대생들은 연대조직인 '젊은의사 비상대책위원회'를 만들었습니다.  이들은 오늘 오전 서울시의사회에서 기자회견을 열고 의대 정원확대 등의 정책을  전면 철회하고 이를 명문화하라고 정부에 거듭 요구했습니다. 김지성 / 젊은의사 비상대책위원회 대변인 “명문화된 합의문을 제시를 해준다면 언제든지 파업을 종료할 것입니다.” 정부는 같은 시간에 열린 정례브리핑에서 이들의 요구를 수용할 수 없다고 선을 그었습니다. 공공의대 설립은 관련법 제정이 국회에서 추진되고 있어 권한 밖이고 한방 첩약 급여화는 국민건강보험법에 따라 결정한 사안이라는 겁니다. 윤태호 / 중앙사고수습본부 방역총괄반장 “시범사업을 철회하라는 것은 그간의 논의 경과를 무시하는 것이고, 정부에게 국민건강보험법을 위반하는 것을 요구하는 것입니다.” 다만 의대 정원 확대는  이미 추진을 중단했다고 밝혔습니다. 정부는 전공의 파업으로 병원과 생활치료센터 인력이 부족하자 군 의료인력 20여 명을 투입하는 방안도 검토하고 있습니다. 정부와 의사들이 평행선을 달리는 가운데 한정애 신임 민주당 정책위의장은 오늘 저녁 최대집 의사협회장과 전공의들을 잇따라 만나 중재가 성사될지 관심입니다.  TV조선 황병준입니다."
2,TV조선,"""의대 정원 확대 반대"" 의사들 대규모 집회…집단휴진에 환자 '불편'","           play-rounded-fillplay-rounded-outlineplay-sharp-fillplay-sharp-outline   pause-sharp-outlinepause-sharp-fillpause-rounded-outlinepause-rounded-fill   00:00              ShareTwitterEmbed      ▶  다음 동영상이 곧 재생됩니다. 취소    3분 미리보기가 종료되었습니다. 풀 영상을 감상하시려면 아래의 VOD 구매를 통해 이용하실 수 있습니다. VOD 구매       [앵커]정부의 의대 정원 확대  방침에 반발한 대한의사협회가  예고한 대로 오늘 집단 휴진을 하고 대규모 항의집회를 열었습니다.  개원의 3명 중 1명이 병원문을 닫고 여의도로 집결하는 바람에  이 사실을 모르고 병원을 찾은 환자들의 불편이 적지 않았습니다.  송민선 기자가  보도 보시고 이어서 이번 논란의 쟁점을 자세히 따져봐 드리겠습니다. [리포트]""'덕분에'로 기만 말고 존중부터 실현하라!"" ""실현하라! 실현하라! 실현하라!"" 여의도에 모인 약 2만 명의 의사들은 정부에 의대 정원 확대 방침을 전면 재검토하라고 요구했습니다. 최대집 / 대한의사협회장 ""이 투쟁이 언제 끝날지는 전적으로 정부의 태도에 달려있다는 점을 강조하면서 다시 한번 4대 악 의료정책 철폐를 촉구합니다."" 집회에는 지난주 모였던 전공의들을 포함해 개원의, 의대생 등이 모여 정부의 의대 정원 확대 정책을 비판했습니다. 동네 병·의원 약 3곳 중 1곳이 휴진하면서 상당수 환자들은 헛걸음을 하기도 했습니다.""왜 이렇게 깜깜하죠?"" ""아, 휴진이에요."" 시민 ""문자가 다 있고 그런데. 미리 그런 안내도 안 하고 문을 닫잖아."" 비상진료체계를 가동한 정부는 의사들의 파업에 유감을 나타내고 대화를 거듭 제안했습니다 박능후 / 보건복지부 장관 ""의대 정원 확대 방안은 의사 인력 부족과 지역격차 문제를 해소하기 위해 꼭 필요한 정책이라고 생각합니다."" 하지만 의협은 의대 정원 확대 방침을 정해 놓고 하는 대화는 하지 않겠다며 이달 말 2차 파업을 예고했습니다. TV조선 송민선입니다."
3,TV조선,"與 김성주 ""의사국시 거부 구제 곤란…행동 스스로 책임져야""","국회 보건복지위원회 여당 간사인 김성주 더불어민주당 의원은 오늘(8일) 의대생의 국시 거부에 대한 구제책과 관련해 ""의대생들도 성인이므로 정부 정책에 대한 불만을 다양한 방법으로 표시한 행동에 대해서는 스스로 책임을 져야 한다""고 했다. 김 의원은 이날 CBS라디오 '김현정의 뉴스쇼'와의 인터뷰에서 ""제도의 일관성과 형평성을 유지해야 하는 정부로서도 더 이상 구제책을 내놓기가 곤란한 상황""이라며 이렇게 말했다 김 의원은 ""복지부 얘기를 들어보면 응시를 취소한 학생들에게 개별적으로 전화나 문자를 통해서 본인 의사가 맞는지 확인 과정을 거쳤다고 한다""고 설명했다. 이어 ""의사협회(의협)나 전공의 또는 의대 교수님들이 나서서 학생들 설득을 했어야 한다""며 ""설득을 소홀히 한 것이지 기간이 짧았다고 보지는 않는다""고 말했다. 또 정부의 의대정원 확충과 공공의대 등 공공의료 정책 철회 요구에 대해서는 ""법안을 중심으로 원점에서 재논의하는 것""이라며 ""문제가 있다면 법안 내용을 중심으로 수정 의견을 내서 보완해 서로 합의하면 통과시키는 것""이라고 했다. 그러면서 김 의원은 ""해당 정책에 보완해야 할 점이 있다면 수정하면 된다. 오랜 연구와 토론 끝에 결정한 정책을 철회하라고 하는 것은 어느 정부도 받아들일 수 없는 것""이라고 덧붙였다. / 윤수영 기자"
4,TV조선,"김태년 ""'의료계 파업 해결' 특위 구성 원칙적 합의"" ","김태년 더불어민주당 원내대표 / 연합뉴스여야가 공공의료 확충과 지역의료 격차 해소를 논의하기 위한 국회 특별위원회를 설치하기로 했다. 김태년 더불어민주당 원내대표는 오늘(3일) 국회에서 열린 정책조정회의에서 ""국민의힘 주호영 원내대표와 특위 설치에 원칙적으로 합의했다""며 이같이 말했다. 회의에 참석한 한정애 정책위의장도 ""특위 구성을 통해 의료전달체계 개편, 수렴환경 개편, 지역 가산수가 신설 등 의료체계 개선을 위한 열린 논의를 약속한다""고 밝혔다. 한 정책위의장은 또 보건의료 정책 등 논란이 된 법안들에 대해 ""'원점 검토' 입장은 유효하다""며 ""범투위(범의료계 4대악 저지투쟁 특별위원회)가 국민의 생명을 최우선으로 생각하는 결론이 내려질 것이라고 기대한다""고 말했다. 한편 의사협회를 중심으로 교수, 전공의, 개원의 등 의사 전 직역이 참여하는 범투위는 이날 오후 1시 비공개 회의를 열고 여당의 제안에 대한 협상안을 마련할 예정이다. / 윤수영 기자"
5,TV조선,"정부, 의사 국시 1주일 연기…""전공의 진료현장 돌아와 달라""","김강립 보건복지부 차관이 31일 정부서울청사 브리핑실에서 전공의 의사 국가고시 실기시험 1주일 연기를 발표하고 있다. / 연합뉴스정부가 2021년도 제85회 의사국가시험 실기시험 시작을 하루 앞두고 1주일 연기 방침을 전격 발표했다. 김강립 보건복지부 차관은 31일 브리핑에서 “의대생 피해를 최소화하기 위해 1일 시행 예정이던 의사 국가고시 실기시험을 1주일 연기헤 8일부터 시행한다”고 밝혔다. 이에 따라 시험 일자는 9월 8~25일로 조정되며 9월21일 이후 응시 예정자의 시험일자는 추석 연휴 기간 등으로 인해 10월12일로, 마지막 시험은 11월10일에 실시된다. 정부는 또 의과대학 정원 확대 등 보건의료 정책 추진에 반발하며 무기한 집단휴진을 이어가는 전공의들을 향해 국민을 위해 대승적 결단을 내려달라고 촉구했다. 김 차관은 “코로나19의 전국적 유행 우려가 큰 상황에서 전공의들이 있어야 할 곳은 환자의 곁이라는 사실을 유념해달라”며 이같이 말했다. 이어 그간 논의과정과 문재인 대통령의 입장 등을 언급하며 “국민을 위해 의료인 본연의 사명감을 다하는 자세를 보여 달라”고 당부했다."
6,TV조선,전공의 사직에 교수들도 진료중단…의대생도 단체행동 계속,"정부의 보건의료 정책 추진에 반발하는 전공의들이 집단행동이 계속되는 가운데 사직 결의 등 단체행동도 이어지고 있다. 31일 서울대병원 전공의협의회에 따르면 이날 오전 11시 기준 소속 전공의 953명 중 895명(93.9%), 전임의 281명 중 247명(87.9%)이 업무 중단 및 사직서 제출에 참여했다. 이날 서울대 의대 총학생회에 따르면 서울대 의대 예과 학생 235명, 본과 학생 375명이 지난 28일 휴학계를 제출해 본과 4학년을 제외한 83%가 동맹 휴학에 참여한 것으로 나타났다. 교수들도 단체행동에 나서 서울성모병원 외과 교수 일동은 9월7일 하루 외래진료와 수술을 중단하기로 했고, 중앙대병원 신경외과 교수 9명도 ‘사직 성명서’를 발표해 단체행동에 참여하기로 했다."
7,TV조선,[따져보니] 감정 싸움된 의사 파업…4대 쟁점 다시 보니,"           play-rounded-fillplay-rounded-outlineplay-sharp-fillplay-sharp-outline   pause-sharp-outlinepause-sharp-fillpause-rounded-outlinepause-rounded-fill   00:00              ShareTwitterEmbed      ▶  다음 동영상이 곧 재생됩니다. 취소    3분 미리보기가 종료되었습니다. 풀 영상을 감상하시려면 아래의 VOD 구매를 통해 이용하실 수 있습니다. VOD 구매       [앵커]이렇게 정부와 의료계가 한 치의 양보도 없이 평행선을 달리고 있습니다, 서로간에 감정의 골도 갈수록 깊어지고 있습니다. 단순한 의사수 증원문제로 이러는 것인지 지금부터 쟁점들을 하나씩 따져보겠습니다. 윤슬기 기자, 정부와 의료계가 충돌하는 가장 큰 이유가 뭡니까? [기자]의사협회는 '정부의 4대 의료 정책' 전부를 철회하라고 요구하죠. 의대정원 확대, 공공의대 신설, 한약 탕약 건강보험 시범적용, 원격의료 확대 등인데요. 무엇보다 근본적인 갈등은 적정 의사 수에 대한 양측의 입장차입니다. 정부는 의사수가 OECD 평균보다 낮고 지역 의료격차가 심해, 이를 의사수를 늘려 해결하자는 입장인 반면, 의료계는 의사 밀도같은 다른 통계들을 보면 의료 접근성이 오히려 높다며 의사 증원을 반대하죠. [앵커]그런데 의대에 입학해도 보통 10년 뒤에야 의사가 되니까, 지금 통계보다는 미래의 의료 수요 예측이 더 중요하지 않을까요? [기자]최근 서울의대 홍윤철 교수의 논문에 따르면, 외래 수요량이 가장 많아지는 해는 2043년으로 현재보다 약 1.2배, 입원 수요량은 2059년 정점을 찍어 현재보다 약 2.5배 높을 거란 연구결과가 나왔습니다. 원인은 고령화, 즉 노인 인구가 늘면 질병도 늘어 의료 수요가 급증한다는 거죠. 만약 의대 정원을 계속 동결할 경우 2054년, 부족이 예상되는 의사수는 5만5260명으로 나타났습니다. 이는 현재 의사수의 절반에 해당되는 수치죠. [앵커]고령화 사회에 대비하려면 의사수를 늘리는게 마땅하겠군요? [기자]그런데 의료계는 이렇게 반박합니다. 앞서 국내 외래진료 횟수가 1등이라고 말씀드렸는데요, 의사가 더 많아지면 '과잉진료' 즉 수익을 위해 불필요한 진료가 늘 수 있어 환자 부담이 커질 수 있다는 거죠. 또, 정부가 추진하는 이른바 '지역 의사'들이 10년의 의무 복무를 마친 뒤 수도권에 몰릴 가능성도 제기합니다. 그러면 정부 목표와 달리, 수도권 쏠림현상이 악화될 수 있다고도 주장하죠. [앵커]지역 기피뿐 아니라 비인기과목 기피 현상도 심각한데, 의료계가 생각하는 해결책은 뭡니까? [기자]이런 기피 지역, 비인기 과목에 수가 인상 등의 보상과 유인이 있어야 쏠림현상이 해소될 거란게 의료계의 기본 입장입니다. [앵커]그리고 한의원의 탕약에 의료보험을 적용하는 문제 또 원격 의료 허용 문제도 있는데 이건 어떻습니까? [기자]이 또한 쉬울 것 같진 않습니다. 각각 건강보험 재정 악화, 오진 등을 이유로 의료계가 오래전부터 반대해왔기 때문이죠. [앵커]당장은 코로나 사태가 갈수록 심각해 지는데 국민들이 불안해 하지 않도록 양측이 타협의 지혜를 발휘했으면 좋겠습니다. "
8,TV조선,"국민의당 ""공공의 적은 의사가 아닌 코로나19임을 명심하라""","국민의당은 문재인 대통령이 의사협회 총파업에 대해 ""원칙적 법 집행을 통해 강력히 대처하라""라고 지시한데 대해 ""지금 우리의 공공의 적은 의사가 아닌 코로나19 바이러스임을 명심해야 한다""고 밝혔다. 안혜진 국민의당 대변인은 논평을 통해 ""신종 코로나바이러스 감염증(코로나19) 사태에서 의료 공백 우려가 심각해지고 있는 상황에 국민의 불안감과 한숨은 깊어만 간다""며 이같이 지적했다. 안 대변인은 ""의료계 덕분에 K-방역의 성과를 자랑하기 바빴던 정부가 하필이면 2차 코로나 확산으로 비상사태가 발생한 지금 국민의 생명을 담보로 힘겨루기를 하고 있는지 도무지 이해할 수 없다""며 ""의사들이 자기 밥그릇을 지키기 위해 이기적 파업에 나선 양 마녀사냥하는 식으로 의료진 전체를 공공의 적으로 몰아가는 것은 옳지 않다""고 비판했다. 또 ""코로나 방역의 최일선에 서야 할 의사들이 이 시국에 파업에 나서는 것은 결코 바람직하지 않은 일인 건 분명하다""고 전제한 뒤 ""현 정권이 코로나 위기 상황에 전문 의료관계자들은 물론, 국민들 다수가 공감하지 못하는 졸속 의료 정책들을 충분한 의견 수렴 없이 마구잡이로 밀어 부쳐 갈등을 조장하는 것이 가장 바람직하지 않다""고 지적했다. 안 대변인은 ""국민 다수가 의구심을 갖는 공공의대 신설과 같은 방법으로 의대생 정원을 확대하겠다는 정책 실현이 과연 의사들을 파업으로 내몰면서까지 관철시켜야 할 시급한 사안인가 돌아보기 바란다""고 덧붙였다. / 김수홍 기자"
9,TV조선,"의협, 의대증원·원격의료·첩약급여화 등에 총파업 경고","의사단체가 의대 정원을 늘리는 등 정부의 의료정책에 반발하며 투쟁을 예고했다. 대한의사협회는 지난 11일 경주 코오롱호텔에서 열린 전국광역시도의사회장단협의회에서 정부가 한방첩약의 급여화, 의대 정원 4천명 증원, 공공 의대 신설, 원격의료 등을 추진할 경우 총파업을 포함한 대정부 투쟁에 나서기로 의견을 모았다고 오늘(13일) 밝혔다. 의협은 조만간 전체 회원 대상 설문조사를 거친 뒤 대의원회를 열고 투쟁 수위를 정하기로 했다. 최대집 의협회장은 ""정부가 의료계를 투쟁의 외길로 몰아넣고 있다""며 ""정부 의료정책으로 대한민국 의료시스템의 근간이 붕괴할 것""이라고 말했다. / 황병준 기자"
10,TV조선,"대학병원장들 ""의대생 국시 기회를"" 대국민 사과…정부 ""입장 변함 없다""  ","제자 대신 고개 숙인 주요 대학 의료원장 / 연합뉴스서울대병원 등 4개 대학병원 원장들이 오늘(8일) 오전 대국민 사과 성명을 발표하고 의대생들에게 의사 국가시험 재응시 기회를 달라고 요청했다. 김영훈 고려대의료원장은 정부서울청사에서 발표한 성명을 통해 ""코로나19로 힘든 시기에 의대생이 국시 문제로 국민들에게 심려를 끼친 점에 대해 깊이 사과드린다""고 말했다. 김 원장은 또 ""팬데믹이 언제 종식될지 모르는 엄중한 시기에 환자를 돌볼 2700명의 의사가 배출되지 않는 상황과 이후 5년 간의 파급효과 등에 대한 우려가 크다""고 말했다. 그러면서 ""6년 이상 열심히 학업에 전념한 의대생들이 미래 의사로서 환자 곁을 지킬 수 있도록 한 번만 기회를 허락해 달라""고 호소했다.  병원장들은 성명 발표 직후 전현희 국민권익위원장과 만나 의대생들의 국시 재응시 기회를 거듭 요청했다. 하지만 이창준 보건복지부 보건의료정책관은  ""뒤늦게라도 병원장들이 사과한 것은  다행이라고 생각한다""면서도 ""정부 입장이 달라진 것은 없다""며 선을 그었다.  / 정은혜 기자"
11,TV조선,"정부 ""국민청원 올라왔다고 의사국시 추가기회 양해 구할 수 없어""","이창준 보건복지부 보건의료정책관은 7일 브리핑에서 의사국시 재응시에 대한 정부 입장은 달라진 점이 없다고 밝혔다. 이 정책관은 청와대 국민청원 게시판에 국시 추가기회를 달라는 청원글이 올라온 데 대해 “그로 인해 국민들의 양해를 구할 수 있는 사항은 아닌 것으로 판단한다”고 말했다. 의대생 상당수가 올해 국시에 응시하지 못하면서 발생할 것으로 예상되는 내년도 인턴·공보의 부족문제는 “의료공백이 최소화되도록 운용하는 방안을 검토 중”이라고 밝혔다. 그러면서 공보의 대책으로 배치 기간이나 시설을 검토해 재배치하는 방안, 인턴 대책과 관련해선 대체 인력 활용 방안 등을 제시하며 앞으로 의료계나 지자체 등과 협의해 합리적인 방안을 마련하도록 하겠다“고 강조했다."
12,TV조선,"정부-의료계 갈등 지속…""이미 정책 중단"" vs ""명문화하면 복귀""","의과대학 정원 확대 등을 두고 정부와 의료계 간 갈등이 좀처럼 좁혀지지 않는 양상이다. 윤태호 중앙사고수습본부 방역총괄반장은 1일 브리핑에서 “정부는 이미 어떠한 조건도 걸지 않고 교육부 정원 통보 등 의사 수 확대 정책의 추진을 중단해 둔 상태”라고 밝혔다. 이어 “정부의 양보와 제안에도 불구하고 의사 수 확대 철회라는 요청이 환자들의 생명을 위협하는 집단적인 진료 거부까지 강행할 만큼 중요하고 시급한 것인지 재고해 달라”고 촉구했다. 윤 반장은 또 한방 첩약에 대한 건강보험 시범사업, 공공의대 신설, 국회와의 논의 등을 하나씩 설명하면서 일부 정책은 행정부 권한을 벗어나거나 위법적 권한 행사를 요청하는 것이라고 설명했다. 그러나 전공의들은 정부가 정책을 철회하고 원점에서 재논의하는 내용을 명문화하면 복귀하겠다는 입장이다. 박지현 대한전공의협의회(대전협) 비상대책위원장은 1일 기자회견에서 “환자들에게 돌아갈 수 있도록 네 가지 악법을 부디 철회하고 원점으로부터 재검토해달라”고 밝혔다."
13,TV조선,"의대생, 국시거부·동맹휴학 중단…정부 ""추가시험 검토 필요성 떨어져""","의대생들이 국가고시 거부와 동맹휴학을 중단한다. 의대생을 대표하는 대한의과대학·의학전문대학원 학생협회(의대협)는 오늘(14일) 성명문을 내고 ""보건의료정책 상설감시기구의 발족으로 협회의 목표를 달성했기에 모든 단체행동을 공식적으로 중단한다""고 밝혔다. 의대협은 ""대한의사협회가 정부·여당과 공공의대 및 의대 정원 확대의 원점 재논의 명문화를 이룬 과정은 유감이지만, 이에 대한 우리의 실망보다 더 나은 의료와 국민의 건강이 우선이라 판단했다""며 ""숙의 끝에 선배 의료인과 합심해 의·정 합의문의 성실한 이행을 지켜봐야 한다는 데 뜻을 모았다""고 말했다. 이에 따라 동맹휴학에 나섰던 예과 1학년생~본과 3학년생들은 휴학계를 철회하고 학교로 다시 돌아갈 예정이다. 하지만 본과 4학년들이 국가고시를 다시 볼 수 있을지는 미지수다. 손영래 보건복지부 대변인은 오늘 브리핑에서 ""당사자들이 자유의지로 시험을 거부하는 상황에서 추가시험을 검토할 필요성은 떨어진다고 보고 있다""고 밝혔다. / 송민선 기자"
14,TV조선,"국시 거부 의대생들 ""단체행동 유보""…정부 ""재응시 불가 입장 변함없다""","의대 정원 확대 등 정부의 의료정책에 반대해 의사 국가고시를 거부해 온 의대생들이 단체행동을 유보하기로 했다. 전국 40개 의대·의학전문대학원 본과 4학년 대표 40인은 오늘(13일) 성명서를 통해 ""어제 응시자 대표자 회의 결과 우리는 단체행동을 잠정 유보하기로 했다""고 밝혔다. 이들은 ""정부와 국회가 잘못된 의료정책을 강행하는 순간 재차 단체행동에 나설 것임을 천명한다""며 ""이후 행동 방침에 대해선 추후 논의 후 발표할 예정""이라고 덧붙였다. 이에 대해 정부는 환영한다면서도 재응시 기회에 대해선 선을 그었다. 손영래 보건복지부 대변인은 오늘 정례브리핑에서 ""정부 입장은 이미 밝혀드린 바와 동일하다""며 ""의사협회와 정부, 국회 간 진정성 있는 논의가 개시될 예정이므로 학생분들도 학업 현장으로 복귀해줄 것을 재차 요청한다""고 말했다. / 정은혜 기자"
15,TV조선,"文, 초대 질병관리청장에 정은경·복지부 2차관에 강도태 등 내정 ","왼쭉부터 정은경 질변관리본부장, 강도태 보건복지부 기획조정실장, 김경선 고용노동부 기획조정실장 / 청와대 제공문재인 대통령은 오늘(8일) 12일 출범하는 질병관리청 초대 청장에 정은경 질변관리본부장을 내정했다. 아울러 신설되는 보건복지부 제2차관에는 강도태 보건복지부 기획조정실장을, 여성가족부 차관엔 김경선 고용노동부 기획조정실장을 각각 내정했다. 강민석 청와대 대변인은 오늘(8일) 오후 인사 브리핑을 갖고 이같이 밝혔다. 강 대변인은 정은경 초대 질병관리청장은 우리나라가 코로나19 방역 모범국가로 자리매김하는 데 큰 역할을 했다고 평하며 대한민국 첫 질병관리청장으로 감염병 대응 및 질병관리·예방체계를 한 단계 도약시켜 나갈 것으로 기대한다고 밝혔다. 강 대변인은 또 강도태 보건복지부 제2차관은 보건의료정책에 관한 전문성과 업무 추진력을 인정받아 왔다며 보건의료 분야 첫 전담 차관으로서 공공보건의료 체계 확충, 건강보험 보장성 강화 등의 핵심정책을 책임 있게 추진해 나갈 것으로 기대한다고 말했다. 아울러 김경선 신임 여성가족부 차관은 고용노동부 최초로 여성 기조실장에 오른 정책통으로, 성폭력 대응 강화라는 여성가족부의 중요 현안을 해결하고 성평등 포용사회 실현과 아동·청소년 보호·육성 등의 핵심정책을 원만하게 추진해 나갈 것으로 기대한다고 강 대변인은 밝혔다. 김경선 여성가족부 차관은 오는 9일자로, 정은경 질병관리청장과 강도태 보건복지부 2차관은 오는 12일자로 임명된다. / 신은서 기자"
16,TV조선,"전공의 지도부, 진료복귀 결정후 '총사퇴'…파업사태 '안갯속'","           play-rounded-fillplay-rounded-outlineplay-sharp-fillplay-sharp-outline   pause-sharp-outlinepause-sharp-fillpause-rounded-outlinepause-rounded-fill   00:00              ShareTwitterEmbed      ▶  다음 동영상이 곧 재생됩니다. 취소    3분 미리보기가 종료되었습니다. 풀 영상을 감상하시려면 아래의 VOD 구매를 통해 이용하실 수 있습니다. VOD 구매       [앵커]네, 보셨듯 국시문제가  해결되지 않은  상황에서 내일 병원 복귀를  약속했던 대한전공의협의회 지도부가  총사퇴하면서, 내일 예정대로 대형 병원 진료 정상화가 이뤄질지는 미지숩니다. 대형 병원들마다  진료 복귀를 놓고 이 시간까지 혼란이 이어지고 있는데요. 가톨릭대학교  서울성모병원에  나가 있는 취재기자 연결해서 현재 상황 들어보겠습니다. 송민선 기자. 송 기자가 나가 있는 성모병원은 내일부터 진료에 복귀하는 전공의들이 얼마나 될까요? [기자]네,  제가 나와있는 서울성모병원의 경우 이곳 전공의들은 모두 298명인데요. 이들 가운데 상당수는 내일 진료현장에 복귀하지 않을 것으로 보입니다. 앞서 성모병원 전공의들은  집단행동을 계속하겠다는 성명서를 내기도 했습니다.가톨릭대학교 성모병원을 비롯해 현재 전국의  각 대학병원 전공의들은 내일부터 진료에 복귀할지를 논의하거나 투표로 결정하고 있는 것으로 알려졌습니다. 서울아산병원과 서울대병원, 인하대병원 전공의들의 경우 내일 복귀하겠다고 밝혔습니다. 앞서 대한전공의협의회는 낮에 비상대책위원회를 열고 내일부터 진료에 복귀하기로 결정했습니다. 하지만 일선 전공의들이 정부의 4대 의료정책이 완전히 철회되지 않았고, 국가고시를 거부한 의대생들 구제책도 마련되지 않았다며 지도부의 결정에 반발하고 있습니다. 이들을 설득하지 못한 박지현 비대위원장 등 지도부는 결국 사퇴를 표명한 상태입니다. 박지현 위원장은 ""졸속 합의 이후 하나된  단체행동을 위해  모든 전공의 의견을 반영하지 못한  책임을 느끼고 사퇴한다""고  말했습니다.  이에 따라  새로운 대전협 비대위가 구성돼  파업을 이끌어갈  가능성까지 제기되고 있는데요. 의정 합의에도 불구하고 진료현장의 혼란은 당분간 계속될 전망입니다. 지금까지 서울성모병원에서 TV조선 송민선입니다. "
17,TV조선,"전공의 집단휴진 철회하나…젊은의사 비대위, 비상회의","      ▶  다음 동영상이 곧 재생됩니다. 취소    3분 미리보기가 종료되었습니다. 풀 영상을 감상하시려면 아래의 VOD 구매를 통해 이용하실 수 있습니다. VOD 구매       [앵커]정부와 의사협회가  의료정책을  원점에서 재논의하는 선에서 합의했지만, 젊은 전공의들은 기존 정책을 전면 철회하라며 파업을 풀지 않고 있습니다. 인턴과 레지던트 같은 전공의는 의료현장에서 실핏줄 같은 존재이기 때문에 이번 사태가 제대로 수습되려면 전공의들까지 마음을 풀어야 하는 겁니다. 이들은 오늘 오후 비상회의를 소집해 이 시각 현재까지 향후 대응책을 논의하고 있습니다. 지금 현장에 취재기자가 나가 있는데 연결해서 분위기를 들어보죠. 송민선 기자! [기자]네, 서울시의사회에 나와 있습니다.[앵커] 전공의들이 집단 휴진을 철회하는 방안도 논의하고 있는 겁니까?[기자] 네, 현재 이곳 서울시의사회에는 전국의 의대생과, 전공의 단체인 젊은의사 비대위가  비상대책회의를 열고 있습니다. 말씀하신 집단 휴진 철회 여부를 비롯해 의대생의 국가시험 응시 여부 등 집단행동 향후 방향을 논의 중인데요. 아직까지 결정된 사항은 없습니다.박지현 젊은의사 비대위원장 등 회원들은 오후 5시부터 지금까지 약 2시간여 동안 논의를 이어가고 있습니다. 관건은 집단 휴진을 철회하느냐인데요. 의사집단의 대표 단체인 의협이 파업 중단을 선언한 상황인 만큼 진료현장으로 복귀를 염두에 두고 이 안을 언제 표결에 부칠지를 논의 중인 것으로 보입니다. 어제 대한의사협회와 정부가 합의문에  서명한 것을 두고 젊은의사 비대위는 강력하게 반발하고 있는 상황인데요. 의협 측은 더 이상의 단체행동은 안된다며 파업을 철회하라고 압박하고 있습니다. 보건복지부가 앞서 업무복귀 명령에 따르지 않은 전공의 6명에 대한 고발을 취하하고 국가고시 재신청 기한을 연장한 것도 변수입니다. 비대위가  집단 휴진을 철회하는 대신 다른 방식으로 단체행동을 이어나갈 가능성도 남아 있습니다. 지금까지 서울시의사회에서 TV조선 송민선입니다."
18,TV조선,"文 ""의사 짐 떠맡았다""며 간호사 위로에…""이간질하나"" 비난 쇄도","      ▶  다음 동영상이 곧 재생됩니다. 취소    3분 미리보기가 종료되었습니다. 풀 영상을 감상하시려면 아래의 VOD 구매를 통해 이용하실 수 있습니다. VOD 구매       [앵커]문재인 대통령이 의료계 파업과  관련해 간호사들을  격려한 글을 SNS에 올렸다가 엄청난 비난에 직면했습니다. 비판의 핵심은 의료계를 둘로 나눠 서로 싸움을  붙이느냐는  것이었는데 어떤 내용의 글이었길래 이런 일이  벌어졌는지 김보건 기자가 보도하겠습니다.[리포트]문재인 대통령은 자신의 SNS에 ""장기간 파업하는  의사들의 짐까지 떠맡아야 하는  상황이 얼마나 어려우신가""라며 간호사들을 위로했습니다.폭염에도 방호복을 벗지 못해 쓰러지고 있는 의료진 대부분이 간호사들이라는 사실도 국민은 안다고 했습니다. 짧은 글이지만 분량의 절반 이상이  의사와 간호사를 대조하는 식으로 돼 있습니다. 그간 문 대통령의 SNS엔  평균 2,000개 정도의 댓글이 달렸지만, 이번엔 4시간 만에  1만개 넘는  글이 올라왔습니다.""대통령이 국민을  편가르기 해도 되느냐"", ""국민을 쪼개서  싸우게 만드는 대통령"" 등 비판 글이 상당합니다. 젊은 간호사회는 ""의료인력이 절실히 필요하다면  현재 있는 의료인력부터  확실히 지켜달라""며 정부의 의료정책을 에둘러 비판했습니다. 문 대통령은 간호사들에게 ""가수 아이유가 아이스 조끼를 기부했다""고도 했는데, 아이유의 팬들은 의사들에게도  방호복을 기부한 걸 거론하며 ""순수한 마음으로 기부한 사람을  의사를 비난하는데 이용했다""며  ""실망스럽다""고 비판했습니다. 청와대는 당혹스런 분위깁니다. 청와대 관계자는 ""덕담의 메시지가 오해를 사 아쉽다""고 했습니다. 야당은  강하게 비판했습니다. 김은혜 / 국민의힘 대변인""헌신한 ‘의료진’그 짧은 세 음절마저  ‘의사와 간호사’ 분열의 언어로 가르는 대통령. 다음은 또 누구를 적으로 돌리실 셈입니까"" 하태경 의원은 ""코로나 비상시기에  대통령이 의사와 간호사 사이를 이간질하고 싸움 붙였다""고  비판했습니다.정부 여당이 의사협회와 재협상을 추진하는 시점에 대통령이 의사들을 부정적으로 바라보는 글을 올리면서 협상에 악재가 될 거란 우려도 나옵니다. TV조선 김보건 입니다."
19,TV조선,"의료계, 3일 협상안 논의…정부 ""국회-의료계 논의 결과 기다리는 중""",여당이 보건의료정책에 대한 원점 재검토 방침을 시사하자 의료계가 내부 의견 수렴에 나선다. 대한의사협회는 3일 전공의·전임의·의대생 연합체인 젊은의사 비대위와 협상안을 논의하기로 했다. 전날 더불어민주당 한정애 정책위의장과 최대집 의협 회장과 만남이 진일보했다는 판단에 따른 것이다. 최 회장은 전날 한 의장과 대화를 긍정적으로 본다며 논의가 진전된 것이라고 밝혀 의료계 단일 협상안 도출 전망을 더욱 밝혔다. 이에 대해 정부는 일단 국회와 의료계 논의 결과를 기다리겠다는 입장을 밝혔다. 손영래 보건복지부 대변인은 2일 브리핑에서 “국회와 의사단체들이 진솔하게 얘기를 나누면서 원만한 결과가 있기를 기대한다”며 이같이 밝혔다.
20,TV조선,[따져보니] 의사파업 '치킨 게임' 치닫는 이유는?,"           play-rounded-fillplay-rounded-outlineplay-sharp-fillplay-sharp-outline   pause-sharp-outlinepause-sharp-fillpause-rounded-outlinepause-rounded-fill   00:00              ShareTwitterEmbed      ▶  다음 동영상이 곧 재생됩니다. 취소    3분 미리보기가 종료되었습니다. 풀 영상을 감상하시려면 아래의 VOD 구매를 통해 이용하실 수 있습니다. VOD 구매       [앵커]정부와 의료계 대립이 극단으로 치닫고 있는데 왜 이러한 상황까지 오게 됐는지, 사회정책부 최원영 기자와 함께 따져보겠습니다. 최 기자, 코로나19가 재확산되는 이 엄중한 시기에, 의사들이 가운을 벗는다는 건 그만큼 큰 이유가 있을 거라 생각이 되는데, 그게 도대체 뭡니까? [기자]네 일단 서로 소통이 안됐다는게 제일 큰 이유같습니다. 정부는 이미 2년 전에 공공의대 설립을 포함한 공공보건의료 확대 계획을 마련했습니다. 당시에도 의료계가 반대해 결국 국회까지 갔지만 보류됐는데요. 이후 의료계와 아무런 대화나 논의를 하지 않다가 코로나가 매우 심각한 지금, 다시 이 정책을 꺼내든 것입니다. [앵커]그래서 의료진들은 덕분이라고 하더니, 뒤통수를 쳤다며 배신감을 토로하는거군요? [기자]네, 일부 의료진은 본인들은 학자금 대출까지 받아가며 공부해 의사가 됐는데 재난관리 자원으로 분류하는 등 공공재로 취급하는 것은 인권 침해라며 반발하고 있습니다. [앵커]의사들이 감정까지 상한 상태군요. 그런데도 정부는 대화로 풀자면서도 수련의 10명을 고발하고 추가 고발까지 검토하고 있는 거 같은데요. 처벌을 받게되는 겁니까? [기자]처벌 여부는 법리적인 부분을 좀 따져봐야 합니다. 현행법상 '정당한 사유' 없이 업무개시명령에 불응하면 처벌 대상이 됩니다. 3년 이하의 징역 또는 3000만원 이하의 벌금이 부과되고 면허정지나 취소 등의 행정처분도 가능합니다. 이에 대한전공의협의회는 휴대전화를 끄고 연락을 받지 말라는 단체 지침을 내렸는데요. 업무개시명령 송달을 피하기 위해서입니다. 실제로 지난 2000년 의약분업 파업 당시 대법원은 업무개시명령에 불응한 전 의협 간부 3명에 대해 송달이 제대로 이뤄지지 않았다는 이유로 처벌하지 않았습니다. 명령에 불복할 경우 어떻게 쟁송을 할지 고지가 충분히 됐는지도 따져볼 부분이구요. 하지만 법무부는 ""업무개시명령을 직접 교부받지 않더라도 행정절차법 등 관련 법률에 따라 적법하게 송달할 수 있다""고 반박하고 있어 실제 재판까지 가게 된다면 치열한 법리 다툼이 예상됩니다. [앵커]정부가 대화 없이 밀어붙이듯 추진하는 것 역시, 반발을 살만하지만 어찌됐든 환자를 치료해야하는 사명을 갖고 있기 때문에, 국민들도 무조건 지지하긴 어렵지 않겠습니까? [기자]네, 적어도 국민 절반은 그렇게 보고 있는 거 같습니다. 한 여론조사업체가 전국 성인남녀 500명을 대상으로 정부의 업무개시명령 발동 공감도를 물었더니 절반이 넘는 51%가 적절했다고 답했습니다. 다만 20대의 58%는 일방적 결정이라고 했고 보수층에서는 55.8%가 일방적이었다고 대답했습니다. 그래서인지 의사들도 이 시기에 집단휴진을 한 것에 대해서는 담화문 등을 통해 국민에게 여러 차례 사과하고 이해를 당부하기도 했습니다. 최대집 / 대한의사협회장""여러 가지 불편들을 많은 환자분들이 겪으셨을 겁니다. 그 부분에 대해서는 다시 한 번 송구하다는 말씀을 드립니다.""[앵커]계속 이렇게 가다간 결국 피해는 국민들이 보게 될 텐데요. 파업을 멈추고 코로나가 안정된 이후에 사회적 대화를 통해 정책 추진을 결정하자는 제안이 나오고 있는데 양측의 대승적인 결단이 필요해 보입니다. 최기자 잘 들었습니다."
21,TV조선,"전임의들도 파업 동참…文 ""위법 실력행사에 단호히 대응""","           play-rounded-fillplay-rounded-outlineplay-sharp-fillplay-sharp-outline   pause-sharp-outlinepause-sharp-fillpause-rounded-outlinepause-rounded-fill   00:00              ShareTwitterEmbed      ▶  다음 동영상이 곧 재생됩니다. 취소    3분 미리보기가 종료되었습니다. 풀 영상을 감상하시려면 아래의 VOD 구매를 통해 이용하실 수 있습니다. VOD 구매       [앵커]인턴과 레지던트 등 전공의에 이어, 전임의들도 오늘부터 파업에 들어갔습니다. 코로나19 재확산 위기 속에 의료계 파업 범위가 점점  넓어지고 있어서 특히 대형병원을 중심으로 진료 차질이  빚어지고 있습니다. 정부의 설득에도  불구하고 의사협회는 오는 26일  총파업을 강행하겠다고  밝혔습니다.   권형석 기자입니다. [리포트]서울대 병원 앞입니다. 의대정원 확대 등 정부 의료정책에 반발해 릴레이 1인 시위에 나섰던 전공의에 이어, 일부 전임의도 진료 거부에 돌입했습니다.전임의는 인턴과 레지던트 등 수련과정을 거쳐 전문의 자격증을 딴 의사로, 대형병원내 파업 범위가 점차 넓어지고 있는 셈입니다.오늘 오전부터 서울대병원 등에 소속된 전임의 288명이 파업에 돌입했습니다.필수 인력을 제외한 대부분이 파업을 선언한 겁니다. 장의진 /서울대병원 전임의협의회""선별진료소에도 전임의들 전공의들 나가고 일하고 있어서 그런 인력들은 빼고 진행을 하고 있습니다."" 대형병원에선 일부 환자들의 수술 연기와 진료예약 차질 등 혼선을 빚기도 했습니다. 서울대병원 관계자""응급부문 말고 일반 부문에서 조금씩 딜레이가 생기고 하는 건 맞는 것 같습니다."" 문재인 대통령은 위법한 집단행동이라며 경고했습니다. 문재인 대통령""휴진, 휴업 등의 위법한 집단적 실력 행사에 대해서는 단호하게 대응할 수밖에 없습니다.“ 정세균 국무총리와 박능후 보건복지부 장관은 의협 지도부를 만나 파업 철회를 설득했습니다. 대한의사협회는 현 사태의 심각성에 대해 공감했다면서도, 오는 26일부터 예정된 파업은 강행할 방침입니다. TV조선 권형석입니다."
22,TV조선,"정부 ""의사 국시 1주일 연기""…文 ""의료계와 협의해 추진""","           play-rounded-fillplay-rounded-outlineplay-sharp-fillplay-sharp-outline   pause-sharp-outlinepause-sharp-fillpause-rounded-outlinepause-rounded-fill   00:00              ShareTwitterEmbed      ▶  다음 동영상이 곧 재생됩니다. 취소    3분 미리보기가 종료되었습니다. 풀 영상을 감상하시려면 아래의 VOD 구매를 통해 이용하실 수 있습니다. VOD 구매       [앵커]공공의대 설립과 의사 수 증원에  반대해 의료계가 파업을 이어가고 의대생들은 국가고시를  거부하겠다고 나서자 정부가 의사국가고시를 1주일 연기하기로  했습니다. 그리고  문재인 대통령은 코로나가 진정되면 이번 문제를 의료계와  협의하겠다며 파업 중단을  촉구했습니다.  최원영 기자가 보도합니다.[리포트]정부가 내일부터 시작되는 의사국가시험을 일주일 연기하기로 결정한 배경에는 의료계 원로들이 있었습니다. 수련의들의 집단 진료거부 사태 해결을 위해 대화하는 과정에서 의료계 원로들이 연기를 제안한 겁니다. 김강립 / 보건복지부 차관""정부는 이러한 건의를 수용하여 의사 국가시험을 일주일 연기하기로 결정하였습니다.""응시를 거부한 의대생들이  90%에 달하면서 당장 내년부터  수련의 수급에 차질이 빚어질 수 있다는 점도 고려했습니다. 정부는  취소자들에게 응시를 재신청 하라고 통보하고  수련의들에게는 진료 복귀를 거듭 요청했습니다. 문재인 대통령도 전공의들 설득에  나섰습니다.문재인 대통령""의료계가 제기하는 문제들까지 의료계와 함께 협의할 수 있을 것입니다."" 의대 정원 확대와 공공의대 설립 등의 공공의료 정책을 의료계가 참여하는 협의체를 통해 결정하겠다고 약속한 겁니다. 문 대통령은 의사가 있어야 할 곳은 환자 곁이라며 히포크라테스의 선서를 잊지 말아달라고 당부했습니다. TV조선 최원영입니다."
23,TV조선,"의협 ""의대 증원 밀어붙이면 총파업""…23일 오전 7시 긴급 기자회견","대한의사협회가 총파업 카드를 또 다시 꺼내들었다. 대한의사협회는 오늘(22일) 기자회견을 열고 회원들을 대상으로 의료계가 반대하는 첩약 급여화, 의대 정원 증원, 공공 의대 신설, 원격의료 등 정부 의료정책에 대한 대응책을 물어본 설문조사 결과를 내놓았다. 설문 참여 2만6천809명의 회원 중 42.6%는 정부가 이들 정책을 밀어붙인다면 '전면적인 투쟁 선언과 전국적 집단행동 돌입'으로 대응해야 한다고 답했다. 앞서 의협은 정부에 의료계의 요구안을 전달하고, 정부의 답변에 따라 전국 총파업과 의사면허 반납 투쟁을 불사하겠다고 경고해 왔다. 한편, 당정은 내일(23일) 의과대학 정원 확충 및 공공의대 설립 추진방안을 확정해 발표하기로 했다. 향후 10년 간 의대생 4천명을 추가로 선발하되, 지역 의료기관에서 복무하거나 기피 진료과목에 특화하게 된다는 내용이다. 또 폐교된 서남대 의대 정원 49명을 활용해 전북권에 1곳을 설립하는 것으로 전해졌다. 의협은 당정협의 개최 전인 오전 7시에 국회 정문 앞에서 긴급 기자회견을 할 예정이다. / 정은혜 기자"
24,TV조선,"文대통령 ""의협 파업, 원칙적 법집행 통해 강력 대처하라""","문재인 대통령 / 연합뉴스문재인 대통령은 26일 대한의사협회(의협)의 2차 총파업과 관련해 ""원칙적 법 집행을 통해 강력히 대처하라""고 지시했다. 강민석 청와대 대변인은 이날 브리핑에서 문 대통령이 ""정부는 비상진료계획을 실효성 있게 작동해 의료 공백이 없도록 하고, 의료계와의 대화를 통한 설득 노력도 병행하라""고 지시했다며 이같이 전했다. 코로나19가 수도권을 중심으로 전국적 확산세를 보이는 가운데, 의료 공백 우려가 이어지자 의료계 총파업에 엄정 대응을 지시한 것이다. 청와대는 또 윤창렬 사회수석이 담당해온 의료 현안 태스크포스(TF)를 김상조 정책실장이 직접 맡도록 했다고 밝혔다. 문 대통령은 민주노총의 8·15 종각 집회 참가자 명단 제출 거부와 관련해서도 ""코로나 방역에는 특권이 없다""며 엄정 대응을 주문했다. 강 대변인은 ""'방역에는 차별이 있을 수 없고, 어느 누구도 예외가 있을 수 없다'는 게 문 대통령의 생각""이라며 ""국민의 생명과 안전에 관한 일이기 때문""이라고 말했다. 문 대통령은 또 코로나 사태 장기화로 부모들의 아동 보육 어려움이 가중되는 것과 관련해 ""정부가 최대한 신속하게 긴급돌봄 지원책을 마련하라""고 당부했다. 이와 관련해 ▲ 2학기 긴급돌봄을 위한 예산을 충분히 확보할 것 ▲ 학부모들의 안심감을 높이기 위해 돌봄시설 내 밀집도를 낮출 방안을 찾을 것 ▲ 가족돌봄 휴가를 소진한 직장인들이 유급휴가를 더 사용할 수 있도록 지원책을 검토할 것 등을 지시했다고 강 대변인이 전했다. 이런 가운데, 태풍 '바비'가 북상하는 것과 관련해 문 대통령은 ""피해가 우려되는 현장을 세심히 점검하는 등 대비에 만전을 기해달라""고 주문했다. / 김보건 기자"
25,TV조선,"""의대 정원확대 반대"" 전공의 1만여명 7일 파업…진료차질 우려","[앵커]내일,  대형병원  진료에  어려움을 겪을 수도 있겠습니다.  정부가  의대 정원을  늘려  지역 의사를 양성하겠다는  방침을 내놓자,  의료계는 숫자만  늘린다고  의료 격차를 해결할 순 없다며  반발하고 있습니다.  당장 내일 하루,  중환자실과  응급실 등에  배치된  전국 전공의  1만6천여 명이  파업에  들어갑니다.  파업이  길어지면  진료 차질이 우려됩니다. 정은혜 기자입니다.[리포트]내일 파업에는 전국 250여 개 수련병원의 인턴과 레지던트 1만6000여 명 중 약 80%가 동참할 것으로 보입니다. 수술실과 응급실, 중환자실 등을 비롯해 코로나 방역 인력까지 포함됩니다. 대형병원들은 수술 일정을 조정하고 대체인력을 투입했지만 진료 대기시간이 늘어날 전망입니다. A병원 관계자""icu(중환자실)쪽이 가장 민감하고요. 사고 가능성도 있고 해서….""B병원 관계자""수술이 일부 조금 연기되는 경우가 있습니다.""파업은 일단 내일 하루지만 갈등이 장기화 될 경우 의료공백도 우려됩니다. 의료계는 의사 수만 늘려서는 서울 등 대도시와 지방의 의료격차를 해소할 수 없는데도, 정부가 일방적으로 의대 정원을 늘리려한다며 재검토를 요구하고 있습니다. 김중엽 / 서울대병원 전공의협의회장""포스트 코로나 시대에 어떻게 의료가 바뀔지 모르거든요. 예전 데이터들을 가지고 정책을 졸속으로 진행하는 것 자체가 문제…."" 반면 정부는 자생적으로 늘기 어려운 지역의사와 감염병 등 특수분야 의사 확충을 위해 정원 확대는 꼭 필요하다는 입장입니다. 박능후 / 보건복지부 장관""의대 정원 확충이 국민과 국가를 위해 불가피한 결정이라는 점을 이해해 주시기를….""양측이 평행선을 달리는 가운데 오는 14일에는 의사협회가 파업을 합니다. TV조선 정은혜입니다. "
26,TV조선,"文 ""질병관리청 승격, 감염병 대응체계 획기적 진전"" ","문재인 대통령은 ""질병관리본부의 질병관리청 승격은 우리의 감염병 대응체계에서 획기적 진전""이라고 평가했다. 또 보건 분야 전담 차관 신설에 대해 ""보건위기가 상시화되는 상황에서 공공보건의료 역량을 크게 강화하는 계기가 되리라 기대""한다고 말했다. 문 대통령은 오늘(8일) 오전 청와대에서 주재한 국무회의에서 ""오늘 질병관리본부를 질병관리청으로 승격하고, 보건복지부에 보건 분야 차관을 신설해 복수차관제를 도입하는 직제개편안을 의결""한다며 이같이 밝혔다. 문 대통령은 이 자리에서 ""온 국민의 지지와 성원을 받고 있는 질병관리본부""라고 칭하며, ""질본이 이번 코로나 대응 과정에서 K-방역의 중심 역할을 훌륭하게 수행""했다고 평가했다. 이어 ""신뢰를 바탕으로 독립된 행정기관인 질병관리청으로 승격됨으로써 독립성과 전문성이 대폭 강화된 감염병 총괄기구로 거듭""나게 되었다고 말했다. 문 대통령은 ""질병관리청은 앞으로 감염병 감시부터 조사분석, 위기대응과 예방까지 유기적이며 촘촘한 대응망을 구축할 수 있게 되었""고 ""질병관리청 소속 국립보건연구원 아래 국립감염병연구소를 신설함으로써 감염병에 대한 전 주기 연구개발체계를 구축하게 되었""다고 설명했다. 아울러 ""다섯 개 권역별 질병대응센터를 설치""하여, ""지역의 감염병 대응체계도 강화할 수 있게 되었""다고도 덧붙였다. 문 대통령은 보건복지부에 보건 분야 전담 차관을 신설하는 의미도 크다고 말했다. 신설 차관직 관련, ""건강보험 보장률을 높여나가""고 ""공공의료 인력 수급과 보건의료 인력의 처우개선 기능도 보강되고, 최근 큰 사회적 비용을 초래하고 있는 정신건강에 대한 정책도 강화될 것""이라고 설명했다. 이어 ""빅데이터와 인공지능을 활용한 보건의료 산업을 키우는 정책도 확대해 나갈 것""이라고 밝혔다. 문 대통령은 ""이번 조직 개편으로 우리의 감염병 대응체계와 보건의료 역량이 한 차원 더 높게 발전할 것""이라고 기대했다. 문 대통령은 ""질병관리청을 중심으로 감염병 대응력을 한층 더 강화해""달라며 ""당장은 코로나 재확산의 중대고비를 잘 넘기고 빠른 시일 안에 코로나를 안정적으로, 확실히 통제해 나가길 바""란다고 당부했다. 또 ""보건차관의 역할도 매우 중요""하다며 ""코로나가 안정되는 대로 우리의 보건의료체계를 한 단계 발전시켜 나가는 데 주력해야 할 것""이라고 말했다. 그러면서 ""의정협의체를 통해 의료계와 적극적으로 소통하고, 국회와도 적극 협력, 국민 여론도 폭넓게 수렴해 감염병 전문병원 설립 등 공공의료 확충과 지역 간 의료격차 해소를 비롯해 의료계가 제기하는 문제들까지 국민의 생명과 건강을 보호하기 위한 합리적인 해결방안 마련에 최선을 다해""달라고 주문했다. / 신은서 기자"
27,TV조선,전국 9개 지역에 공공병원·심뇌혈관질환센터 신설…지역우수병원 지정 관리,"공공·민간병원이 없는 거창, 영월, 상주 등 9개 지역에 공공병원이 설립되고 응급·심뇌혈관 등 필수진료가 가능한 중소병원을 지역 우수병원으로 지정해 관리한다. 보건복지부는 오늘 이같은 내용을 포함하는 지역 의료 강화대책을 발표했다. 이번 대책에는 지역심뇌혈관질환센터를 권역별로 설치하고, 지역의료기관·공공병원에 전공의 배정이 확대될 수 있도록 수련환경평가에 지표로 반영하는 방안을 추진하는 내용이 포함됐다. 또 건강보험 재정을 통한 취약지 간호인력 인건비 지원 대상을 58개 군에서 82개 모든 군으로 확대하고, 전국을 70개 지역으로 나눠 필수의료정책을 중진료권 단위로 관리할 방침이다. 현재 지역 내에서 중증질환 입원진료를 받는 비율이 서울 시민은 93%인데 경북도민은 23%에 불과한 것으로 확인돼, 지역의료 공백이 심각한 것으로 드러났다. / 이채림 기자"
28,TV조선,9월 1일 '뉴스 9' 헤드라인,"      ▶  다음 동영상이 곧 재생됩니다. 취소    3분 미리보기가 종료되었습니다. 풀 영상을 감상하시려면 아래의 VOD 구매를 통해 이용하실 수 있습니다. VOD 구매       1. '삼성 불법승계' 의혹을 수사해 온 검찰이 이재용 부회장을 불구속 상태로 재판에 넘겼습니다. 변호인단은 기소 결론을 정해놓고 한 수사라며 승복할 수 없다는 입장을 발표했습니다. 2. 누적 확진지가 2만 명을 넘었습니다. 최근 20여일 동안 5천 명이 넘는 인원이 확진판정을 받으면서 역학조사도, 의료진도, 과부합니다. 3. 전공의와 전임의, 의대생이 연대해 ""정부 정책을 철회하고, 원점 재논의를 명문화하라""고 재차 주장했습니다. 정부는 ""철회 요구 정책 중엔 법을 위반해야 하는 사항이 포함돼 있다""고 했습니다. 4. 일본에 큰 피해를 남긴 태풍 '마이삭'이 매우 강한 태풍으로 발달해 제주도 남쪽 해상으로 접근 중입니다. 내일과 모레 전국에 강한 비바람이 몰아치겠습니다. 5. BTS가 한국 가수 최초로 빌보드 메인 싱글 차트에서 1위에 올랐습니다. 6. 정경두 국방 장관이 추미애 장관 아들이 군 시절 특혜 휴가를 받았다는 의혹에 대해 행정처리가 부적절한 상황이 있었음을 인정했습니다. 야당은 ""추 장관 아들의 상사가 추 장관 보좌관으로부터 휴가 연장을 요구하는 전화를 받았다""고 주장했습니다. 7. 정부가 내년 예산을 올해보다 8.5% 오른 556조으로 편성했습니다. 이로써 국가채무가 1000조원을 돌파하는 시기는 내후년으로 당겨졌습니다."
29,TV조선,"당정청 ""보건연구원, 질병관리청에 존치""…복지부 복수차관제도 확정","더불어민주당과 정부, 청와대는 15일 질병관리본부를 질병관리청으로 승격하고 보건복지부에 보건의료 전담 복수 차관제를 두는 방안을 확정했다. 또 '무늬만 승격' 논란이 일었던 국립보건연구원의 보건복지부 이관을 백지화하고 질병관리청 소속으로 두기로 했다. 당정청은 이날 국회에서 협의회를 열고 이같이 결정했다고 민주당 조정식 정책위의장이 브리핑에서 설명했다. 당정청은 ""보건복지부 소속인 질병관리본부를 차관급 외청인 질병관리청으로 신설, 감염병 재난관리주관기관으로 추가 지정해 독자적 권한을 부여한다""며 ""국립보건연구원은 현행대로 질병관리청 소속 기관으로 존치해 감염병 대응 역량 시너지를 극대화하도록 하겠다""고 했다. 이번 결정에 따라 질병관리청은 예산 편성과 집행, 인사와 조직 운영 등을 독립적으로 수행하게 되고, 감염병 정책 수립과 집행에서도 독자적인 권한을 부여받는다. 당정청은 ""24시간 상황 관리를 통해 감염병 위기 대응을 상시화하고 관련 정보 수집과 빅데이터 분석 등을 통한 전략연구 등 정책 기능을 강화하겠다""며 ""지방자치단체 방역과 지역 단위 질병관리 기능을 지원하는 권역별 질병대응센터를 구축하는 한편 현장 중심의 감염병 대응 역량도 강화하겠다""고 강조했다. 국립보건연구원을 질병관리청 소속으로 유지하기로 한 것에 대해선 ""연구원 소속 감염병연구센터를 국립감염병연구소로 확대 개편할 것""이라며 ""감염병 감시부터 치료제와 백신개발, 민간시장 상용화 지원까지 전 과정을 질병관리청이 주관한다는 의미""라고 설명했다. 또 복지부 조직과 관련해 ""복수 차관을 둬 1차관은 복지, 신설되는 2차관은 보건의료를 각각 담당하도록 한다""며 ""분야별 정책 결정의 전문성이 강화할 것으로 기대된다""고 말했다. 조 정책위의장은 ""당은 애초 정부가 발표한 조직개편 입법예고안 중 일부 내용에 대해 국민과 전문가의 이견이 있음을 경청, 이를 해소할 수 있는 방안을 반영토록 했다""며 ""이 내용을 반영해 만든 정부조직법 개정안을 국무회의를 거쳐 금주 중 국회에 제출해 최우선 처리하고자 한다""고 예고했다."
30,TV조선,"유턴기업 7년간 80개…""대부분 중소기업, 성과 미흡""","해외 진출기업의 국내 복귀를 돕는 법률 이른바 '유턴법'의 성과가 미흡하다는 평가가 나왔다. 산업연구원은 6일 '우리나라 유턴 기업의 실태와 개선 방향' 보고서를 통해 2013년 국내 '해외 진출기업의 국내복귀 지원에 관한 법률' (유턴법) 시행 이후 유턴한 기업은 대부분 중소기업이라며 이 같이 밝혔다. 지난 2013년 국내 기업 유턴법 시행 이후 유턴 기업으로 선정된 기업은 총 80개인 것으로 집계됐다. 대부분 전기전자, 주얼리, 자동차 업종으로 중국에 진출했던 중소기업이었다. 유턴 기업의 총 투자 규모는 1조1103억원, 고용 규모는 2,967명으로 집계됐다. 산업연구원은 유턴 정책이 성공하려면 보편적 정책이 아니라 업종별 차등화 정책이 필요하다고 지적했다. 연구원은 ""소재·부품·장비 산업, 고위기술산업, 의료 및 안보 관련 산업 등 경제 파급효과와 국가 전략상 핵심산업을 타깃으로 선정해 지원을 확대하는 전략을 펼쳐야 한다""고 밝혔다. / 이정연 기자"
31,TV조선,"文 ""의협 파업, 법집행 통해 강력 대처""…丁 총리 ""최대한 제재""","           play-rounded-fillplay-rounded-outlineplay-sharp-fillplay-sharp-outline   pause-sharp-outlinepause-sharp-fillpause-rounded-outlinepause-rounded-fill   00:00              ShareTwitterEmbed      ▶  다음 동영상이 곧 재생됩니다. 취소    3분 미리보기가 종료되었습니다. 풀 영상을 감상하시려면 아래의 VOD 구매를 통해 이용하실 수 있습니다. VOD 구매       [앵커]의사파업에 대해 문재인 대통령은 원칙적 법집행을 통한 강력한 대처를  주문했습니다.   업무 개시명령을 위반한 의사에 대해서는 면허 취소까지도 가능합니다.   정세균 총리는 최대한의 제재 조치라는 표현으로 의사협회를 압박했습니다.   정부와 의사협회의 갈등이 쉬 가라앉을 분위기가 아닙니다.   신은서 기자가 취재했습니다. [리포트]문재인 대통령은 원칙적인 법집행을 강조하며 엄정 대응을 지시했습니다. 강민석 /  청와대 대변인""(文 대통령은) 원칙적인 법집행을 통해 강력하게 대처하라고 지시했습니다."" 정부가 발동한 업무개시명령 위반시 법상 가능 제재인 면허취소와 벌금형 등의 조치를 시사한 겁니다.문 대통령 / 대통령 주재 수석보좌관회의 (지난 24일, 청와대)""위법한 집단적 실력 행사에 대해서는 단호하게 대응할 수밖에 없습니다."" 청와대는 의료현안 대응팀 총괄을 사회수석에서 정책실장으로 격상시키는 비상관리 체제에도 들어갔습니다.정세균 총리도 범정부 긴급대책회의를 소집해 전공의와 의사협회에 대한 최대한의 제재조치를 경고했고, 관계부처는 곧바로 협의에 들어갔습니다. 정세균 / 국무총리""법이 허용하는 최대한의 제재조치를 신속하게 단행하겠습니다."" 정 총리는 또 개원의 휴진 참여율이 일정 수준 이상 올라갈 경우 개원의에 대해서도 업무개시명령을 내리겠다고 했습니다. TV조선 신은서입니다. "
32,TV조선,"文 ""지금 못 막으면 3단계 불가피…의료계 집단 실력행사에 단호 대응""","문재인 대통령이 24일 오후 청와대에서 수석·보좌관 회의를 주재하고 있다 / 연합뉴스문재인 대통령은 최근 코로나19 확산세와 관련해 ""지금 단계에서 막아내지 못한다면 사회적 거리두기 3단계로 격상될 수 밖에 없다""며 방역에 협조해 줄 것을 당부했다. 문 대통령은 이날 오후 청와대에서 주재한 수석·보좌관 회의에서 ""지금이 코로나19가 발생한 이후 최대위기""이자 ""신천지 상황보다 훨씬 엄중한 비상 상황""이라며 이같이 밝혔다. 문 대통령은 ""비상 상황을 타개해 나가는 힘은 방역의 주체인 국민에게 있""다며 ""거리두기 2단계에 따른 방역수칙을 준수""해달라고 당부했다. 이어 ""3단계 격상은 결코 쉽게 말할 수 있는 선택이 아니다. 실로 막대한 경제 타격을 감내해야 한다""며 ""의료체계까지 무너질 수 있다. 최악의 상황까지 가지 않도록 모두가 힘을 모아주시길 바란다""고 말했다. 문 대통령은 특히 ""일각에서 국가의 방역 체계에 도전하며 방역을 노골적으로 방해하거나 협조를 거부하는 행위가 확산의 온상이 되고 있다""며 ""국민의 생명과 안전을 해치는 불법행위를 좌시하지 않겠다""고 강조했다. 그러면서 ""어떤 종교적 자유도, 집회의 자유도, 표현의 자유도 국민들에게 엄청난 피해를 입히면서까지 주장할 수는 없을 것""이라며 ""국민 안전과 공공의 안녕을 지키기 위한 수단으로서 공권력의 엄정함을 분명하게 세우겠다""고 목소리를 높였다. 문 대통령은 정부의 의대 정원 확대, 공공의대 설립 등 정책에 반발해 파업을 예고한 의료계를 향해선 ""국민의 생명을 담보로하는 집단행동은 결코 지지를 받을 수 없다""며 ""휴진, 휴업 등의 위법한 집단적 실력 행사에 대해서는 단호하게 대응할 수밖에 없다""고 경고했다. 그러면서 ""공공의료 확충은 우리 사회가 가야할 방향이라는데 의문의 여지가 없다""고 일축했다. / 김보건 기자"
33,TV조선,"安 ""정부, 전투 중 장수 뒤에서 짱돌 던져…국민-의료진 이간질""","국민의당 안철수 대표가 24일 오전 서울 여의도 국회에서 열린 최고위원회의에서 발언하고 있다. / 연합뉴스안철수 국민의당 대표가 의과대학 정원 확대를 추진하고 있는 정부를 향해 ""전형적인 억압 행정이고 불통 행정""이라고 강하게 비판했다. 의사 출신인 안 대표는 의사협회의 총파업 대응에 대해서도 ""정부가 잘못하고, 언론이 매도해도, 히포크라테스 선서를 한 우리는 생명을 살려야 한다""며 아쉬움을 표했다. 안 대표는 오늘 오전 국회에서 열린 최고위원회의에 참석해 ""코로나19 위기 속에 혼신의 힘을 다하는 의사들을 독려해도 모자랄 판에 의사들과 소통 노력도 없이 공청회도 없이 정책을 밀어붙이고 있다""며 ""전투가 한창인 상황에서, 장수들 등 뒤에서 도와주기는커녕 '짱돌'을 던지는 게 아니냐""고 지적했다. 안 대표는 ""이런 발상과 접근은 도대체 누구 머리에서 나온 것이냐""면서 ""국가 의료체계의 큰 변화를 가져오는 정책을 제대로 된 공청회나 당사자들의 충분한 의견수렴도 없이 밀어붙이고, 반발하면 면허정지니 행정명령이니 윽박지르고 있다""고 밝혔다. 또 ""직접 30도가 넘는 무더위 속에 방호복을 입고 바이러스와 싸울 수 없다면, 국민과 의료진을 이간질시킬 수 있는 이적행위를 당장 중단하기 바란다""고 비판했다. 안 대표는 다만 ""이 문제를 대하는 의료계에도 아쉬움이 남는다""며 발언을 이어갔다. ""온 국민이 불안해하고, 고통받는 상황에서, 믿을 데라고는 의료진밖에 없는 현실에서, 의사들이 의사 가운을 벗고 청진기를 내려놓는다면, 힘없고 불안한 대다수 서민들은 누구를 의지해야 하냐""는 것이다. 안 대표는 코로나가 진정될 때까지 총파업을 자제해달라고 호소하며 ""의사면허는 그 어떤 경우에도 세상에서 가장 소중한 인간의 생명을 살리라고 부여된 소중한 자격""이라고 강조했다. 끝으로 안 대표는 문재인 대통령을 향해 ""장관과 참모들 좀 제대로 쓰시라""면서 ""복지부 장관은 문제를 풀 의지도 능력도 없어 보인다""고 지적했다. / 김수홍 기자"
34,TV조선,"법무부, 구금시설 수용자 건강권 증진 개선안 마련…인권위 권고 수용  ","구금시설 수용자의 건강권 증진을 위한 지원이 강화될 전망이다. 오늘 국가인권위원회에 따르면 법무부는 구금시설 의료정책을 개선하라는 인권위의 권고를 받아들여, 공중보건의 충원, 공공의료시설 내 수용자 병동 설치 등을 추진하기로 했다. 이런 내용은 법무부의 수용자 건강권 개선안에 담겼다. 앞서 인권위는 지난해 8월 법무부에 구금시설 의료정책 개선을 권고했다. 또 정기 건강검진 항목을 확대하고 여성과 저소득층, 정신질환자, 중증질환자 등 취약 수용자를 위한 적극적인 조치를 법무부에 주문했다. 인권위에 따르면 법무부는 수용자 1차 진료 강화를 위해 올해 공중보건의를 55명에서 71명으로 늘렸고, 의무관 순회 진료를 확대했다. 또 체계적 진료 관리를 위해 전자 의무기록 세부입력을 더 철저히 하기로 했다. 의무관 충원을 위해 인사혁신처와 의무관 처우 개선방안을, 보건복지부와는 의료인력 확대를 협의했으며 의무관 숙직제도 및 응급환자 대응 체계도 구축했다. 올해부터 수용자 건강검진에 B·C형 간염을 추가하는 등 검진 항목도 늘렸다. 다만 구금시설 과밀 수용으로 인한 건강권 침해 최소화 방안 마련 권고안은 법무부가 별도로 검토해 회신하기로 했다. / 임서인 기자"
35,TV조선,"文, 정은경 초대 질병관리청장 직접 찾아가 임명장…""K-방역의 영웅""","문재인 대통령이 오늘(11일) 오전 충북 청주 질병관리본부 긴급상황센터를 찾아 정은경 신임 질병관리청장에게 임명장을 수여했다. 문 대통령이 장·차관에 대한 임명장을 청와대 밖에서 수여한 것은 이번이 처음이다. 청와대 관계자는 ""전쟁 중에 야전사령관을 불러 임명장을 주는 것이 아닌 직접 가서 임명장을 드리는 것이기 때문에 초대 청장에 대한 신뢰와 기대 의미를 갖고 있다""고 말했다. 이번 수여식은 오는 12일 질병관리청 공식 출범에 앞서 진행됐다. 문 대통령은 임명장 수여식에서 ""'질본'이라는 말은 우리 국민이 가장 신뢰하는 애칭이 되었""다며 ""세계에서 모범으로 인정받은 K-방역의 영웅, 정은경 본부장님이 승격되는 질병관리청의 초대 청장으로 임명된 데 축하 말씀 드""린다고 말했다. 이어 ""질본이 청으로 승격된 사실 그 자체, 또 초대 청장의 임명식을, 주인공이라고 할 수 있는 질본 여러분들과 함께 갖는 자체가 대통령과 국민들이 여러분들께 보내는 최고의 감사며 격려 뜻이 담겨 있는 것이라고 여겨 주시기 바""란다며 격려했다. 또 ""우리가 코로나와 언제까지 함께 해야 할지 모르겠다""며 ""청으로 승격을 되는 것을 계기로 해서 더 큰 역할을 해주시기 바""라고 ""우리 국민을 정상적인 일상으로 되돌아갈 수 있도록 최선을 다해""달라고 당부했다. 민방위 복장으로 참석한 정 신임 청장은 ""질병관리청 출범은 신종 감염병에 대해 체계적이고 선제적으로 대응하라는 국민의 뜻""이라며 ""우리의 존재 이유를 잊지 않겠다. 코로나19의 극복과 감염병 컨트롤 타워로서 역할을 충실히 하겠다""고 말했다. 문 대통령은 '건강한 국민, 안전한 사회'라는 문구가 새겨진 축하패를 권준욱 국립보견연구원장에게 건넸고, 직원 대표에게는 꽃다발을 선물했다. 문 대통령이 장관급이 아닌 차관급에게 임명장을 수여한 건 지난 3월 김홍희 해양경찰청장, 5월 유연상 경호처장에 이어 이번이 세 번째이다. 그동안 장관급에게는 대통령이 임명장을 줬지만 차관급은 보통 국무총리가 대신 전달했다. 임명장 수여식이 끝난 후 문 대통령은 정부세종청사로 이동해 코로나19 중앙사고수습본부(중수본)를 찾았다. 문 대통령은 중수본 총괄책임자인 노홍인 보건복지부 보건의료정책실장으로부터 현황 보고를 받고 직원들의 노고와 헌신을 위로하며 홍삼 제품을 선물했다. 이날 문 대통령이 가진 중수본 직원들과의 간담회에서 한 참석자는 동료 직원의 일화를 소개했다. 4개월 동안 한 하루도 쉬지 못한 동료 직원이 부친상을 당해 그제부터 출근을 하지 않고 있는데, 이 직원은 ""방역에 모범을 보여야 하지 않느냐""며 조문객도 사절했다는 사연이다. 문 대통령은 ""중수본을 이번처럼 대규모로 꾸리고 오랫동안 역할을 맡긴 것은 처음인 것 같""다며 ""혹시라도 지치게 되면 자기 자신에게 격려해주고 서로 격려해주고, 국민들께서 지치지 않도록 이끌어"" 달라고 당부했다. / 신은서 기자"
36,TV조선,"경총 ""코로나19 내년까지 가면 실업자 27만명 증가"" ","코로나19 사태가 내년 말까지 이어질 경우 국내 실업자가 지금보다 26만8000명 늘어난다는 전망이 나왔다. 한국경영자총협회는 25일 현대경제연구원에 의뢰해 작성한 코로나19 위기 극복을 위한 정책방향 보고서에서 이같이 밝혔다. 연구원은 보고서에서 코로나19 확산세와 경제활동 재개 시점 등을 기준으로 3가지 시나리오를 만들어 실업과 잠재성장률을 추정했다. 연말에 코로나19 확산세가 안정되고 내년에 대부분 경제활동이 재개되는 시나리오 2에서는 실업률이 지금보다 0.48%포인트 상승하고 실업자는 13만5000명 늘어날 것으로 추정됐다. 코로나19 영향이 내년에도 계속되는 시나리오 3에서는 실업률은 0.95%포인트 상승, 실업자는 26만8000명 증가로 분석됐다. 보고서는 코로나19로 인해서 구직활동을 포기하는 경제주체가 늘어나고, 정부 공공 일자리는 증가하고 있다고 진단했다. 코로나19가 내년까지 지속되면 잠재성장률은 2021∼2035년에 종전 전망치보다 0.1∼0.2%포인트 더 낮아져 1.5%로 떨어질 것으로 내다봤다. 경총은 ""우리 경제의 기초 체력, 기업 경쟁력, 경영환경을 고려하면 코로나19 이후 민간부문의 좋은 일자리 회복이 쉽지 않을 것으로 예상된다""고 말했다. 경총은 ""미증유 위기를 극복하고 지속성장을 하기 위해 민간 중심의 성장 활력 제고, 생산적 분배 시스템 구축, 지속 가능한 재정기반 확충을 3대 정책방향으로 잡아야 한다""고 제시했다. 구체적인 정책으로는 유동성 공급 확대, 유연근무제 보완 입법, 원격 의료 허용 등을 성장활력 제고 방안으로 들었다. / 임유진 기자"
37,TV조선,"'사무장 병원' 의심 41곳 적발…""부동산업자 등이 의사 고용해 운영""","      ▶  다음 동영상이 곧 재생됩니다. 취소    3분 미리보기가 종료되었습니다. 풀 영상을 감상하시려면 아래의 VOD 구매를 통해 이용하실 수 있습니다. VOD 구매       [앵커]의료인이  아닌 사람이 의사를 고용해 운영하는 병원을 이른바  '사무장병원'이라고 하죠. 수익을 내기 위해 과잉 진료를  하기 때문에 법적으로  금지돼 있는데,  약품 판매업체와  부동산업자 등이 운영하는 것으로  의심되는 사무장병원 41곳이  무더기 적발됐습니다.  이런 병원에선 어떤 식의  의료행위가 이뤄지는지, 최원영 기자  리포트 보시죠.[리포트]서울의 한 한의원,""진료 볼 수 있을까요? (잠시만요)"" 여느 한의원과 비슷합니다. 하지만 설립자가 한의사가 아니라 한약품 판매회사인 것으로 의심받고 있습니다.""저희는 약 전문 한의원이라 치료시설은 미비하거든요""의료인이 아닌 자가 영리를 목적으로 병의원을 개설하는 것은 불법입니다.보건당국은 같은 업체가 서울에만 모두 3곳의 한의원을 차려놓고 한의사를 고용해 운영하면서 한약품 판매 수익을 챙긴 것으로 보고 있습니다. 대전의 이 메디컬빌딩은 한 부동산 임대업자가 자신의 의사 친구 등을 고용해 운영한 혐의를 받고 있습니다. 국민권익위원회는 보건복지부, 국민건강보험공단과 함께 지난해 사무장병원으로 의심되는 41곳을 적발해 경찰에 수사 의뢰했습니다.오창현 / 보건복지부 의료기관정책과장""정상적인 기관에 비해서 과잉진료를 하게 되고 또 의료서비스 질도 낮아지는 그런 불합리한 경우들이 있습니다.""보건당국은 경찰 수사 결과 사무장병원으로 확인되면 설립을 취소하고 이들에게 지급한 건강보험 요양급여비 등 3천2백여억 원도 환수할 예정입니다. TV조선 최원영입니다."
38,TV조선,"치과의사 5천명 참가 행사 강행…서울시 ""감염 발생땐 구상권 청구""","           play-rounded-fillplay-rounded-outlineplay-sharp-fillplay-sharp-outline   pause-sharp-outlinepause-sharp-fillpause-rounded-outlinepause-rounded-fill   00:00              ShareTwitterEmbed      ▶  다음 동영상이 곧 재생됩니다. 취소    3분 미리보기가 종료되었습니다. 풀 영상을 감상하시려면 아래의 VOD 구매를 통해 이용하실 수 있습니다. VOD 구매       [앵커]앞서 보셨듯 코로나  전국 확산 우려도 제기되는 상황인데.. 치과의사 5천명이 참가할 것으로  예상되는 행사가 오늘부터  사흘간의 일정으로 시작됐습니다. 다른 사람도 아니고, 의사회가  주최인 행사여서 논란을 더 합니다. 서울시는 만약 환진자가  발생하면 치료와 방역 등 모든 비용을 청구하겠다는 입장입니다. 신유만 기자가 취재했습니다. [리포트]서울 강남구 코엑스의 한 행사장입니다. 방문자들은 체온 측정과 에어샤워기를 통과해야 입장할 수 있습니다. 치과의사 5500명 가량 참가가 예상되는 서울국제치과기자재전시회 출입구 모습입니다. 정부와 서울시의 대규모 행사 자제와 거듭된 연기 요청에도 불구하고 행사를 강행한 겁니다. 서울시는 어제 '집합제한명령'까지 내렸습니다. 하지만 서울시치과의사회는 KF94 이상 등급의 마스크 착용자만 입장시키고 손 소독제를 비치하는 등 방역수칙을 세웠다고 밝히며 행사 개최에 문제가 없다고 주장했습니다. 이상구 / 서울시치과의사회 홍보본부장""저희가 준비한 고강도의 방역을 바탕으로 더욱 더 촘촘한 방역망을 완성하기 위한 노력을 해 왔습니다."" 서울시는 행사 강행에 확진자가 나올 경우 구상권 청구 방침을 밝히며 맞불을 놨습니다. 서울시와 강남구는 공무원 30명을 동원해 현장을 점검했습니다.박유미 / 서울시 보건의료정책과장""마스크 착용, 그리고 사람들이 모여 있지 않도록 하는 그 자체에 대해서 저희가 집중적으로 점검을 할 계획입니다."" 코로나19 확산 우려속에서 강남 한복판에 5천명이 넘는 치과의사가 대거 모이는 행사 개최를 두고 걱정스런 시선이 쏠리고 있습니다. TV조선 신유만입니다. "
39,TV조선,학원강사 태웠던 택시기사 부부 확진…접촉자 143명 이상,"           play-rounded-fillplay-rounded-outlineplay-sharp-fillplay-sharp-outline   pause-sharp-outlinepause-sharp-fillpause-rounded-outlinepause-rounded-fill   00:00              ShareTwitterEmbed      ▶  다음 동영상이 곧 재생됩니다. 취소    3분 미리보기가 종료되었습니다. 풀 영상을 감상하시려면 아래의 VOD 구매를 통해 이용하실 수 있습니다. VOD 구매       [앵커]직업과 동선을 숨긴 인천 학원강사 관련 확진자도 계속되고 있습니다. 이 강사를 태웠던 택시기사와 아내도 확진 판정을 받았습니다. 지금까지 파악한 이 택시기사의 승객이 150명에 육박하는 상황이어서.. 추가 감염을 걱정하지 않을 수 없습니다. 강석 기자입니다. [리포트]택시기사 66살 A씨는 지난 4일 학원강사 B씨를 태웠습니다. 이태원 클럽을 다녀온 뒤 역학 조사에서 직업을 속인 확진자입니다. 택시기사 A씨는 지난 16일 의심 증상을 보였고 어제 확진 판정 받았습니다. A씨와 B씨는 택시 안에서 모두 마스크를 썼지만, 방역당국은 택시 안에서 전파된 것으로 보고 있습니다. 김혜경 / 인천시 보건의료정책과장“손도 만졌다 이것도 내렸다 하면 마스크가 허점이 보이는 것 같습니다. 완벽하게 했더라도...” 택시기사의 아내도 오늘 확진 판정을 받았습니다. 택시기사 A씨는 학원강사를 태운 이후 8일 동안 운행한 것으로 조사됐습니다. 이 기간 카드로 결제한 승객만 143명입니다. 현금 결재나 동승자는 아직 확인되지 않았습니다. 인천시 조사 결과, 학원강사 B씨는 지난 2일부터 일주일 동안 13차례 택시를 탄 것으로 드러났습니다. 박규웅 / 인천시 건강체육국장 ""13명의 기사 분에 대해서 전부 코로나19 검사 결과 13명 중에서 12명이 음성 나왔고..."" 택시 업계는 비상이 걸렸습니다. 조한욱 / 택시기사 “항상 위험을 전제하는거고, 간혹 가다 손님도 불안해하는 경우도 있고 그렇죠.” 직업을 숨긴 학원강사 관련 확진자는 학생 10명을 포함해 모두 17명으로 늘었습니다. TV조선 강석입니다."
40,TV조선,국립대학병원협회 “정부의 의사인력 확충계획 공감”,"국립대학병원협회가 24일 정부의 의과대학 입학정원 증원 등 의사 인력 확충계획에 대해 전체적인 정책 방향에 공감한다는 공식 입장을 냈다. 국립대학병원협회는 “고령화에 따른 만성질환 증가, 지역별 의료체계 구축 필요, 재난 상황 대비, 의학 연구 역량 확보 필요 등으로 의사 수요는 계속 증가하고 있다”며 이같이 밝혔다. 다만 협회는 “의사인력 부족 문제는 배출 의사 수의 절대적 부족이라는 원인 말고도 지역 간 의사와 병원의 분포 불균형 등으로 발생한다는 점도 귀 기울여야 한다”며 관련 제도 정비를 촉구했다. 정부는 전날 2022학년도부터 10년간 한시적으로 의과대학 정원을 늘려 총 4000명의 의사 인력을 추가로 양성하고, 이 가운데 3000명을 지역 의사로 지정하는 방안을 추진하겠다고 밝힌 바 있다. 국립대학병원협회는 강원대학교병원, 경북대학교병원, 경상대학교병원, 부산대학교병원, 서울대학교병원, 전남대학교병원, 전북대학교병원, 제주대학교병원, 충남대학교병원, 충북대학교병원(가나다순) 등 국립 의과대학 병원으로 이뤄진 조직이다."
41,TV조선,"국민의힘 ""코로나19 항체보유율, 전국 표본조사해야"""," / 국민의힘 제공국민의힘 '코로나19대책 특별위원회'가 코로나19 항체보유율 전국 표본조사 실시가 필요하다는데 뜻을 모으고 정부에 요청하기로 했다. 국민의힘 코로나 특위는 7일 오후 1차 회의를 열고 ""코로나19가 발생한지 8개월이 지나고 있지만 지역사회 감염 여부에 대한 정확한 조사가 이뤄지지 않고 있다""고 지적했다. ""2만~2만 5천 명 규모로 샘플링하여 항체보유율을 조사해야 하는 것은 향후 대응 대책 마련의 기본""이라며 정부에 관련 내용을 촉구하기로 했다. 이날 회의는 비대면으로 개최됐으며 김종인 비대위원장과 주호영 원내대표 등 총 20명이 참석했다.  / 국민의힘 제공김종인 비상대책위원장은 회의에서 ""정부가 확진자수만 강조해 언론에 공개하고 일일 검사수, 확진율은 같이 강조하고 있지 않다""고 강조했다. 김 위원장은 ""정부가 코로나마저 정치적으로 악용하기 위해 종교 등 특정 집단에 책임을 전가하며 편 가르기하고 있는데 이러한 행위는 중단되어야 한다""고 말했다. 그러면서 ""감염 경로를 알 수 없는 무증상자 관리가 코로나 극복의 최대 과제라는 점""이라며 ""정부의 보다 투명하고 자세한 정보공개가 있어야 정책에 대한 신뢰가 회복되고 국민 협조도 이뤄지게 될 것""이라고 당부했다. 주호영 원내대표는 ""국민들은 이제 어딜 가든 출입 명부를 작성하는 등 방역에 대한 협조를 잘하는데, 정부가 이를 당연시하며 때로는 국민들에게 방역 책임을 돌리고 있다""고 지적했다.주 원내대표는 ""신속진단키트 사용 관련 검토 등에서도 특위에서 전문가들과 함께 논의가 있었으면 좋겠다""고 말했다. 오후 2시부터 2시간 넘게 진행된 이날 온라인 회의에서 특위 위원들은 ▲가을 겨울 대유행 대비 코로나 대응 전략 ▲ 사회·경제적 대책 ▲긴급재난지원에 대한 선별 대상과 범위 ▲치료제와 백신 개발 관련 대책 ▲신속 진단 키트 관련 ▲의료 인력, 병상 확보 및 방역물자 관련 등에 대해 논의했다. 신상진 코로나19 특위 위원장은 ""코로나 상황이 장기화되는 만큼 중장기적 감염병 방역 대책, 취약계층 지원대책, 경제·사회문화 등 모든 영역에서의 피해 최소화 대책에 대해 살펴보겠다""고 말했다. / 홍연주 기자"
42,TV조선,9월 7일 '뉴스 9' 헤드라인 ,"           play-rounded-fillplay-rounded-outlineplay-sharp-fillplay-sharp-outline   pause-sharp-outlinepause-sharp-fillpause-rounded-outlinepause-rounded-fill   00:00              ShareTwitterEmbed      ▶  다음 동영상이 곧 재생됩니다. 취소    3분 미리보기가 종료되었습니다. 풀 영상을 감상하시려면 아래의 VOD 구매를 통해 이용하실 수 있습니다. VOD 구매       1. 송영무 전 국방부 장관실 관계자가 민주당 출신 정책 보좌관으로부터 ""추미애 장관 아들의 평창올림픽 통역병 선발 청탁 전화를 받았다""고 TV조선에 증언했습니다. 당사자는 ""해당 부대에 연락한 적 없다""는 입장입니다. 2. 추미애 장관이 지난 2017년 외통위원 당시, 자신의 딸 프랑스 비자 관련 민원을 보좌관을 통해 프랑스 주재 한국대사관에 전달한 것으로 확인됐습니다. 3. 태풍 '하이선'으로 거제에선 아파트 앞 산이 무너져 아파트 1층이 묻히는가 하면 부산에선 탑차가, 울산에선 승용차가 전도됐습니다. 10m높이 파도는 마을을 삼켜버렸습니다. 4. 내일부터 대형 병원의 진료가 정상화될 것으로 보입니다. 다만 대한전공의협의회 지도부가 총사퇴하는가 하면, 의대생 86%가 내일 예정된 국가고시를 거부하고 있어 정부와 의료계간 갈등의 불씨는 남았습니다. 5. 정은경 본부장이 ""신규 확진자 수가 5일째 100명대를 나타내고 있지만 '확산세가 진정됐다'고 단정할 수 없다""고 진단했습니다. 6. 문재인 대통령이 2차 재난지원금 선별 지급 원칙을 언급하면서 ""현실적으로 재정상 어려움이 크다""고 했습니다. 7. 국내 수입차 1위 벤츠에서 시동꺼짐이 계속되고 있습니다. 특정 모델에 국한된 것이 아니어서 소비자 불안이 큽니다."
43,TV조선,'단일 협상안'이라더니…'철회' 빠진 합의문에 의료계 내분,"           play-rounded-fillplay-rounded-outlineplay-sharp-fillplay-sharp-outline   pause-sharp-outlinepause-sharp-fillpause-rounded-outlinepause-rounded-fill   00:00              ShareTwitterEmbed      ▶  다음 동영상이 곧 재생됩니다. 취소    3분 미리보기가 종료되었습니다. 풀 영상을 감상하시려면 아래의 VOD 구매를 통해 이용하실 수 있습니다. VOD 구매       [앵커]젊은 의사측은 어제 밤  의료계가 공동으로 작성한 최종 단일안과 오늘 합의안이  다르다고 주장하고 있습니다. 최대집  의사협회장이 독단적으로 정부와 합의했다고  강력하게 성토했습니다. 어떤 부분이  어떻게 다른지, 그리고  어제까지만 해도 보조를 맞춰 오던 양측의 내분이 왜 이렇게 커진 건지 정은혜 기자가  자세히 설명하겠습니다. [리포트]어제 의료계가 민주당과 협상하기 위해 내부 의견들을 모아 만들었다는 단일안입니다. 의대정원 확대와 공공의대 신설 추진 관련 법안을 '철회'하고 재논의한다고 돼있습니다. 하지만 정부와 합의 서명한 문건에는 추진을 '중단'한다고 적혀 있습니다. 단일안에 없던 집단 행동을 중단한다는 내용은 합의문에 추가됐습니다.박지현 / 젊은의사 비대위원장""이에 합의한 적이 없습니다. 저희는 의사협회 산하 단체지만, 저희가 단체 행동을 중단하는 건 저희의 의결사항이고 저희가 결정할 일입니다."" 반면, 최대집 의협회장은 자신이 협상의 전권을 위임받았다며 전공의들의 의견을 들을 수 있지만 꼭 반영할 필요는 없다고 선을 그었습니다. 최대집 / 대한의사협회 회장 ""비록 정책 철회가 들어가 있진 않지만 '철회 후 원점 재논의'와 '중단 후 원점 재논의'는 사실상 같은 의미로 생각하기 때문에…."" 두 사람은 서명식 이후 나눈  통화에서도 갈등을 그대로 드러냈습니다. 의협은 앞으로 대화를 통해 가시적인 결과물을 얻어내자면서, 그러기 위해선 의료계가 분열해서는 안 된다고 집안 단속에 나섰습니다. 하지만  서울아산병원과 한양대병원 교수들은  전공의 지지를 선언했고, 대한소아과협의회 등은 의협 지도부 탄핵에 나서는 등 내홍은 걷잡을 수 없이 커지고 있습니다. TV조선 정은혜입니다."
44,TV조선,"당정-의협 합의문 서명…전공의들은 ""졸속 합의"" 강력 반발","           play-rounded-fillplay-rounded-outlineplay-sharp-fillplay-sharp-outline   pause-sharp-outlinepause-sharp-fillpause-rounded-outlinepause-rounded-fill   00:00              ShareTwitterEmbed      ▶  다음 동영상이 곧 재생됩니다. 취소    3분 미리보기가 종료되었습니다. 풀 영상을 감상하시려면 아래의 VOD 구매를 통해 이용하실 수 있습니다. VOD 구매       [앵커]그나마 다행인 건 대한의사협회가 오는 7일 예고했던 총파업을 취소하고 진료현장으로  복귀하기로  했다는 겁니다. 하지만 전공의와 전임의로  구성된 '젊은의사 비대위'측이 합의에  자신들의 의견이  반영되지 않아다며 극심하게  반발하고 있어서 완전한 정상화까지는 변수가 남아 있습니다.    송민선 기자가 취재했습니다.[리포트]피켓을 든 전공의들. 박능후 보건복지부 장관이 탄 승강기 문이 열리자 한꺼번에 몰려듭니다.""전공의들과 한마디 논의도 없이!"" ""졸속 합의 반대합니다!"" 박 장관과 최대집 의사협회 회장은 정부서울청사로 자리를 옮겼지만  전공의들의 저항은 계속됐습니다. 두 사람은 경찰의 도움을 받고서야  예정보다 4시간 가까이 지나서 정책 협약 이행 합의서에  서명할 수 있었습니다. 박능후 / 보건복지부 장관 ""대한의사협회는 진료현장에 복귀하기로 했으며, 보건복지부는 의대 정원 확대, 공공의대 신설 추진을 중단하고….""  의협과 정부는 지역의료 지원책 개발과 전공의 수련환경 개선 등 주요 의료 현안을  향후 의정협의체를 구성한 뒤  논의해 추진하기로 했습니다.최대집 / 대한의사협회장""젊은 의사들이 문제 삼고 있는 정책에 대해서 일방적으로 추진하지 않고 충분한 협의를 거쳐서 원점에서 재논의하기로 하는…."" 의협은 앞서 여당과도 비슷한 합의서에 서명했습니다. 하지만 전공의들은 정책 전면 철회가 빠진 졸속 합의라며 강력 반발하고 있습니다. 일부 의협 내부에서도 독단적인 협상을 벌였다며 지도부 퇴출 요구가 제기되는 등 의료계는 극심한 분란에 휩싸였습니다. TV조선 송민선입니다."
45,TV조선,"WP ""백악관, 코로나 집단 면역 추진…새 의료 고문이 주도""","전 세계에서 코로나19 확진자가 가장 많이 나온 미국에서 도널드 트럼프 행정부가 코로나19 대응 전략으로 '집단 면역'을 준비하고 있다는 보도가 나왔다. 워싱턴포스트는 1일 ""트럼프 대통령의 신임 의료 고문이 백악관과 코로나19 대응 전략으로 집단 면역 도입을 촉구하고 있다""고 전·현직 관료 소식통을 인용해 보도했다. 또 ""트럼프 행정부는 이미 집단 면역 전략을 일부 시행하는 방향으로 가닥을 잡은 것으로 보인다""고 덧붙였다. 집단 면역 전략을 주도하는 인물은 스콧 아틀라스 스탠포드대 후버연구소 신경방사선학 박사로, 스스로 앤서니 파우치 미국 국립알레르기ㆍ전염병연구소 소장의 반대파라 말해온 인물이다. 아틀라스는 최근 백악관에서 트럼프 대통령과 거의 매일 면담하고 있는 것으로 알려졌다. '집단 면역'이란 구성원 상당수가 서서히 감염돼 사회 전체적으로 전염병 면역을 확보하는 것인데 앞서 스웨덴이 시도했지만, 감염률이 급격히 올라가고 많은 사망자를 내 사실상 실패한 것으로 여겨졌다. 워싱턴포스트는 집단 면역이 사회적 거리 두기로 인한 개인의 자유 침해나 경제적 타격이란 부작용이 없어 보수 진영의 지지를 받고 있다고 전했다. 이같은 보도에 아틀라스 박사는 ""현 행정부에서 집단 면역 방식을 채택하겠다는 정책을 마련하지 않았다""며 ""대통령에 보고된 적도 없다""고 부인했다. 하지만 워싱턴포스트는 보건복지부가 요양원 이외에는 검진 장비를 확보하기 위한 지출을 늘리지 않는 등 집단면역을 추진하는 징후가 여러 곳에서 보인다고 강조했다. 그러면서 신문은 자체 분석 결과 미국이 집단 면역에 성공하려면 전체 인구의 65%가 감염될 때까지 213만 명이 목숨을 잃어야 한다고 전망하기도 했다. / 이유진 기자"
46,TV조선,[취재후 Talk] '의대 증원 정책' 철회 못하는 이유가 시민단체와의 논의 결과 때문?…복지부의 황당한 Q&A,"/ 출처 보건복지부 블로그지난 24일 19시45분, 보건복지부가 공식블로그에 올린 '팩트체크' 방식의 카드 뉴스입니다. 복지부는 이날 공공보건의료대학(공공의대) 학생 선발에 시·도지사 및 시민단체가 추천권을 가진다는 논란에 대해 ""사실이 아니다""라는 취지의 해명 글을 게재했습니다.복지부는 우선 '공공의대 학생 선발과 관련해 시도지사 추천은 시도지사의 자녀나 친인척 등이 추천될 수 있도록 특혜를 주는 것이 아닌가요?'라고 스스로 물은 뒤, 시도지사 개인 권한으로 특정인을 임의 추천할 수 없다며 '아닙니다!'라고 답했습니다.앞서 논란이 된 것은 바로 다음 문장 때문입니다.""후보 학생 추천은 전문가, 시민사회단체 관계자 등이 참여하는 중립적 시도 추천위를 구성, 배정된 인원의 2~3 배수를 선발해 추천하도록 할 예정""이라고 썼습니다.이 가운데 전문가 추천 문구를 두곤 큰 이견(異見)이 없었지만, 시민사회단체 관계자 등이 참여해 추천하는 것을 두곤 적절성 논란이 일었던 겁니다.심지어 여권 내에서도 부적절한 내용이라는 지적이 일자, 복지부는 논란이 된 카드뉴스를 올린지 26시간 뒤쯤 ""사실이 아니다""라며 반박성 글을 올렸습니다./ 출처 보건복지부 블로그복지부 블로그에 올라온 글의 제목은 '보완 설명 드립니다'입니다.복지부는 제목 바로 아래 문장을 통해 ""시도지사나 시민단체 추천을 통해 공공의대에 입학한다는 것은 사실이 아닙니다""라며 반박했습니다. 시·도지사 및 시민단체가 학생 선발 간 추천권을 가진다는 의혹을 일축한 겁니다.그러면서 ""공정하고 투명해야 한다는 원칙에 입각해, 구체적 설발 방식을 국회 심의 과정을 통해 마련해 나갈 예정""이라고 덧붙였습니다.전날 복지부가 밝혔던 내용을, 그 다음 날 복지부 스스로 사실이 아니라고 해명하는 '자승자박(自繩自縛)'의 형국이 돼 버린 셈입니다. 하루 만에 말을 바꿨다는 점에서 졸속 행정의 표본이라는 지적이 일기도 했습니다.복지부는 다른 자리에선 ""현재 관련 법률도 통과되지 않은 상황""이라며 ""(시도 추천위는 확정된 게 아닌) 예시적으로 표현한 방안""이라고 해명하기도 했습니다. 다각도로 진화에 안간힘을 쓰는 모습이었습니다.논란이 됐던 최초의 카드 뉴스는 25일에 삭제 조치했습니다. '보완 설명 드립니다'라는 글을 올린 바로 그 날입니다./ 출처 보건복지부 블로그김강립 보건복지부 차관은 26일 오전 국회 보건복지위 제1차 전체회의에 출석해 해당 논란이 야기된 점에 대해 사과했습니다.김 차관은 ""입학생들이 공공의료 목적에 맞도록 선발되는 과정에 대한 여러 대안으로 논의되던 내용 중 일부가 (보건복지부 블로그에) 부적절하게 게재된 것으로 설명 자체가 부적절했다""며 ""정확한 정보를 제공하지 못하고 혼란을 드려 송구스럽다""고 했습니다.우여곡절은 있었지만 차관이 사과했고, 단순 예시일 뿐이라는 해명에 수긍하는 듯한 분위기도 일부 형성됐습니다.그런데 복지부 해명과 사과의 진정성(眞情性)을 의심할 법한 또 하나의 글이 블로그에 올라왔습니다./ 출처 보건복지부 블로그◆ 의대생 증원도 시민단체 눈치 보기? 복지부의 '시민단체 과잉의전' 시즌2지난 26일 오전 9시57분, 보건복지부 블로그에 올라온 Q&A 글입니다.시점 상으로, 김 차관이 국회에 출석해 ""(시도지사나 시민단체 추천을 통해 공공의대에 입학) 설명 자체가 부적절했다""며 김 차관이 사과하고 해명했던 복지위 전체회의 시작 3분 전입니다.복지부는 블로그에서 '정부는 왜 의대 정원 증원 관련 정책을 철회하지 않는 것인가요?'라고 자문한 뒤, ""정부가 정책을 철회하는 것은 이해관계 집단과의 논의 결과를 무시하는 것""이라며 ""이해관계자에는 시민단체와 병원계, 학계, 전문가 등이 있다""고 답합니다.이 글을 보고 또 한 번 놀라지 않을 수 없었습니다. (본의 아니게) 카드 뉴스에 '시민단체'라는 언급이 들어가 해명, 반박글까지 올린 상황에서 또 다시 시민단체라는 표현이 들어갔기 때문입니다.개인적으로는 복지부가 의대생 증원 이유로, '국가 인력의 적정 배분' 수준의 답변을 내놓을 것으로 예측했습니다.즉, 국민의 생명과 안전을 지키며 보편 의료 시대에 부합하는 '보다 폭넓은' 의료인 양성을 위함 정도로 답할 줄 알았는데, 또 다시 '시민단체'가 언급된 겁니다.그것도 가장 먼저 시민단체를 거론하고, 전문가 집단은 가장 마지막에 언급했습니다. 불필요한 오해를 살 수 있는 대목입니다.복지부의 설명 가운데 ""의대 증원 정책 철회""는 ""이해관계 집단과의 논의 결과를 무시하는 것""이라고 해석될 여지가 있는 부분에선, '왜 복지부는 시민단체의 눈치를 이렇게까지 보는 것일까?'라는 의구심마저 들었습니다.◆2004년 로스쿨 찬반 논란 당시 법무부가 밝힌 도입의 변은?참여정부가 법학전문대학원(이하 로스쿨)을 도입했을 당시 어떤 변(辯)을 내놨는지 문뜩 궁금해져서 당시 법무부의 관련 발언을 찾아봤습니다.이번 의대생 증원처럼 '법조인 정원이 늘어나는 로스쿨 도입 여부를 두고 찬반 여론이 극명하게 갈렸던 지난 2004년 9월1일, 법무부는 사실상 로스쿨 찬성 그룹의 손을 들어주면서 다음과 같은 이유를 댔습니다.김회선 당시 법무부 기획관리실장은 ""현행 사법시험 제도의 개선만으로는 법학교육의 황폐화와 고시낭인 문제를 근본적으로 해결할 수 없다는 판단에 따라 국가인력의 적정 배분, 국제화 시대의 경쟁력 있는 법조인 양성을 위해 로스쿨 제도에 대해 보다 전향적 자세로 검토하겠다""고 밝혔습니다.김 실장은 이어 ""국가에서 법조인을 직접 선발하는 것보다 대학이 양성기관이 돼 정상적 교육을 받은 사람이 법조인이 되는 것이 바람직하다는 판단을 내렸다""고도 했습니다.'시민단체'가 언급된 부분은 그 어디에도 없었습니다. / 백대우 기자"
47,TV조선,"""공공의대 시민단체 추천"" 해명이 도리어 '화' 키운 복지부","           play-rounded-fillplay-rounded-outlineplay-sharp-fillplay-sharp-outline   pause-sharp-outlinepause-sharp-fillpause-rounded-outlinepause-rounded-fill   00:00              ShareTwitterEmbed      ▶  다음 동영상이 곧 재생됩니다. 취소    3분 미리보기가 종료되었습니다. 풀 영상을 감상하시려면 아래의 VOD 구매를 통해 이용하실 수 있습니다. VOD 구매       [앵커]정부가  의사수를 늘리겠다는 명분은 지방의 의료 접근성을 높이겟다는 겁니다.  그러기 위해 공공의대 설립을 추진하고 있는데 학생 선발 방식을 둘러싸고 또 논란이 불거졌습니다.   시도지사 추천으로 의대생을 선발할 수 있다고 했다가  논란이 일자 해명 자료를 냈는데 이번에는 시민단체  관계자 추천이란 문구가 들어갔습니다.  그러면서 논란은 정치권으로도 옮겨붙었습니다.  황병준 기자가 취재했습니다.[리포트]2018년 보건복지부의 공공보건의료 발전 종합대책 문서입니다. 공공의료대학원 설립 내용이 담겨있습니다. 의대생에게 장학금을 주고 지역에서 근무하도록 하는 게 핵심입니다. 그런데 시, 도지사 추천으로 장학금 지급 대상을 선발한다는 내용이 최근 문제가 됐습니다. . ""특정계층 자녀를 뽑는 수단으로 악용될 수 있다“는 지적이 나온 겁니다. 그러자 복지부가 어제 해명자료를 올렸는데 오히려 화를 더 키웠습니다. 의대생 선발 자체를 “시민단체 관계자 등이 추천하도록 한다“는 설명에 시민 단체가 의대생을 뽑는 것이냐는 비판이 sns를 중심으로 잇따른 겁니다.의사 출신인 안철수 국민의당 대표는 “제2, 제3의 조국 자녀들이 판 칠 것”이라고 꼬집었습니다.논란이 커지자 복지부의 해명은 또 달라졌습니다. 윤태호“다양한 어떤 사회구성원들이 같이 참여하는 방식으로 가는 것이 좋겠다는 부분이고 그 하나의 어떤 구성원 중의 한 명을, 한 구성원으로서 시민사회단체가 예시로….” 복지부는 또 공공의대는 국회 입법과정을 거쳐야 추진되는 정책이라며 정부 의사만으로 결정할 수 없다고도 밝혔습니다. TV조선 황병준입니다. "
48,TV조선,"복지부 ""'왕진의료' 활성화 할 것"" vs 의협 ""참여하지 않겠다""","정부가 거동이 불편한 사람들의 의료접근성을 높이기 위해 '왕진의료'를 활성화 하기로 했다. 보건복지부는 제 21차 건강보험정책심의위원회를 열고 '재택의료 활성화 추진계획' 등을 보고받았다고 밝혔다. 복지부는 이르면 12월, 늦어도 내년 1월에 '일차의료 왕진 수가 시범사업'을 추진해 거동이 불편한 환자에게 의사 왕진이 이뤄지도록 할 계획이다. 왕진 서비스를 하는 동네 의사에게는 건강보험공단이 1회당 약 8만원~11만원의 시범수가를 지급하고, 환자는 이 수가의 30%인 2만 4천원~3만 4천원을 부담하면 된다. 하지만 대한의사협회가 반대의사를 밝혀 시행까지 어려움이 예상된다. 의협은 성명을 내고 ""정부의 이번 재택의료 활성화 추진 계획안은 국민 건강권을 고려하기보다 건강보험재정을 안정적으로 관리하겠다는 경제적 목적에 부합한다""며 ""의료계 의견이 충분히 반영되지 않은 재택의료 활성화 추진 계획에 참여하지 않겠다""고 밝혔다. / 이유진 기자"
49,TV조선,밤사이 15명 무더기 추가 확진…첫 어린이 환자 발생,"           play-rounded-fillplay-rounded-outlineplay-sharp-fillplay-sharp-outline   pause-sharp-outlinepause-sharp-fillpause-rounded-outlinepause-rounded-fill   00:00              ShareTwitterEmbed      ▶  다음 동영상이 곧 재생됩니다. 취소    3분 미리보기가 종료되었습니다. 풀 영상을 감상하시려면 아래의 VOD 구매를 통해 이용하실 수 있습니다. VOD 구매       [앵커]밤사이 코로나19 추가 확진자가 무더기로 나왔습니다. 대구, 경북지역에서만 13명이 추가됐고 서울과 수원에서도 2명이 확인돼 국내 확진자는 모두 46명으로 늘었습니다. 취재기자 연결합니다. 이유진 기자, 대구,경북지역에 비상이 걸렸다고요? [리포트]네, 그렇습니다. 대구,경북 지역은 밤사이 '코로나19' 확진환자가 13명이나 발생하면서 그야말로 비상 상황인데요. 13명 가운데 11명은 어제 확진된 31번째 환자와 연관이 있는것으로 확인됐습니다. 10명은 같은 교회를 다녔고으로 확인됐 1명은 31번 환자가 병원에서 접촉한 사람입니다. 특히 31번 환자는 고열 등의 증상이 있는 상태에서 지난 9일과 16일 대구 남구에 있는 신천지 대구교회 예배에 참석한 것으로 알려져 추가 확진자는 더 늘어날 수 있습니다. 당시 예배에는 교인 460여 명이 참석했던 것으로 알려졌습니다. 지역 병원들도 줄줄이 폐쇄됐습니다. 31번 환자가 장기간 입원했던 새로난 한방병원은 이미 폐쇄됐고 확진자가 나온 경북대병원도 어제밤부터 응급실을 폐쇄했습니다. 계명대학교 동산병원도 의심환자가 다녀가면서 신규 환자 유입을 차단하고 있습니다. 보건당국은 대구시민에게 기침이나 발열 등 감기와 비슷한 증상으로 동네의원이나 응급실에 가지 말아줄 것을 요청했습니다. 보건당국은 먼저 1339 콜센터나 보건소에 전화해 상담한 뒤 필요시 선별진료소를 방문해줄 것을 당부했습니다. 국내 첫 어린이 환자도 나왔습니다. 20번째 환자의 딸인 11살 어린이로, 자가격리 중 증상이 확인됐고 분당서울대병원에 격리됐습니다. 서울 성동구에서도 78세 한국인 남성의 감염이 확인돼 국립중앙의료원에 격리 입원치료 중입니다. 지금까지 정책부에서 전해드렸습니다. "
50,TV조선,가운 벗은 전공의들 여의도 운집…14일엔 의협과 동맹 파업,"           play-rounded-fillplay-rounded-outlineplay-sharp-fillplay-sharp-outline   pause-sharp-outlinepause-sharp-fillpause-rounded-outlinepause-rounded-fill   00:00              ShareTwitterEmbed      ▶  다음 동영상이 곧 재생됩니다. 취소    3분 미리보기가 종료되었습니다. 풀 영상을 감상하시려면 아래의 VOD 구매를 통해 이용하실 수 있습니다. VOD 구매       [앵커]정부의 의대 정원  확대 추진에 반대하는  전공의들이  예고대로 오늘 집단 휴진했습니다.  대체인력을  투입해서  진료 대란까진 아니지만,  환자들은  대기 시간이  길어져 불편을 겪었습니다. 의사협회도  파업을 예고한  다음 주가  걱정입니다.   송민선 기자입니다.[리포트]의사 가운을 벗고 여의도에 운집한 전공의들. 의대 정원 확대와 공공의대 설립 등의 정책 추진을 전면 재논의하라고 요구했습니다.이경민 / 대한전공의협의회 수련이사""증원하기 전에 먼저 그 4000명을 교육시킬 수련에 대한 문제를 먼저 파악하십시오."" 당초 오후 2시부터  시작될 예정이던 집회는 예상보다 2배 많은 6000여 명의 전공의들이 모이면서  30분 넘게 지연됐습니다.각 지역에서도  집회가 열리면서 전국적으로 약 1만 명의 전공의들이  이번 휴진에 동참했습니다. 대체인력 투입으로 우려했던 의료대란은 없었지만 일부 병원에서는  진료 대기시간이  늘어나기도 했습니다. 병원 방문객""진료를 마치고 피검사하고 나오면 수납하고, 합치면 1시간 정도 더 걸렸어요, 평상시보다."" 정부는 24시간 비상진료상황실을 가동하고 대학병원 현장을 검점하는 등 만일의 사태에 대비하고 있습니다. 하지만 오는 14일에는  개원의들까지 함께 파업할 예정이어서 진료공백이 불가피할 전망입니다. TV조선 송민선입니다."
51,TV조선,"안철수 ""文정부, 제발 그 입들 좀 다물면 안 되겠습니까?""","국민의당 안철수 대표가 27일 국회에서 열린 최고위원회의에서 발언하고 있다. / 연합뉴스국민의당 안철수 대표는 27일 문재인 정부를 향해 ""실력이 없는데 태도마저 불량하기 짝이 없다""며 비판했다. 안 대표는 이날 오전 국회에서 열린 최고위원회의에서 ""최근 문재인 정권이 하는 행태를 보면 도저히 눈 뜨고 봐주기 어렵다""며 이같이 말했다. 안 대표는 ""정부와 여당이 총선 승리에 도취해 보여주고 있는 모습은 교만과 무능과 반민주적인 모습 뿐""이라며 ""지금이야말로 임기 후반부를 맞아 대대적인 내부 성찰과 국정쇄신을 단행할 때""라고 지적했다. 그는 이어 ""대통령이 SNS로 코로나19 방역 자랑을 할 때마다 확진자 수가 급증했다. 설사 K-방역이 성공적일지라도 그것은 일선 방역 공무원과 의료진의 헌신 덕분이지 대통령의 공은 아니지 않나""라며 ""지금은 국가 지도자라면 지쳐가는 현장 근무자들을 격려하고, 힘들지만 주의를 게을리 하지 말아달라고 호소할 때""라고 주장했다. 안 대표는 서울을 '천박한 도시'라고 언급한 더불어민주당 이해찬 대표를 겨냥해선 ""서울은 천박하고 부산은 초라하다는 여당 대표의 말은 한마디로 천박하기 이를 데 없다""며 ""야당 인사가 그 말을 했다면 당신들은 어떻게 했겠나. 온갖 수단 방법을 총 동원해서 매장시켰을 것""이라고 꼬집었다. 안 대표는 또 탈북자의 재입북 보도와 관련해선 ""북한의 주장이 사실이라면, 한 마디로 경계도 엉터리, 치안도 엉터리, 방역도 엉터리였다""고 지적했다. 또 ""주무장관이 정책 잘 작동하고 있다고 하면 아파트값이 더 폭등하고, 여당 원내대표가 행정수도 이야기하니 멀쩡하던 세종시 아파트값이 천정부지로 뛰어오르고 있다""면서 ""이제 제발 그 입들 좀 다물면 안 되겠냐""고 밝혔다. 안 대표는 ""이러고도 대통령과 여당은 발 뻗고 잠이 오는지 의문""이라며 ""이제는 문재인 대통령께서 군 통수권자로서 거듭되는 군의 기강 해이와 경계 실패에 대해 입장을 밝혀야 한다""고 요구했다. / 이태희 기자"
52,TV조선,"""질병관리'청'이 아닌 '처'로 승격해야""…질병청 조직개편 토론회 열려","국회 정책토론회에서 질병관리본부를 보건복지부 산하 '청'으로 승격하지 말고 국무총리실 산하 '질병관리처'로 승격해야 한다는 주장이 제기됐다. 정기석 한림대 성심병원 호흡기내과 교수(전 질병관리본부장)는 9일 더불어민주당 신현영 의원(비례대표)이 국회도서관에서 개최한 '질병관리청, 바람직한 개편방안은'이란 주제의 정책토론회에서 ""보건복지부 복수차관제가 시행될 경우, 결국 2차관(보건 담당 차관)이 질병관리청에 여러 가지 영향력을 행사할 수밖에 없다""며 ""이 경우 질병관리청이 소신 있게 일할 수 없다""고 지적했다. 정 교수는 이어 ""신설 기관의 독립성과 전문성을 확보하려면 보건복지부 산하의 질병관리청이 아니라, 국무총리실 산하의 '질병관리처'로 승격해야 한다""며 ""이 방안이 윈-윈하는 길""이라고 주장했다. 토론회에 참석한 의료 전문가들은 또, 논란이 된 감염병연구소는 복지부로 이관하지 말고 청 산하에 둬야 한다고 강조했다. 이재갑 한림대 강남성심병원 감염내과 교수는 ""국립감염병연구소를 통해 청이 감염병 연구를 통합 진행해야 한다""며 ""특히 청 산하에 역학조사원을 신설하는 건 반드시 필요하다""고 말했다. / 최원영 기자"
53,TV조선,"의협 ""전화상담·처방 중단하라""…'원격의료' 도입 반발 확산 ","           play-rounded-fillplay-rounded-outlineplay-sharp-fillplay-sharp-outline   pause-sharp-outlinepause-sharp-fillpause-rounded-outlinepause-rounded-fill   00:00              ShareTwitterEmbed      ▶  다음 동영상이 곧 재생됩니다. 취소    3분 미리보기가 종료되었습니다. 풀 영상을 감상하시려면 아래의 VOD 구매를 통해 이용하실 수 있습니다. VOD 구매       [앵커]대한의사협회가 13만 의사에게 당장 ""내일부터  전화상담과 처방을  전면 중단하라""고  권고했습니다. 정부가 지난주 코로나 국면에서 교훈을 얻었다며, '비대면 진료'  도입 추진을 언급한 데 따른 건데요. 20년 묵은 원격의료 갈등이 다시 불붙고 있습니다. 송민선 기자입니다. [리포트]서울 은평구의  한 내과입니다. 고혈압이나 당뇨 등 만성질환을 앓고 있는 일부 고령 환자들에게 전화로 처방을 내리고 있습니다. 지난 2월 말부터 코로나19 감염 예방 차원에서 한시적으로 허용된 전화상담은 지난 10일까지  전국적으로 약 26만 건이 이뤄졌습니다.하지만 오진 등의 우려가 많다는 게  의사들의 주장입니다. 박근태 / 대한개원내과의사회 회장 ""청진도 해보고, 촉진도 해보고 그래야지만,  이런 진료가 이뤄져야지만 좀 안심적으로 하고  처방을 내릴 수가 있는데…."" 반면 정부는 코로나19를 계기로 원격의료를 비대면 진료로  이름을 바꿔 재도입을 추진하고 있습니다. 감염의 위험이 없는 데다 의료 사각지대를 없애고 비대면 산업도 촉진하기 위해섭니다. 정세균 / 국무총리(지난 14일) ""비대면 진료 확대, 원격 모니터링 서비스 발굴 등  보건 의료 대책의 과감한 중심 이동이 필요합니다."" 이에 의사협회는  회원들에게 전화상담과 처방을 중단하라며 반발 수위를 높였습니다. 박종혁 / 대한의사협회 대변인""이 문제에 대해서는 모든 방법을 동원해서라도  정부의 정책 변화를 반드시 이뤄내야만 합니다."" 의협은 일주일간 이행 상황을 지켜본 뒤 대응 수위를  결정하겠다고 밝혀 원격의료를 둘러싼 정부와 의료계의 해묵은 갈등이  다시 불붙고 있습니다. TV조선 송민선입니다."
54,TV조선,"[한국의 영향력 있는 CEO] 박준규 행정사합동사무소 민행24 대표행정사, 혁신경영 부문","박준규 행정사합동사무소 민행24 대표행정사전문화되고 특화된 행정서비스를 제공하는 행정사합동사무소 민행24의 박준규 대표가 ‘2020 한국의 영향력 있는 CEO’ 혁신경영 부문에 선정되었다. 박준규 대표는 국내 최대 규모의 행정사합동사무소 민행24를 이끌면서 전문행정서비스와 일반행정서비스로 분야를 나눠 특화된 행정 서비스를 선보이고 있다. 정책자금 신청, 토지보상, 정비사업, 창업 및 법인설립, 출입국관리, 각종기술인증, 의료기기인증 등 다양한 행정 대행 업무를 제공하며, 각 분야별 전문 행정사들이 원스톱 토탈 서비스를 실시한다. 대전 본점을 비롯해 서울 영등포, 홍대, 부산, 세종, 구미, 음성에 분점을 운영하고 있으며, 각 분점별로 지역 특성을 고려해 핵심 업무 영역을 특화하여, 소비자의 만족도가 매우 높다. ‘한국의 영향력 있는 CEO’는 TV조선 주최로 공정한 심사를 통해 한해 동안 기업 및 기관의 최고경영자 중 각 산업·경제분야 발전에 큰 역할을 한 경영인을 선정하여 시상하고 있다."
55,TV조선,내년부터 아동 충치 치료에 보험 적용…유아 난청에는 보청기 지원,"내년부터 어린이 초기 충치 치료에 건강보험이 적용된다. 난청 유아에게 보청기가 지원되는 등 영유아 의료 지원이 대폭 확대된다. 보건복지부는 30일, 이같은 내용을 담은 영유아 의료비 완화 국가사업 정책을 발표했다. 만 13세 생일이 지나지 않은 어린이는 충치 치료에 '광중합형 복합레진 치료'를 하는 경우 건강보험 혜택을 받을 수 있게 된다. 광중합형 복합레진 치료는 대표적인 비급여 항목으로 치아 1개당 7만~14만 원의 치료비가 소요된다. 건강보험을 적용받으면 환자 본인부담금은 일반 치과의원 기준 치아 1개당 2만5천 원 수준으로 낮아질 전망이다. 또, 만 2세 이하 유아기에 선천성 난청 진단을 받은 어린이에게는 보청기를 지원한다. 지원 대상은 중위소득 180% 이하 가구로, 4인 가구 기준 한 달 소득이 830만 4천원 이하인 가구가 해당된다. 복지부는 가정의 영유아 의료비 부담을 경감하고 유아기 질병 후유증을 최소화할 수 있을 것으로 기대한다고 밝혔다."
56,TV조선,"아베, 감염자 폭증에 뒤늦게 도쿄 등 7곳 '긴급사태' 선포","           play-rounded-fillplay-rounded-outlineplay-sharp-fillplay-sharp-outline   pause-sharp-outlinepause-sharp-fillpause-rounded-outlinepause-rounded-fill   00:00              ShareTwitterEmbed      ▶  다음 동영상이 곧 재생됩니다. 취소    3분 미리보기가 종료되었습니다. 풀 영상을 감상하시려면 아래의 VOD 구매를 통해 이용하실 수 있습니다. VOD 구매       [앵커]미국에 이어 일본도  감염자가 크게  늘고 있습니다. 도쿄가 제2의 뉴욕이  될 거란 전망까지 나오자 아베 총리가 결국 손을  들었습니다. 오늘 저녁 도쿄와 오사카 등 7개 지역에  긴급 사태를  선포하고 1200조원에 달하는 엄청난 규모의 경기 부양 대책을 발표했습니다. 하지만 올림픽 연기  선언때와 마찬가지로 이번에도 때를 놓쳤다는  평가가 나오면서 아베 총리가  궁지로 몰리고 있습니다.   송지욱 기자가 보도합니다. [리포트]아베 총리가 의료 붕괴 우려 속에 내일부터 한 달간 도쿄와 오사카, 후쿠오카 등 7개 지역을 대상으로 긴급사태를 선포했습니다. 아베 총리는 ""이 속도로 확산이 계속되면 감염자가 2주 후 1만 명, 한 달 뒤엔 8만 명이 넘을 것""이라고 예상했습니다.아베 신조 / 일본 총리""사람과 사람간 접촉 기회를 최소 70%, 최대 80% 줄일 수 있다면 2주 후에는 감염자 증가를 정점 통과(peak out) 시킬 수 있습니다."" 정부는 호텔을 야전 병원으로 전용하는 등, 개인 재산권을 제한할 수 있게 됩니다. 외출 자제령도 내릴 수 있는데, 위반시 처벌 근거는 없지만 심리적 압박 효과가 클 것으로 보입니다. 현지 언론은  아베 총리가 정책 핵심인 '아베노믹스'를 지키려 때 늦은 결정을 내렸다고 분석했습니다. 아베 총리는 108조엔, 우리 돈 1200조원 넘는 초대형 부양책도 발표했습니다. 가구당 30만 엔씩 현금을 지급할 예정인데, 수급 조건과 절차가 까다로워  혼선을 빚고 있습니다. 블룸버그 통신은 ""아베 총리는 올림픽 연기 때처럼 긴급사태 역시 끌었다""면서 ""권력 정점에 있다기보다 포로가 된 모습""이라고 비판했습니다.아베 총리는 긴급사태를 의회 승인 없이 내각 결정으로 선포할 수 있어야 한다며 개헌 필요성도 주장했습니다. 앞서 어제 주일 미군은 일본 수도권 미군 기지에 공중위생 긴급사태를 선언했습니다. TV조선 송지욱입니다."
57,TV조선,"30번 확진자 발생…보건당국 ""지역사회 전파에 선제 대응""","      ▶  다음 동영상이 곧 재생됩니다. 취소    3분 미리보기가 종료되었습니다. 풀 영상을 감상하시려면 아래의 VOD 구매를 통해 이용하실 수 있습니다. VOD 구매       [앵커]코로나 19 속보부터  알아보겠습니다.  오늘 오전 국내에서  30번째 확진자가  추가로 나왔습니다. 정부는 지역사회 감염을 막기 위한 대책을 내왔는데,  취재기자 연결해  자세한 내용 알아보겠습니다.  송민선 기자, 오늘 발표 내용 전해주시죠.[리포트]네, 오늘 오전  30번째  코로나19 확진자가 발생했습니다. 중앙방역대책본부는 29번 환자의 아내인  68세 한국인 여성이 양성 판정을 받았다고 밝혔습니다. 30번 환자는 전날 29번 환자가 확진된 이후  '자가격리'된 상태에서 검사를 받았고, 서울대병원에 격리 입원했습니다. 두 사람은  해외여행 이력이 없고 아직까지  감염경로가 불명확한 상태입니다. 29번 환자가 다녀간 고려대 안암병원 응급실은 일시적으로 문을 닫았습니다. 지금까지  해외에서 유입되는 바이러스를 차단하는데 중점을 뒀던 정부 방역대책도  지역사회 확산 방지에 집중하고 있습니다. 보건당국은 전국 1,470여 개  요양병원의 종사자와 간병인에 대해 전수조사를 실시합니다. 이들 중  중국 등 관련 여행이력이 있는 경우 업무배제 조치를 할 예정입니다. 원인불명의 폐렴으로 입원해 있는 환자들에 대한 코로나19 검사도 시행하게 됩니다. 현재  국방어학원에서 생활중인 3차 우한 귀국 교민과  그 가족 148명은 이상증세가 없는 것으로 알려졌습니다. 다만 국립중앙의료원에  입원했던 11개월 된 아기는 3일에서 4일 정도 경과를  관찰할 예정입니다. 임시 생활시설로  돌아가도 괜찮다는 의료진 판단이 내려지면 엄마와 함께  국방어학원으로 이송될 예정입니다. 지금까지 사회정책부에서 전해드렸습니다."
58,TV조선,"[뉴스야?!] ""BTS, 靑에 '다이너마이트'?""",
59,TV조선,"의사국시 첫날 6명만 응시…""저항할것"" vs ""구제 없다""","           play-rounded-fillplay-rounded-outlineplay-sharp-fillplay-sharp-outline   pause-sharp-outlinepause-sharp-fillpause-rounded-outlinepause-rounded-fill   00:00              ShareTwitterEmbed      ▶  다음 동영상이 곧 재생됩니다. 취소    3분 미리보기가 종료되었습니다. 풀 영상을 감상하시려면 아래의 VOD 구매를 통해 이용하실 수 있습니다. VOD 구매       [앵커]계속해서 끝나지 않은 의료계와 정부간 갈등, 전하겠습니다. 의사 국가고시  첫 날인 오늘, 하루 최대 108명까지 시험을 치뤘던 곳엔 결국, 6명이  자리했습니다. 시험에 응시하지 않은 의대생은 오늘도 저항 의지를 굽히지 않았는데, 정부 역시  스스로 시험을 포기한 의대생에,  '구제는 없다'는, 입장이어서  양측간 접점을 찾기까지 시간이 소요될 것으로 보입니다. 최원영 기자입니다. [리포트]의대생 몇몇이 띄엄띄엄 시험장으로 들어갑니다. 의사 국시 실기시험 첫날 응시자는 6명 뿐입니다. 국시를 거부한  2700여 명의 의대생들은 ""1년 버리는 것을  각오하고 저항한다”며  여전히 강경한 입장입니다. 의대생""의대생들은 아직 투쟁에 앞장서고 있기 때문에 전공의 선배님들을 비롯해 다른 의사 선배님들께서 빨리 돌아오시길 바라고 있습니다.""정부는  의대생들이  시험을 거부하는 상황에서 구제책은 없다고  선을 그었습니다. 손영래 / 중수본 전략기획반장""구제 요구를 한 것에 대해서는 지금 합리적이지는 않은 요구라고 판단하고 있습니다.""  여당도  부정적입니다. 더불어민주당 정청래 의원은 “재시험 기회를 주려면 의료계가 대국민 사과를 해야한다”고 주장했습니다.국회 보건복지위원회 간사인 김성주 의원도 난색을 표했습니다. 김성주 / 더불어민주당 의원 (CBS 라디오 '김현정의 뉴스쇼')""의대생들도 이제 성인이므로 정부 정책에 대한 불만을 다양한 방법으로 표시할 수 있는데 그 행동에 대해서는 스스로 책임을 져야 합니다.""그러자 의협은  구제책이 없으면 의정합의 철회가 불가피하다고 거듭 밝혔고, 전공의들도 다시 단체행동에 나서겠다고 반발했습니다. TV조선 최원영입니다. "
