,Press,Title,Text
0,연합뉴스,"정부-의사단체, 4대 의료정책 대립…쟁점은","닫기정부-의사단체, 4대 의료정책 대립…쟁점은[앵커]의사들의 집단행동 배경에는 의사 추가 양성을 골자로 하는 정부의 4대 의료정책이 있습니다.정부와 의사단체가 계속 대립하고 있는데, 조성미 기자가 쟁점을 짚어봤습니다.[기자]정부가 추진 중인 '4대 의료정책'에 대해 의사단체들은 파업까지 불사하며 반대하고 있습니다.<최대집 / 대한의사협회 회장> ""이 투쟁이 언제 끝날지는 전적으로 정부 태도에 달려있다는 점을 강조하면서 4대악 의료정책 철폐를 촉구합니다.""4대 의료정책은 의대 정원 증원, 공공의대 신설, 한방 첩약 건강보험 적용, 비대면 진료 육성으로 요약됩니다.의사들의 가장 큰 반발을 사고 있는 것은 의대 정원 확대입니다.정부는 2022년부터 10년간 의대 정원을 4,000명을 늘려 의료 인력이 부족한 지역 의사와 기초 연구 인력 등으로 활용할 계획입니다.또 의대가 없는 지역엔 공공의대를 세워 필수 인력을 양성하고 주로 공공의료기관에 배치한다는 구상입니다.<박능후 / 보건복지부 장관> ""일정 규모 이상의 진료권마다 훌륭한 지역병원을 육성할 것입니다. 감염병에 대응할 의사, 의공학을 연구할 의사 등 꼭 필요한 인재들을 키울 것입니다.""의료계는 인구 감소율과 의사 증가율을 고려하면 의사 수는 충분하다고 반박합니다.또 예비 의사 수련 환경이 열악하다며 정원 확대에 앞서 제대로 된 수련병원과 교수 인력을 확보하라고 요구합니다.10년간 의무 근무해야 하는 지역 의사제는 개인의 직업 선택 자유를 침해한다고도 맞서고 있습니다.정부가 3가지 질환에 한해 한방 첩약에도 건강보험을 적용하기로 하자 의사들은 첩약의 안전성을 우려하면서 의약품과 형평이 맞지 않는다고 주장합니다.비대면 진료 육성책을 놓고도 대립하는 등 양측이 절충점을 찾지 못하고 있습니다.연합뉴스TV 조성미입니다.연합뉴스TV 기사문의 및 제보 : 카톡/라인 jebo23(끝)"
1,연합뉴스,"4대 의료정책 향방은…""공공의료 포기"" 반발도","닫기4대 의료정책 향방은…""공공의료 포기"" 반발도[뉴스리뷰][앵커]정부·여당과 의사협회의 합의로 4대 의료정책이 멈춰 서게 됐습니다.공공의료 강화 포기라는 반발도 강합니다.배삼진 기자입니다.[기자]정부의 4대 의료정책 가운데 당장 의대 정원 확대와 공공의대 신설 추진이 중단됐습니다.2022년부터 10년간 매년 의대생 400명을 추가 선발하기로 했던 계획은 사실상 없던 것이 됐고, 매년 49명의 공공의사를 선발하는 공공의대 신설 역시 불투명해졌습니다.의사단체가 줄곧 반대해 온데다 원점에서 재논의하기로 한 만큼 다시금 명분을 찾는데 상당한 시간이 걸릴 것으로 보입니다.이같은 의료 현안을 다룰 의정협의체가 구성되는데, 코로나19 상황에서 해외 근로자 치료를 위해 도입을 추진하고 있는 비대면 진료와 한방 첩약 급여화 시범사업도 이 기구에서 논의됩니다.하지만 정부와 의협이 그동안 대립해온 사안인 만큼 진통이 예상됩니다.<김헌주 / 보건복지부 보건의료정책관> ""첩약 급여화 시범사업의 경우는 건강보험정책심의위원회에서 의결된 사안입니다. 예정대로 진행하겠습니다만 합의서에 나와 있던 것처럼 관련 협의체를 거쳐서""참여연대 등 177개 시민사회단체는 의·정 합의 내용을 비판했습니다.이들 단체는 ""시민의 건강과 안전에 직결된 공공의료 정책을 논의하면서 이익단체인 의사의 요구대로 공공의료 포기를 선언한 것은 받아들일 수 없다""고 반발했습니다.<이보라 / 인도주의실천의사협의회 공동대표> ""기존의 정부안도 굉장히 미흡한 개혁안이었는데, 보수적인 이익집단에 의해 좌초된 것은 안타까운 일이고, 정부의 무능함이 드러난 사례다.""정부·여당과 의협의 합의에도 갈등의 불씨는 여전히 살아있습니다.연합뉴스TV 배삼진입니다.연합뉴스TV 기사문의 및 제보 : 카톡/라인 jebo23(끝)"
2,연합뉴스,의·정 강대강 대립…의료정책 4대 쟁점은,"닫기의·정 강대강 대립…의료정책 4대 쟁점은[앵커]의료정책을 둘러싼 정부와 의사단체의 대립이 집단휴진과 검찰 고발까지 불러오며 격화하고 있습니다.쟁점은 무엇인지, 어떻게 풀어가야 할지, 이동훈 기자가 전해드립니다.[기자]정부와 의사단체들이 입장차를 좁히지 못하고 있는 정책은 4가지입니다.그중에서도 의대 정원 확대, 공공의대 설립 등이 주요 쟁점으로 떠올랐습니다.정부는 우선 지역 의료 불균형을 해소하기 위해 의사 수를 늘려야 한다고 말합니다.현재 연간 3,000명 수준인 의대 정원을 매년 400명씩, 10년간 4,000명을 늘린다는 구상입니다.증원된 4,000명 중 3,000명은 지역 의사 특별전형으로 선발해 의사가 부족한 지방에서 10년간 의무적으로 근무하도록 한다는 겁니다.정부는 경제개발협력기구 OECD의 지난해 자료를 인용해, 우리나라 인구 1,000명당 의사 수는 2.3명으로 회원국 평균 3.5명에 비해 부족하다고 설명합니다.하지만 의사단체들은 정부가 지방의 병원과 장비 부족 등 근본적인 문제를 외면한 채 통계를 선택적으로 사용한다며 반발합니다.같은 자료에 포함된 우리나라 국민 1인당 외래 진료 횟수는 회원국 평균 7.1회의 2배 이상인 16.6회.또 국토 면적 10㎢당 의사 수 역시 OECD 회원국 중 3번째로 결코 의사 수가 부족한 것은 아니라고 반박합니다.공공의대 설립은 역학조사관, 감염내과 전문의 등 국가의 필수 분야 의료인력을 양성한 뒤 의무 복무를 하게 하는 제도지만 역시 근본적인 지방 기피현상을 해결할 수 없다는 반발에 부딪혔습니다.정부가 시민단체가 참여하는 시·도 추천위원회를 구성해 정원을 선발하겠다고 설명해 공정성 논란이 일기도 했습니다.이외 한의원의 일부 탕약 의료보험 적용, 원격의료 허용도 의사단체들은 건강보험 재정 악화, 오진 우려 등을 이유로 반대하고 있습니다.전문가들은 코로나19 사태 해결이 먼저라며 지금은 서로 한 발씩 물러서야 할 때라고 말합니다.<백순영 / 가톨릭대 의대 미생물학교실 교수> ""4가지의 의료 정책들을 갖고 왈가왈부하고 파업을 한다는 것은 양측 다 심각한 부담을 안고 있는데요. 4가지 정책들을 각기 따로따로 심도있는 논의를 통해서…""양측의 강대강 대립으로 환자가 피해를 보는 만큼 대화를 통해 해결해야 한다는 겁니다.연합뉴스TV 이동훈입니다.연합뉴스TV 기사문의 및 제보 : 카톡/라인 jebo23(끝)"
3,연합뉴스,[1번지五감] 전공의 순차 파업…'의료정책 반대' 1인 시위 外,"닫기[1번지五감] 전공의 순차 파업…'의료정책 반대' 1인 시위 外▶ 전공의 순차 파업…'의료정책 반대' 1인 시위1번지오감, 오늘의 첫 번째 사진입니다.정부의 공공의대 신설과 의사증원 계획 등에 반대하는 전공의들이 오늘부터 순차 파업에 돌입했죠.병원 앞에서 1인 시위를 하고 있는 대한전공의협의회 관계자.""공공의료 의사증원? 중요한 것은 여건이다""라고 주장하고 있습니다.코로나19 위기 상황 속에서 파업이 장기화할 경우 심각한 의료 공백이 우려되고 있습니다.정부는 일단 ""집단행동을 중단한다면 의료계가 반발하는 정책추진을 유보하고 다시 논의할 수 있다""는 입장을 밝혔는데요.서둘러 현명한 해법을 마련해주길 기대하겠습니다.▶ '코로나19 예방'…칸막이 설치된 민주당 회의실두 번째 사진 볼까요.더불어민주당 회의실인데요.감염예방을 위한 투명 칸막이가 좌석마다 설치되어 있습니다.코로나19 위기로 정치권도 비상에 걸린 겁니다.이런 상황에서도 여야는 연일 코로나19 재확산의 책임을 두고 공방을 이어가고 있는데요.국민들은 아마도 위기극복을 위해 힘을 모으는 모습을 보고 싶어 하지 않을까 싶습니다.▶ 터전 잃은 이재민…폭염·코로나19 겹쳐 삼중고마지막 사진입니다.벽지가 모두 뜯긴 방, 장판조차 없는 시멘트 바닥에 얇은 이불을 깔고 누운 남성.장마로 침수 피해를 입었던 전남 곡성에서 코로나19 확진자가 발생하자 이재민 대피소가 폐쇄됐는데요.갈 곳을 잃어버린 주민은 아직 수해 복구가 덜 된 집에서 휴식을 취하고 있는 겁니다.유례없이 긴 장마로 수해를 입은 데 이어 폭염에 바이러스까지 겹치면서 이재민들은 삼중고를 겪고 있습니다.지금까지 1번지 오감이었습니다.연합뉴스TV 기사문의 및 제보 : 카톡/라인 jebo23(끝)"
4,연합뉴스,[AM-PM] '정부 의료정책 반대' 24시간 집단 휴진 外,"닫기[AM-PM] '정부 의료정책 반대' 24시간 집단 휴진 外오늘 하루 주요 일정을 살펴보는 보도국 AM-PM입니다.어떤 일정이 있는지 함께 확인해보시죠.▶ '의대 정원 확대 반대' 24시간 집단 휴진정부의 의대 정원 확대 방침에 반대하는 의사들이 24시간 집단 휴진에 돌입합니다.응급실 등 필수 인력은 제외되지만, 전국적으로 개인병원 8,000여 곳이 휴진에 참여할 것으로 전망됩니다.오후 3시엔 서울 여의대로에서 궐기대회를 여는데요.주말에 임시공휴일까지 맞물려 의료공백이 길어질 것으로 전망됩니다.▶ 세계 일본군 위안부 기림일…""영원히 기억한다""오늘(14일)은 세계 일본군 '위안부' 기림일입니다.1991년 오늘, 고 김학순 할머니가 위안부 피해 사실을 알린 날을 기념하는 날로, 올해가 8번째입니다.정의기억연대 등 관련 단체들은 전국 곳곳에서 이를 기념하는 나비 문화제와 각종 행사를 엽니다.올해 기림일의 주제는 ""그녀들의 말하기, 우리가 영원히 기억한다"" 입니다.▶ 첫 택배없는 날…""28년 만에 맞는 휴무""오늘(14일)은 '택배없는 날' 입니다.택배업계가 배송 기사들의 휴식을 위해 지정한 날인데요.시장 80% 정도를 차지하고 있는 대형 택배사들이 참여 의사를 밝혔습니다.로켓배송 등 새벽배송은 평소처럼 이뤄집니다.택배 배송은 다음 주 월요일인 17일 재개됩니다.오늘 살펴볼 일정은 여기까지입니다.지금까지 보도국 AM-PM이었습니다.연합뉴스TV 기사문의 및 제보 : 카톡/라인 jebo23(끝)"
5,연합뉴스,"정부 ""의료인 처벌 원치 않는다""…복지부·전공의 대화","닫기정부 ""의료인 처벌 원치 않는다""…복지부·전공의 대화[앵커]집단휴진에 참여한 전공의들을 경찰에 고발한 정부가 처벌을 원치 않는다며 강경 대응에서 한발 물러서는 모습을 보였습니다.오늘 저녁에는 전공의들과 보건복지부 실무진이 비공개 대화를 할 예정입니다.보도국 연결해 봅니다.김장현 기자.[기자]네. 정부가 의사단체의 집단휴진과 관련해 단 1명의 의료인도 처벌 받길 원하지 않는다며 진료에 복귀하고 대화에 나설 것을 촉구했습니다.정세균 국무총리는 오늘 정부서울청사에서 출입기자들과 만나 ""정부는 문제 해결을 위해 유연한 자세로 최선을 다할 생각""이라며 이같이 밝혔습니다.정부가 오늘부터 예정된 의사 국가고시 실기시험을 의대생들의 응시 취소 사태로 일주일 연기한데 이어 유연한 입장을 밝히며 한발 물러서는 모습을 보인건데요.이런 상황에서 오늘 저녁 보건복지부 실무진과 전공의들이 비공개로 만날 예정입니다.전공의협의회 관계자는 이번 만남이 협상을 위한 자리는 아니고, 집행부가 직접 나서 참여하지도 않을 것이라고 말했습니다.일선 전공의들이 의대 증원 등 정부 정책에 대해 의견을 나누는 자리라고 설명했습니다.보건복지부가 어제 의료정책을 놓고 전공들의 공개토론을 할 수 있다고 밝혔는데 전공의협의회가 오늘 기자회견에서 수용 의향을 밝혔습니다.이에 따라 공개토론회가 성사될 가능성이 커졌습니다.[앵커]전공의협의회와 정부는 아직까지 서로 기존 입장을 유지하고 있죠.[기자]네. 전공의협의회는 정부가 등 4대 의료정책을 전면 철회하고 원점에서 재논의한다는 것을 문서로 명문화 해달라고 요구하고 있습니다.4대 의료정책은 의대 정원 확대와 공공의대 설립, 한방 첩약 급여화, 비대면 진료 육성입니다.필수 의료 기피 현상과 지역간 의료격차 해소를 위해선 의료 수가 정상화와 지역 내 병원 확충이 선행돼야 한다고 주장하고 잇습니다.반면, 정부는 의대 정원 확대 추진은 어떠한 조건도 걸지 않고 이미 중단된 상태라고 강조했습니다.또 전공의들이 철회를 촉구하는 한방첩약 시범사업, 공공의대 신설 등은 행정부 권한을 벗어난 사안으로 건강보험법 위반, 국회 입법권 관여 등의 문제가 있다고 지적했습니다.그러면서 ""정책 철회 요청이 환자들의 생명과 안전을 위협하는 집단적인 진료 거부까지 강행할 만큼 중요하고 시급한 것인지 재고해 달라""고 말했습니다.이처럼 양측의 입장이 맞서는 가운데 오는 7일 의사협회의 3차 무기한 파업을 앞두고 대화와 공개토론회를 통해 접점을 찾을지 주목됩니다.지금까지 보도국에서 전해드렸습니다.연합뉴스TV 기사문의 및 제보 : 카톡/라인 jebo23(끝)"
6,연합뉴스,"정부 ""의료인 처벌 원치 않는다""…대화·토론회로 풀까","닫기정부 ""의료인 처벌 원치 않는다""…대화·토론회로 풀까[앵커]집단휴진 참여 전공의들을 경찰에 고발한 정부가 처벌을 원치 않는다며 유연한 자세로 대응하겠다는 입장을 밝혔습니다.정부와 전공의단체가 기존 입장을 고수하면서도 대화 의지를 보여 타협점을 찾을 수 있을지 주목됩니다.김장현 기자입니다.[기자]전공의들의 집단휴진 12일째.전공의들이 보건복지부 청사 앞에서 피켓 시위를 벌입니다.전공의와 전임의의 사직서 제출도 이어졌고, 교수들도 전공의들을 지지하고 나섰습니다.집단휴진에 참여한 전공의들을 고발한 정부는 한발 물러섰습니다.의사 국가고시를 일주일 연기한 데 이어 전공의들과 의료정책을 놓고 공개토론을 할 수 있고, 처벌도 원하지 않는다는 입장을 밝혔습니다.<정세균 / 국무총리> ""정부는 단 1명의 의료인도 처벌을 받는 일을 원하지 않습니다. 유연한 자세로 현안을 해결하기 위해서 최선을 다할 생각입니다.""정부는 공개토론 의향도 밝혔는데 전공의협의회는 응할 수 있다는 입장을 내놨습니다.<박지현 / 전공의협의회 비상대책위원장> ""찬반 논란이 있어도 되는 그런 공청회를 매우 환영하는 바입니다. 국민들이 그 과정에서 많은 참여와 관심을 주셨으면 좋겠습니다.""정부와 전공의들의 물밑 대화도 이뤄지고 있습니다.전공의협의회 관계자는 ""아직 협상을 위한 만남은 아니라면서, 일선 전공의들이 정부 정책에 대해 의견을 나누는 자리""라고 말했습니다.다만 정부가 의대 정원 확대, 공공의대 설립 등 4대 의료 정책을 전면 철회하고 원점에서 재논의하는 내용을 문서로 명문화하면 복귀하겠다는 기존 입장은 고수했습니다.이에 정부는 의대 정원 확대 추진은 어떠한 조건도 걸지 않고 이미 중단된 상태라고 강조했습니다.이처럼 양측의 입장이 맞서는 가운데 오는 7일 의사협회의 3차 무기한 파업을 앞두고 대화와 공개토론회를 통해 접점을 찾을지 주목되고 있습니다.연합뉴스TV 김장현입니다.연합뉴스TV 기사문의 및 제보 : 카톡/라인 jebo23(끝)"
7,연합뉴스,"정부 ""국회-의료계 합의하면 존중할 것""","닫기정부 ""국회-의료계 합의하면 존중할 것""정부가 의사단체의 집단휴진 사태와 관련해 국회와 의료계의 논의 결과를 기다리겠다는 입장을 밝혔습니다.손영래 보건복지부 대변인은 오늘(2일) 브리핑에서 ""원만한 결과가 있기를 기대한다""며 ""충분히 합의되는 부분들을 존중할 생각을 갖고 기다리는 중""이라고 말했습니다.더불어민주당 한정애 정책위의장은 어제 최대집 의사협회장과 만나 의대 정원 확대 등의 정책에 대해 ""완전하게 제로 상태에서 논의할 수 있다""고 말했습니다.국회 보건복지위원회 소속 미래통합당 의원들은 전공의협의회에 코로나19 사태가 안정되면 의료정책을 원점에서 재논의하겠다고 약속했습니다.연합뉴스TV 기사문의 및 제보 : 카톡/라인 jebo23(끝)"
8,연합뉴스,의협 오늘부터 2차 총파업…의료 공백 우려,"닫기의협 오늘부터 2차 총파업…의료 공백 우려[앵커]의대 정원 확대 등 정부의 의료정책에 반발하는 대한의사협회가 오늘부터 2차 총파업에 나섭니다.전국 전공의는 엿새째 집단휴진을 하고 있는데요.전임의도 휴진에 적극 참여하고 동네 의원까지 문을 닫으면 진료 공백이 커질 것으로 우려됩니다.보도에 이진우 기자입니다.[기자]개원의로 이뤄진 대한의사협회가 오늘부터 사흘간 2차 총파업을 벌입니다.오전에는 온라인으로 비대면 궐기대회를 엽니다.정부와 의협이 물밑 협상을 이어갔지만 의대 정원 확대와 공공의대 신설 문제 등을 놓고 타협점을 찾지 못한데 따른 것입니다.양측 모두 대화는 계속하겠다는 입장으로, 극적 타결 가능성은 남아있습니다.앞서 지난 14일 의협의 1차 파업 당시 동네의원의 32%가량이 휴진 했는데, 이번 2차 총파업은 참여율이 더 높을 것으로 예상되고 있습니다.여기에 전국 전공의들 가운데 60%가 집단휴진에 참여한 가운데, 전임의들에 이어 동네의원까지 가세하면 파업 규모는 커지게 됩니다.<전임의 관계자> ""(전국 전임의 4,000여명 중 파업 참여자는) 2,400명대로 기억하거든요. (성명서에) 실명을 미처 기재 못한 사람도 있어서 실제 규모는 그보다 훨씬 많을 거라고 생각합니다.""이에 따라 대형 병원들이 수술 일정을 미루거나 외래 예약을 줄이면서 환자들의 피해가 이어지고 있습니다.정부는 이에 대비해 복지부 홈페이지에 '집단휴진 기간 문 여는 병원'을 안내하고 있습니다.홈페이지에 접속하면 가까운 의원을 지도에서 찾을 수 있고, 진료 가능 날짜도 확인할 수 있습니다.정부와 지방자치단체는 환자 불편과 피해를 줄이기 위해 보건소 중심의 비상 의료·진료지원 체계 가동에 나섰습니다.연합뉴스TV 이진우입니다.연합뉴스TV 기사문의 및 제보 : 카톡/라인 jebo23(끝)"
9,연합뉴스,[단독] 합의문 놓고 의료계 진통…의협 vs 전공의 갈등,"닫기[단독] 합의문 놓고 의료계 진통…의협 vs 전공의 갈등[앵커]대한의사협회가 더불어민주당, 보건복지부와 코로나19 사태 안정화 이후 4대 의료정책을 원점에서 재논의하기로 합의했습니다.하지만 대한전공의협의회는 구체적인 합의내용을 듣지 못했다며 반발하고 있습니다.의료계 내부 진통이 그대로 드러난 두 단체 지도부의 통화내용을 입수했습니다.최덕재 기자가 단독 보도합니다.[기자]의사협회가 민주당과 보건복지부와 마련한 합의안에 대해 전공의 단체가 강하게 반발했습니다.대한전공의협의회 비대위를 비롯한 젊은의사 비대위는 절차상 문제를 제기하고 나섰습니다.박지현 대전협 비대위원장은 의협과 민주당의 합의문 서명 직후 최대집 의협 회장에게 전화로 강하게 항의했습니다.<박지현 / 대한전공의협의회 비상대책위원장> ""강행을 하셨더라고요. 밤 늦게까지 만나면서 합의안을 주고 받은 기록이 있는 것으로 알고 있습니다. OOO 이사님 OOO 이사님께서 짜고 이 판을 벌이신건가요.""<최대집 / 대한의사협회장> ""무슨 짜고 이 판을 벌여. 우리가 충분히 안을 반영해서 범투위 회의때 많은 이야기를 나눴잖아. 대전협은, 그쪽 비대위는 원래 갖고 있는 생각을, 갖고 있는 계획이나 그대로 가면 되잖아.""전공의들의 강한 반발 속에 의협과 정부여당간 합의문 서명식 일정에도 일부 차질이 빚어졌습니다.오전 8시 반으로 예정됐던 민주당과 의협간 서명식은 10시가 지나서야 진행됐고 오후 1시로 예정됐던 정부와 의협간 서명식은 전공의들이 현장을 점거해 장소까지 바꿔 진행됐습니다.대전협 박지현 비대위원장은 SNS 라이브를 통해 ""정당한 의사결정을 거쳤다고 해도 비대위에 알려지지 않은채 진행된 합의에 동의할 수 없다""고 밝혔습니다.이어 ""단체행동 중단은 스스로 결정한다""고 밝혔지만 어떤 단체행동을 벌일지 구체적으로 언급하지는 않았습니다.연합뉴스TV 최덕재입니다. (DJY@yna.co.kr)연합뉴스TV 기사문의 및 제보 : 카톡/라인 jebo23(끝)"
10,연합뉴스,"정부 ""처벌 원치 않는다""…복지부·전공의 대화","닫기정부 ""처벌 원치 않는다""…복지부·전공의 대화[앵커]집단휴진에 참여한 전공의들을 경찰에 고발한 정부가 처벌을 원치 않는다며 유연한 자세로 대응하겠다는 입장을 밝혔습니다.오늘 저녁에는 전공의들과 보건복지부 실무진이 비공개 대화를 할 예정입니다.보도국 연결해 봅니다.김장현 기자.[기자]네. 정부가 의사단체의 집단휴진과 관련해 단 1명의 의료인도 처벌 받길 원하지 않는다며 진료에 복귀하고 대화에 나설 것을 촉구했습니다.정세균 국무총리는 오늘 정부서울청사에서 출입기자들과 만나 ""정부는 문제 해결을 위해 유연한 자세로 최선을 다할 생각""이라며 이같이 밝혔습니다.정부가 오늘부터 예정된 의사 국가고시 실기시험을 의대생들의 응시 취소 사태로 일주일 연기한데 이어 유화적인 태도를 보인 건데요.이런 상황에서 오늘 저녁 보건복지부 실무진과 전공의들이 비공개로 만날 예정입니다.전공의협의회 관계자는 이번 만남이 협상을 위한 자리는 아니고, 집행부가 직접 나서 참여하지도 않을 것이라고 말했습니다.일선 전공의들이 의대 증원 등 정부 정책에 대해 의견을 나누는 자리라고 설명했습니다.보건복지부가 어제 의료정책을 놓고 전공들의 공개토론을 할 수 있다고 밝혔는데 전공의협의회가 오늘 기자회견에서 수용 의향을 보였습니다.이에 따라 공개토론회가 성사될 가능성이 커졌습니다.[앵커]전공의협의회와 정부는 아직까지 서로 기존 입장을 유지하고 있죠.[기자]네. 전공의협의회는 정부가 등 4대 의료정책을 전면 철회하고 원점에서 재논의한다는 것을 문서로 명문화 해달라고 요구하고 있습니다.4대 의료정책은 의대 정원 확대와 공공의대 설립, 한방 첩약 급여화, 비대면 진료 육성입니다.필수 의료 기피 현상과 지역간 의료격차 해소를 위해선 의료 수가 정상화와 지역 내 병원 확충이 선행돼야 한다고 주장하고 있습니다.반면, 정부는 의대 정원 확대 추진은 어떠한 조건도 걸지 않고 이미 중단된 상태라고 강조했습니다.또 전공의들이 철회를 촉구하는 한방첩약 시범사업, 공공의대 신설 등은 행정부 권한을 벗어난 사안으로 건강보험법 위반, 국회 입법권 관여 등의 문제가 있다고 지적했습니다.그러면서 ""정책 철회 요청이 환자들의 생명과 안전을 위협하는 집단적인 진료 거부까지 강행할 만큼 중요하고 시급한 것인지 재고해 달라""고 말했습니다.이처럼 양측의 입장이 맞서는 가운데 오는 7일 의사협회의 3차 무기한 파업을 앞두고 대화와 공개토론회를 통해 접점을 찾을지 주목됩니다.[앵커]전공의들의 집단휴진 12일째인데. 교수급 의료진도 동조하는 모습을 보이고 있죠.[기자]네. 전공의들의 집단휴진이 12일째 이어지고 있습니다.보건복지부가 전국 수련기관 200곳 가운데 151곳의 근무 현황을 점검한 결과 어제 기준으로 전공의 7,975명 가운데 83.9%가 근무하지 않은 것으로 파악됐습니다.지난달 28일 휴진 비율 75.8%보다 다소 높아진 겁니다.전임의들의 휴진율은 32.6%로 집계 됐습니다.전공의와 전임의의 사직서 제출도 이어지고 있습니다.서울대병원 전공의협의회는 어제 기준 소속 전공의 953명 중 93.9%가명, 전임의 281명 중에는 87.9%가 사직서 제출에 참여했다고 밝혔습니다.교수급 의료진도 전공의들의 단체행동을 지지하는 모습입니다.서울성모병원 외과 교수들이 오는 7일 하루 응급환자, 중환자, 입원환자 진료를 제외한 외래 진료와 수술을 중단한다고 밝혔고,같은 병원 소아청소년과 교수들도 ""전공의 중 단 한 명이라도 불이익을 당하는 경우 사직을 포함한 모든 단체 행동을 마다하지 않겠다""는 의견문을 냈습니다.가톨릭중앙의료원은 산하 8개 병원은 공동 성명에서 전공의와 전임의를 지지한다며, 부당한 행정처분이나 공권력 집행을 중단하라고 촉구했습니다.중앙대병원 신경외과 교수들은 '사직 성명서'를 통해 ""부당하고 일방적인 정부 정책이 철회되고 전공의들에 대한 고발이 취소되는 순간까지 전공의와 함께 할 것""이라고 밝혔습니다.지금까지 보도국에서 전해드렸습니다.연합뉴스TV 기사문의 및 제보 : 카톡/라인 jebo23(끝)"
11,연합뉴스,당정-의협 협상 타결·서명…전공의 반발,"닫기당정-의협 협상 타결·서명…전공의 반발[앵커]의료정책을 놓고 갈등을 빚은 정부·여당과 의사협회의 협상이 타결됐습니다.합의문 서명도 마쳤는데요.보도국 연결해 자세히 알아봅니다.김장현 기자.[기자]네. 박능후 보건복지부 장관과 최대집 의협회장은 조금 전인 오후 2시40분쯤 정부서울청사에서 합의문에 서명했습니다.당초 오전 11시 예정된 서명식을 오후 1시로 늦춰 서울 중구의 한국건강증진개발원에서 하기로 했는데요.하지만 이번 합의가 졸속이라고 반발하는 전공의 70~80명이 서명식 장소로 몰리자 다시 정부서울청사로 변경했습니다.이에 앞서 한정애 더불어민주당 정책위의장과 최 회장은 오전 10시쯤 여의도 민주당사에서 합의문 서명식을 가졌습니다.의협은 어제 오후 젊은의사 비대위 등과 함께 회의를 열고, 단일 요구안을 도출해 여당 및 정부와 협상에 나섰습니다.밤샘 협상 끝에 극적 타결을 했습니다.[앵커]당정과 의협의 구체적인 합의 내용도 전해주시죠.[기자]네, 보건복지부는 의대 정원 확대, 공공의대 신설 추진을 중단하고 코로나19 안정화 이후 모든 가능성을 열어놓고 의사협회와 협의하기로 했습니다.이 경우 의협과 민주당의 정책 협약에 따라 구성되는 국회 협의체 논의 결과를 존중하고, 의대정원 통보 등 일방적 정책 추진을 강행하지 않기로 합의했습니다.또 지역의료지원책 개발, 필수의료 육성과 지원, 전공의 수련환경 개선 등을 의제로 하는 의정협의체를 만들기로 했습니다.복지부와 의료계는 의협이 문제를 제기하는 4대 정책의 발전적 방안을 협의체에서 논의한다는 내용을 합의문에 담았습니다.4대 정책은 의대 증원, 공공의대 신설, 한방첩약의 보험급여화 시범사업, 비대면 진료입니다.의협은 집단행동은 중단하고 진료현장에 복귀하기로 했습니다.앞서 민주당과 의협이 서명한 합의문에는 의대 정원 확대 등은 코로나 사태가 안정될 때까지 논의를 중단하고 이후 원점에서 재논의한다는 비슷한 내용이 담겼습니다.민주당은 관련 논의 중에는 입법 추진을 강행하지 않기로 했습니다.[앵커]의협은 협상 타결과 서명식 직후 진료 복귀를 선언했지만 15일째 집단휴진을 하고 있는 전공의들이 반발하고 있다고요.[기자]네. 최대집 의협 회장은 오늘 오전 여의도 민주당사에서 합의문 서명식을 마친 뒤 기자들에 ""더 이상의 집단행동이 있어서는 안 된다""며 ""이제는 진료 현장으로 복귀해야 한다""고 밝혔습니다.의협이 다음주 월요일 예고한 3차 무기한 파업은 철회할 것으로 보입니다.하지만 전공의들의 반발 목소리가 나오고 있습니다.전공의들은 지난달 21일 이후 15일째 집단휴진을 하고 있는 상황인데요.의대 증원 등 의료정책의 철회를 요구하고 있습니다.전공의협의회와 전임의단체, 의대생들이 참여한 '젊은의사 비상대책위원회는 의협 회장이 독단적으로 결정해 절차적 문제가 있다며 최종 합의에 이른 것은 아니라는 입장을 보였습니다.최대집 의협 회장은 대회원 담화문을 통해 정부의 전공의 고발 조치를 거론하며 ""이제 조건 없는 복귀와 구제가 가능해지는 만큼, 선배들을 믿고 진료현장으로 돌아가달라""고 당부했습니다.하지만, 전공의들이 집단휴진을 중단할지는 불투명한 상황입니다.정부는 지난 1일 예정된 의사 국가고시 실기시험을 응시 의대생들의 대거 취소로 오는 8일로 연기했는데요.응시를 취소한 의대생들은 오늘 오후 6시까지 한국보건의료인 국가시험원에 응시 의사를 다시 밝히면 시험을 볼 수 있는데, 얼마나 응시할지, 시험이 제대로 치러질지 미지수입니다.지금까지 보도국에서 전해드렸습니다.연합뉴스TV 기사문의 및 제보 : 카톡/라인 jebo23(끝)"
12,연합뉴스,전공의 오늘부터 복귀…의사시험 거부 의대생 '불씨',"닫기전공의 오늘부터 복귀…의사시험 거부 의대생 '불씨'[앵커]전공의들의 진료 복귀가 오늘 아침부터 시작됐습니다.하지만 일부 병원의 전공의들은 단체행동을 계속하고 있습니다.서울대병원에 나가 있는 취재기자 연결해 알아보겠습니다.이진우 기자.[기자]네, 서울대병원 앞에 나와 있습니다.이 병원을 포함해 집단휴진에 참여한 전공의들이 오늘 오전 7시부터 업무에 복귀하고 있습니다.의대 증원 등 정부의 4대 의료정책에 반발해 집단휴진에 들어간지 19일 만인데요.전공의협의회가 단체행동 수위를 1단계로 낮추며 진료 복귀를 결정한 데 따른 것입니다.집단휴진에 참여한 전임의들도 진료 현장으로 돌아가고 있습니다.하지만, 병원마다 복귀 상황은 다릅니다.이곳 서울대병원과 서울아산병원, 삼성서울병원 전공의들은 모두 업무에 복귀하고 있습니다.서울성모병원 등 가톨릭중앙의료원 산하 8개 병원 전공의들도 복귀하기로 했습니다.하지만 일부 병원에선 정부의 4대 의료정책 철회 때까지 단체행동을 계속해야 한다는 움직임이 있습니다.또 전공의들이 내부적으로 복귀 시점을 아직 정하지 못한 병원도 있습니다.또 아주대병원과 전남대병원, 경북대병원 등 10여개 병원의 전공의들은 집단휴진을 계속하고 있습니다.세브란스병원의 경우 진료과마다 의견이 갈리고 있는데, 일부 전공의들은 복귀를 준비하고 있습니다[앵커]전공의들은 주로 대학병원에 근무하는데, 진료 정상화에는 시간이 걸릴 것으로 보인다고요?[기자]네, 그렇습니다.일부 병원에선 전공의들이 코로나19 진단검사를 받고 음성 판정이 나와야 실제 업무에 투입할 계획입니다.검사 결과가 나오려면 하루 정도 시간이 걸립니다.또 집단휴진 기간에 연기한 입원이나 수술 일정을 재조정하는 데도 시간이 필요합니다.수술이나 입원의 경우 정상화하는데 2주일이나 그 이상이 걸릴 수 있을 것으로 병원들은 보고 있습니다.다만, 외래진료는 전임의들의 복귀까지 더해지면서 이곳 서울대병원을 비롯해 대부분 병원에서 좀 더 빠르게 정상화될 것으로 보입니다.[앵커]집단휴진 사태는 일단락되는 모습이지만 의대생들의 의사 국가고시 시험 거부가 새로운 불씨가 되고 있다고요?[기자]네, 오늘부터 내년도 의사 국가고시 실기시험이 시작됐습니다.정부가 그제까지 응시 시간을 연장했는데, 응시 대상 의대생 3,172명 가운데 14%만 신청했습니다.86%가 시험을 거부한 건데요.의사협회는 응시 거부자에 대한 구제를 정부에 요구하고 있습니다.전공의협의회는 2주 안에 구제하지 않으면 다시 집단휴진에 나설 수 있다는 입장까지 밝혔는데요.하지만 정부는 이미 한차례 응시 기간을 연장했고, 다른 국가시험과의 형평성 문제도 있다며 추가 접수 계획이 없다는 입장을 오늘 재차 밝혔습니다.의료정책을 둘러싼 의·정 갈등이 완전히 봉합되기도 전에 또 다른 갈등이 불거지는 모습입니다.지금까지 서울대병원에서 연합뉴스TV 이진우입니다. (jinu@yna.co.kr)연합뉴스TV 기사문의 및 제보 : 카톡/라인 jebo23(끝)"
13,연합뉴스,의정합의 '후폭풍'…전공의 진료복귀 여부 조만간 결정,"닫기의정합의 '후폭풍'…전공의 진료복귀 여부 조만간 결정[뉴스리뷰][앵커]정부·여당과 의사협회가 주요 의료정책 원점 재논의와 진료 현장 복귀에 합의했지만 후폭풍이 이어지고 있습니다.전공의들의 진료 복귀는 아직 불투명하고 의료계 내부에서도 반발의 목소리가 나옵니다.이동훈 기자입니다.[기자]서울의 한 대학병원 앞.연일 정부 의료 정책에 반대하며 피켓 시위를 하던 전공의들이 모습을 감췄습니다.하지만 이들이 언제 진료 현장으로 돌아올지는 아직 불투명한 상태입니다.전공의협의회 비상대책위원회는 입장문을 통해 ""현재 합의문에는 전공의, 의대생의 보호에 대한 언급이 없다""며 ""전공의, 의대생이 피해를 보는 상황에서 단체 행동을 멈출 수 없다""고 밝혔습니다.정부·여당과 의사협회가 의대 증원과 공공의대 신설 추진을 중단하고 원점에서 재논의하기로 합의했지만 자신들의 요구 수준에 못 미친다는 겁니다.젊은의사비대위는 각 수련병원 전공의 대표들의 의견을 모아 조만간 파업 중단 여부를 포함해 향후 계획을 결정할 예정입니다.정부는 의협과의 합의 직후 업무개시명령을 어긴 전공의 6명에 대한 경찰 고발을 취소하며 전공의들의 조속한 진료 복귀를 촉구했습니다.한편 이번 합의 과정과 내용을 놓고 의료계 내부의 반발이 나오고 있습니다.보건의료노조는 의·정 합의에 대해 시민을 배제하고 의사단체의 요구만 들어줬다며 공공의료 개혁을 포기한 것이라고 비판했습니다.<나순자 / 전국보건의료산업노동조합 위원장> ""보건의료 제도의 전반적인 문제를 논의하기로 했는데 이런 문제를 의사들하고만 논의한다라는 건 더욱 더 문제가 된다…""간호협회는 의정협의체 대신 범국민 논의기구를 구성해 의료정책을 논의해야 한다고 주장했습니다.강대강 대립으로 치닫던 정부와 의사단체가 극적 합의를 이뤘지만, 진통은 계속되고 있습니다.연합뉴스TV 이동훈입니다.연합뉴스TV 기사문의 및 제보 : 카톡/라인 jebo23(끝)"
14,연합뉴스,"의사단체, 중재안 수용 여부 논의…의·정 갈등 기로","닫기의사단체, 중재안 수용 여부 논의…의·정 갈등 기로[앵커]정부 의료정책에 반발하는 의사단체들이 국회 중재안을 받아들일지, 추가 요구를 할지 내부 논의에 나섰습니다.의사협회 회관에 나가 있는 취재기자 연결해 자세한 내용 알아봅니다.김장현 기자.[기자]네, 서울 용산구 의사협회 회관에 나와 있습니다.잠시 후 오후 1시 30분부터 '범의료계 4대악 저지투쟁 특별위원회' 회의가 이곳에서 시작됩니다.오늘 회의에서는 집단휴진 사태를 해결하기 위해 국회가 제시한 중재안을 논의합니다.범투위는 의사협회를 중심으로 전공의, 전임의, 의과대학생으로 꾸려진 젊은의사 비상대책위원회 등이 참여하고 있습니다.의협은 모든 직역 의사가 참여하는 이번 회의를 통해 국회 중재안을 받아들일지, 수정안을 제시할지 결론을 내릴 방침입니다.14일째 집단휴진을 벌이는 전공의협의회가 오늘 범투위 회의 결정에 따르겠다는 입장을 내놓은 것으로 알려져 회의 결과에 더 관심이 쏠리고 있습니다.오늘 회의에서 단일 협상안이 도출되면 국회와 다시 대화 테이블에 앉을 것으로 보입니다.[앵커]의사들의 집단휴진 사태까지 벌어진 의·정 갈등이 기로에 선 모습인데요.어떤 상황인지 전해주시죠.[기자]네. 정부와 의사단체와 대치 국면이 국회 중재로 풀릴지 주목되고 있습니다.더불어민주당 한정애 정책위의장은 그젯밤 최대집 의협회장과 박지현 전공의협의회 비상대책위원장을 연이어 만나 의대 정원 확대 등 4대 의료정책을 원점에서 논의할 수 있다고 밝혔습니다.한 의장은 이를 문서로 명문화 가능성도 열어뒀는데, 의사단체가 긍정적인 반응을 보인 겁니다.한 의장과 의협은 의대정원 확대와 공공의대 설립 문제 등을 국회 협의체를 통해 논의하는데 공감대를 확인했습니다.국회 보건복지위원회 소속 국민의힘 의원들도 의료정책 원점 재논의를 약속한 상태입니다.이런 가운데 보건복지부는 국회와 의사단체의 합의 결과가 나오면 최대한 존중하고 이행 노력을 최대한 할 것이라고 밝혔습니다.복지부는 현재 의대 증원은 이미 추진이 완전히 중단된 상태이고, 공공의대 설립은 국회 입법 사안이라며 한발 물러선 상황입니다.의사단체들이 오늘 회의에서 국회 중재안을 전향적으로 받아들일지, 추가 요구를 한다면 어떤 수준이 될지, 아니면 전면 철회 입장을 고수할지가 관건인데요.다음주 월요일 의협이 예고한 3차 무기한 파업을 앞두고 의·정 갈등과 이로 인한 집단휴진 사태가 돌파구를 찾을지, 장기화할지 기로에 섰습니다.지금까지 의협 회관에서 전해드렸습니다.연합뉴스TV 기사문의 및 제보 : 카톡/라인 jebo23(끝)"
15,연합뉴스,'집단휴진' 전공의 내일 오전 7시 진료 복귀,"닫기'집단휴진' 전공의 내일 오전 7시 진료 복귀[앵커]집단휴진을 하고 있는 전공의들이 내일 아침부터 진료 업무에 복귀하기로 했습니다.전임의들도 복귀하면서 대형 병원들의 진료가 정상화 수순을 밟고 있습니다.보도국 연결해 자세한 내용 알아보겠습니다.김장현 기자.[기자]네, 전공의협의회가 내일 오전 7시 진료에 복귀하기로 했습니다.지난달 21일부터 18일째 이어지고 있는 전공의들의 집단휴진이 끝나게 됐는데요.전공의협의회 비상대책위원회는 오늘 오후 전체 전공의를 대상으로 온라인 간담회를 열고 단체행동을 1단계로 낮추겠다고 밝혔습니다.1단계는 전공의 전원이 업무에 복귀하고 병원별 비상대책위원회를 유지하는 겁니다.전공의 비대위가 어제 대의원 총회에서 단체행동을 잠정 중단하고 1인 시위만 하기로 의결하면서 당초 오늘부터 진료 업무에 복귀할 것으로 예상됐습니다.하지만 의대 증원 등 4대 의료정책의 철회 없이는 파업을 중단할 수 없다는 일부 전공의와 의대생들의 반발에 복귀가 미뤄졌고 오늘 간담회도 열렸습니다.집단휴진에 참여해온 일부 전임의들도 필수 진료과를 중심으로 업무에 복귀했거나 복귀 준비를 하고 있습니다.이에 따라 집단휴진 사태가 일단락되면서 내일부터 대형 병원들의 진료가 정상화될 것으로 보입니다.그동안 대형 병원들은 외래 진료와 신규 환자 입원, 수술 일정 등을 줄이고 교수진을 투입하는 방식으로 전공의들의 공백을 메워왔습니다.[앵커]하지만 의대생협의회는 의사 국가고시를 계속 거부하기로 했고 실제 응시율도 낮다고 하는데, 관련 소식도 전해주시죠.[기자]네, 정부는 의사 국가고시 실기시험을 지난 1일부터 실시할 예정이었지만 의대생 90%가량이 응시를 취소하자 1주일 연기하고 어제 자정까지 재신청을 받았는데요.모두 3,172명의 시험 대상자 가운데 446명만 응시해 14%의 응시율을 보인 것으로 집계됐습니다.86%는 시험을 거부한 건데요.의대생협회가 의료정책과 관련해 정부·여당과 의사협회의 합의 과정에서 전공의와 의대생들 의견이 배제됐다고 반발하며 시험을 계속 거부하기로 했기 때문입니다.정부는 응시기간 재연장 등 추가 접수는 없다고 못 박았습니다.이에 대해 의사협회는 의대생들의 시험 거부는 일방적 의료정책에 대한 정당한 항의라며 구제 대책을 마련할 것을 요구했습니다.의협은 지난 4일 정부·여당과 한 합의는 의대생과 전공의, 의사 회원에 대한 완벽한 보호와 구제를 전제로 성립될 것이라며 이런 전제가 훼손되면 합의 역시 더 이상 의미를 갖지 못할 것이라고 밝혔습니다.전공의협의회는 2주일 안에 의대생에게 재응시 기회를 주는 등 구제 조치를 하지 않으면 단체행동 수위를 높일 것이라고 말했습니다.다시 진료 중단에 나설 수 있다는 겁니다.한편 낮은 시험 응시율 때문에 내년 인턴 수급이나 군의관과 공중보건의 모집에 차질이 생길 수 있다는 우려가 나오자 정부는 크게 차질을 빚을 정도는 아니라며 필요한 대책을 마련할 것이라고 밝혔습니다.지금까지 보도국에서 전해드렸습니다.연합뉴스TV 기사문의 및 제보 : 카톡/라인 jebo23(끝)"
16,연합뉴스,"전공의 복귀…정부 ""국시 거부 의대생 구제 없다""","닫기전공의 복귀…정부 ""국시 거부 의대생 구제 없다""[앵커]전공의들의 진료 복귀가 오늘 아침부터 시작됐습니다.집단휴진 사태가 일단락되는 모습이지만, 의대생들의 의사 국가고시 시험 거부가 새로운 불씨가 되고 있습니다.보도에 이진우 기자입니다.[기자]집단휴진에 참여한 전공의들이 오늘 오전 7시부터 업무에 복귀하고 있습니다.의대 증원 등 정부의 4대 의료정책에 반발해 집단휴진에 들어간지 19일 만입니다.병원마다 복귀 상황은 다릅니다.서울대병원과 세브란스병원, 서울아산병원, 삼성서울병원, 서울성모병원 전공의들은 업무에 복귀했거나 복귀하고 있습니다.반면 아주대병원과 전남대병원, 경북대병원 등 10여개 병원의 전공의들은 집단휴진을 계속하고 있습니다.복귀를 하지 않은 병원의 경우엔, 정부의 4대 의료정책 철회 때까지 단체행동을 계속하겠다는 입장이거나 아직 내부적으로 복귀 시점을 정하지 못한 겁니다.전공의들이 복귀한 병원의 경우 입원이나 수술 일정을 재조정할 시간이 필요한 만큼 완전히 정상화하는데 2주일이나 그 이상이 걸릴 것으로 보입니다.하지만 진료 정상화에 변수가 있습니다.오늘 새로 출범한 전공의협의회 비상대책위원회가 전임 비대위의 업무 복귀 결정에 대해 이의를 제기하고 있는 만큼, 단체행동 방향이 다시 바뀔 수 있는 상황입니다.특히 정부 의료정책에 반발하는 의대생들의 의사 국가고시 시험 거부 사태로 의·정 갈등이 다시 불거지고 있습니다.오늘부터 내년도 의사 국가고시 실기시험이 시작됐는데, 응시 대상 의대생의 86%가 정부의 접수기간 연장에도 응시를 하지 않은 겁니다.의사협회와 전공의협의회는 응시 거부자 구제를 정부에 요구하고 있습니다.응시 거부자가 불이익을 받을 경우 다시 단체행동에 나설 수 있다는 입장까지 보이고 있습니다.이에 대해 정부는 다른 국가시험과의 형평성 문제를 들어 추가 접수 등 구제 계획이 없다고 재차 밝혔습니다.연합뉴스TV 이진우입니다. (jinu@yna.co.kr)연합뉴스TV 기사문의 및 제보 : 카톡/라인 jebo23(끝)"
17,연합뉴스,"전공의 파업 11일째…환자단체 ""치료부터 정상화를""","닫기전공의 파업 11일째…환자단체 ""치료부터 정상화를""[앵커]전국 전공의들의 집단휴진 11일째입니다.의료계 원로와 국회도 중재에 나섰지만, 전공의협의회가 파업을 계속 강행하면서 진료 차질 장기화가 우려되고 있습니다.환자단체들은 조속한 치료 정상화를 촉구했습니다.김장현 기자입니다.[기자]전국 수련병원 전공의들의 무기한 집단휴진이 11일째 이어지고 있습니다.의료계 원로와 국회 보건복지위원장까지 나섰지만, 전공의협의회는 정부가 의사정원 확대와 공공의대 신설 등 4대 의료정책의 전면 철회를 요구하며 집단휴진을 지속하고 있습니다.이에 대해 정부는 정책 추진을 강행 않기로 몇 차례 양보했는데도 집단휴진을 계속하면 환자의 생명과 안전이 위험해지고 코로나19 대응에도 차질을 빚을 것이라며 진료 복귀를 거듭 촉구했습니다.정부는 전공의들이 응급실과 중환자실을 중심으로 진료복귀 명령을 이행하는지 3차 현장조사를 벌이고 있습니다.주요 대학병원들은 의료진이 부족해지자 외래 진료와 수술을 줄이고 있는데, 그 피해는 환자들에게 돌아가고 있습니다.서울대병원은 앞으로 일주일간 내과 외래진료를 축소한다고 밝혔습니다. 서울성모병원 외과 교수들은 다음 달 7일 하루 동안 응급환자와 중환자, 입원환자 진료를 제외한 외래 진료와 수술을 중단하기로 했습니다.6개 환자단체는 전공의협의회 비상대책위원장에게 공개서한을 보내 ""환자들의 피해와 불편이 생명을 위협하는 심각한 수준에 이르렀다""며 정부와 의사는 충돌을 멈추고 환자 치료부터 정상화할 것을 요청했습니다.정부는 집단휴진 피해신고 지원센터를 가동해 환자 피해 신고를 받고 대체 진료 병원을 안내하고 있습니다.상당수 의대생도 집단휴진에 참여한 전공의과 전임의의 입장에 동조하는 가운데, 정부는 내일부터 시작할 계획이던 내년도 의사국가시험 실기시험을 1주일 연기하기로 했습니다.정부는 응시 취소자가 전체 응시자 3,172명의 90%에 달해 내년 의료인력 수급 차질이 우려되고, 의료계도 시험 연기를 요청하자 이같이 결정했습니다.연합뉴스TV 김장현입니다.연합뉴스TV 기사문의 및 제보 : 카톡/라인 jebo23(끝)"
18,연합뉴스,"[현장연결] 정부 ""국민 생명 위협받아선 안돼…의료계, 소명 기억해달라""","닫기[현장연결] 정부 ""국민 생명 위협받아선 안돼…의료계, 소명 기억해달라""정부의 의대 정원 확대 계획에 반발하고 있는 대한의사협회가 내일(14일) 파업을 예고했죠.정부가 이와 관련해 대국민 담화문을 발표합니다.현장 연결합니다.[박능후 / 보건복지부 장관]존경하는 국민 여러분!의사협회가 14일 집단휴진을 결행하겠다는 발표를 하였으며 이에 따라 국민들께 걱정과 불편을 끼쳐 드리게 되어 진심으로 송구스럽습니다. 정부는 그동안 의대 정원 확대에 대한 의사단체의 반발을 대화와 협의로 풀기 위해 지속해서 노력하였습니다. 의사협회가 제안한 협의체를 즉시 수용하였고, 의사협회가 중대한 문제로 지적한 지역과 필수 부문의 의사 배치를 활성화할 수 있는 정책들을 함께 논의하자고 거듭하여 제안하였습니다. 이러한 모든 대화 노력에도 불구하고 의사협회가 14일 집단휴진을 결정한 것에 대해 정부는 안타깝고 유감스럽게 생각합니다.코로나19가 지속하고 수해 피해까지 겹쳐 국민들의 어려움이 가중된 상황에서 집단휴진이라는 또 다른 걱정을 끼쳐 드리게 되어 국민들께도 송구하다는 말씀을 드립니다. 의대 정원 문제는 정부와 논의해야 할 의료제도적인 사안으로, 치료를 받아야 하는 환자와 아무 관련이 없는 문제입니다. 환자들의 생명과 안전에 위험이 초래될 수 있는 진료 중단을 통해 요구사항을 관철하려는 행동은 국민들의 신뢰와 지지를 얻기 힘들 것입니다. 이러한 방식은 의사 본연의 사명에도 위배된다는 사실을 유념해 주시고 의사협회는 환자들의 희생을 담보로 한 극단적인 방식을 자제해 줄 것을 요청합니다. 특히 촌각을 다투는 위급한 환자가 있는 응급실, 중환자실 등에 진료 공백이 발생해서는 안 될 것입니다. 정부는 의사협회에 다시 한번 대화로 문제를 해결할 것을 강력히 촉구합니다. 마지막까지도 대화의 문은 열려있으며, 언제라도 의사협회가 협의의 장으로 들어오겠다고 한다면 환영하겠습니다.존경하는 국민 여러분, 존경하는 의료인 여러분!정부와 의사협회가 지향하는 목표는 큰 차이가 없습니다. 의사협회를 비롯한 의사단체들은 지역 의료격차를 해소하고 의료 전달체계를 개선할 것을 요구하고 있으며, 정부도 이에 대해 뜻을 같이하고 있습니다. 정부는 단순히 의사의 수를 확충하는 것이 아니라 필요한 지역에, 필요한 진료과목에 의사 정원을 배치할 것이며 질 높은 교육을 받을 수 있도록 교육과 수련 환경을 함께 개선할 것입니다. 지역에서 의사들이 계속 일할 수 있는 여건을 조성하기 위하여 지역별 우수병원을 지정, 육성하고 지역 가산 등 건강보험 수가 가산을 포함한 다양한 재정적, 제도적 지원방안을 도입할 것입니다. 이러한 정책을 통해 정부는 출산이 임박한 산모가 산부인과가 없어 먼 다른 지역으로 넘어가지 않도록 산부인과를 배치하고 지원할 것입니다. 응급실이 없어 1시간 넘게 이송하다 생명을 잃지 않도록 지역 응급의료기관을 확충할 것입니다. 간단한 맹장 수술도 먼 길을 넘어 대도시 큰 병원을 찾아가야 하는 문제를 해결하겠습니다. 일정 규모 이상의 진료권마다 훌륭한 지역병원을 육성할 것입니다.감염병에 대응할 의사, 의공학을 연구할 의사 등 국민의 건강과 나라의 발전을 위해 꼭 필요한 인재들을 키울 것입니다. 이러한 지역 의료격차 해소방안에 대하여 의사단체, 병원계, 간호계 등 의료계와 논의를 거쳐 조속한 시일 내에 확정하고 발표할 계획입니다. 의대 정원 확대에 대해서는 의사협회와 정부의 의견이 다르지만, 이는 의료계 내에서도 다양한 의견들이 엇갈리는 문제입니다. 이러한 견해차로 그동안 의료계와 정부는 의사 인력 확충에 대해 오랜 기간 논의만 하고 한 발짝도 내딛지 못했습니다.이제는 의료계와 정부가 함께 대화와 소통을 통해 해결방안을 모색하고 보건의료체계를 한단계 더 발전시키는 한 걸음을 나아가기를 희망합니다. 정부는 지난 11일 전공의협의회와 만나 전공의 수련환경 개선에 대한 심도있는 논의를 하였고 병원협회, 중소병원협회, 간호협회 등과도 간담회를 하며 의료인력 확충에 대한 의견을 수렴하였습니다.앞으로도 정부는 의료계와 계속 소통하며 함께 지혜를 모아 나가겠습니다. 의사협회와의 소통 노력도 계속 기울일 것입니다. 서로 간에 목표와 필요한 정책수단들이 크게 다르지 않기에 의사협회와도 발전적인 방향으로 상생할 수 있는 논의를 할 수 있을 것이라고 믿습니다.존경하는 국민 여러분,정부는 의사협회의 집단휴진으로 국민께 불편이 발생하지 않도록 준비를 철저히 하고 있습니다. 병원협회 등에 24시간 응급실을 운영하고, 휴진 당일 진료 연장과 주말 진료가 이루어지도록 조치하였고 보건복지부 차관이 어제 병원협회와 중소병원협회를 직접 만나 협조를 당부하였습니다. 또한, 휴진 당일 진료를 하는 의료기관을 보건복지부, 건강보험공단, 건강보험심사평가원, 각 시·도 홈페이지에 게시할 예정이며 응급의료 포털과 애플리케이션(앱)을 통해 응급 진료상황을 확인할 수 있도록 하겠습니다. 복지부와 시도에 24시간 비상 진료상황실을 마련하여 긴급상황에 대비할 수 있도록 하겠습니다. 만약 일부 지역별로 휴진하는 의료기관이 많아 국민들의 생명과 안전에 피해가 발생할 것으로 예측되는 경우에는 해당 지역의 보건소가 업무 개시 명령을 발동하도록 조치하였으며 진료 공백이 발생하지 않도록 최선을 다하겠습니다. 특히, 응급실, 중환자실 등 위중한 환자들에게 피해가 발생하지 않도록 철저히 주의하겠습니다.정부는 의사협회의 집단휴진 과정에서 불법적인 행위로 환자의 건강과 안전에 위해가 생긴다면 법과 원칙에 따라 대응할 것입니다. 어떤 경우에도 국민의 생명이 위협받아서는 안 되며 특히, 아픈 환자들에게 피해가 생겨서는 안 될 것입니다. 의사협회도 국민의 건강과 생명을 최우선으로 하는 숭고한 소명을 다시 한번 기억해주시기 바랍니다. 정부는 앞으로도 언제든지 보건의료 발전을 위해 의료계와 긴밀히 협의해 나가겠습니다. 의사협회는 정부의 진정성을 믿고 오늘이라도 대화의 장으로 나와 합리적으로 문제를 해결해 나갈 것을 다시 한번 요청합니다.연합뉴스TV 기사문의 및 제보 : 카톡/라인 jebo23(끝)"
19,연합뉴스,[이슈워치] 전공의 복귀에 진료 정상화…의사 국시 불씨는 여전,"닫기[이슈워치] 전공의 복귀에 진료 정상화…의사 국시 불씨는 여전<출연 : 이진우 연합뉴스TV 경제부 기자>[앵커]집단휴진을 이어온 전공의들이 어제부터 복귀하기 시작하면서 진료업무가 서서히 정상화하고 있습니다. 병원들은 수술 예약을 다시 받고 있고, 외래 진료도 정상화를 준비하고 있는데요. 스튜디오에 경제부 이진우 기자 나와있습니다. 이 기자 병원 상황부터 전해주시죠.[기자]네. 어제 아침이죠. 7시부터 서울대병원과 서울아산병원 등 서울의 주요 대형병원을 중심으로 전공의들이 업무에 복귀하기 시작했습니다. 의대 정원 등 정부의 4대 의료정책에 반발하며 집단 휴진을 벌여온지 19일만인데요. 어제만해도 모든 병원이 다 복귀를 결정한 건 아니었습니다. 전남대, 조선대병원 등 지역의 10여개 병원의 전공의들은 집단휴진을 계속했는데요. 새롭게 꾸려진 전공의협의회 비상대책위원회가 어제 저녁 회의에서 모두 복귀를 결정하면서 나머지 병원들도 오늘 오전 7시부터 복귀하고 있습니다.[앵커]전공의들의 복귀에도 곧바로 진료가 정상화되는 건 아니고, 시간이 좀더 필요하다고요?[기자]네, 그렇습니다. 전공의들이 이렇게 돌아와도 진료가 완전히 정상화하기까지는 시간이 좀 더 걸립니다. 우선 집단휴진 기간에 줄여온 입원이나 수술 일정을 재조정할 시간이 필요하기 때문인데요. 의료계는 앞서 전임의들이 먼저 돌아와 외래 진료는 거의 정상화했지만, 수술 일정까지 완전히 정상화하려면 2주일이나 그 이상이 걸릴 것으로 보고 있습니다.[앵커]집단휴진 사태는 일단락되는 모습이지만 의대생들의 의사 국가고시 시험 거부가 새로운 불씨가 되고 있다고요?[기자]네, 그렇습니다. 병원들은 전공의들의 복귀에 일단 한숨 돌린 상태인데요. 하지만 정부 의료정책에 반발하는 의대생들의 의사 국가고시 거부는 계속되고 있습니다. 어제부터 이미 의사 국가고시 실기시험이 시작됐는데요. 표를 보시면 정부가 한 차례 접수기간을 연장해줬는데도 응시 대상 3,172명 가운데 446명만 응시했습니다. 시험 대상 의대생 86%가 응시하지 않은 겁니다.문제는 의사협회와 전공의협의회가 응시 거부자 구제를 정부에 요구하고 있다는 겁니다. 응시 거부자가 불이익을 받을 경우 다시 단체행동에 나설 수 있다는 입장까지 보이고 있습니다.[앵커]그런데 의사 국시 응시 기한은 이미 한 차례 연장해줬죠. 다른 국가고시와의 형평성 문제도 있지 않습니까. 정부 입장은 어떻습니까.[기자]네. 정부는 의대생 국시와 관련해 또다시 기회를 줄 수는 없다는 입장을 고수하고 있습니다. 우선 의대생들이 응시를 하지 않았는데 정부가 시험부터 준비할 수는 없기 때문인데요. 오늘 오전 중앙재난안전대책본부 브리필 내용 잠시 보시겠습니다.<손영래 / 중앙사고수습본부 전략기획반장> ""의대생들은 현재 국가시험을 스스로 거부하고 있는 상황이고, 이러한 상황에서 국가시험의 추가적인 기회를 부여할 것인지 논의하는 것 자체의 필요성이 떨어진다고 보고 있습니다.""정부는 또 국가시험은 수많은 직종과 자격을 준비하는 사람들이 치르고 있어 국가시험의 추가 접수는 형평과 공정에도 위배된다고 설명했는데요. 이러한 부분들에 대한 국민들의 동의가 선행되지 않는다면 정부도 쉽게 결정할 수 있는 문제는 아니라고 선을 그었습니다.[앵커]국민들 여론도 궁금합니다. 의대생들에 국시 기회를 주는 데 반대하는 청와대 청원이 48만명을 넘었다고요?[기자]네. 그렇습니다. 의사 국가고시 응시를 취소한 의대생을 구제하지 말아달라는 내용의 청와대 국민청원은 현재까지 48만명의 동의를 얻었습니다. 또 국민 중 절반 이상은 의사고시 거부자 구제에 반대한다는 여론조사도 나왔는데요.리얼미터가 어제 전국 18세 이상 500명을 대상으로 실시한 조사에서 의대생 구제에 반대한다는 응답은 52.4%에 달했습니다. 찬성은 32.3%에 불과했는데요. 이번 조사의 표본오차는 95% 신뢰수준에서 ±4.4%포인트로, 자세한 내용은 리얼미터 홈페이지에서 확인하실 수 있습니다.의대생들 사이에서도 의사 국시와 관련해 의견이 엇갈리고 있습니다. 앞서 서울대 의대 학생회가 재학생을 대상으로 실시한 설문조사에서, 10명중 7명 정도가 국시 응시 거부에 반대했습니다.사실상 국시 거부 철회 쪽 의견이 많다는 게 의료계 안팎의 분석인데요. 서울대 의대 학생회의 별도 입장을 낼지는 좀 더 지켜봐야할 것으로 보입니다. 의료계에서는 서울대 의대를 시작으로 다른 의대에서도 비슷한 움직임이 나올 수 있다는 관측도 나오고 있는 상황입니다.[앵커]문제는 이렇게 의대생들이 올해 국시를 보지 않게 되면, 내년도 군의관이나 공중보건의사 수급에 차질을 빚는 게 아니냐는 지적도 있는데요. 이 문젠 어떻습니까.[기자]네, 특히 공중보건의사들은 지역 보건소나 섬 등에서 복무하는 경우가 많아 지역의료시스템에 차질을 우려하는 지적이 나오는데요. 정부는 일단 내년도 수급에는 큰 차질은 없을 것으로 보고 있습니다. 군의관이나 공보의는 의사 국가고시를 막 통과한 일반의만 선발하는 게 아니고 인턴이나, 전공의 수련과정을 거친 전문의들도 선발하기 때문입니다. 현재 전국의 공보의는 1,900여 명 정도인데요. 정부는 내년에 새롭게 충원되어야 되는 공보의는 500명 정도로 파악하고 있습니다. 정부는 이 500명 가운데 인턴이나 전공의 수련과정을 끝내고 들어오는 인력도 있어 실제 부족인원인 300명 내외가 될 것으로 보고 있습니다. 정부는 필요하다면 정규의사 인력을 고용하는 방식 등을 통해 농어촌 취약지 보건의료에 피해가 없도록 철저히 준비하겠다는 뜻도 밝힌 상황입니다.[앵커]네. 지금까지 경제부 이진우 기자와 의사 집단행동과 관련해 발생 상황 짚어봤습니다. 고맙습니다.[기자]네 고맙습니다. (jinu@yna.co.kr)연합뉴스TV 기사문의 및 제보 : 카톡/라인 jebo23(끝)"
20,연합뉴스,"""의대 증원 철회 안하면 또 파업""…정부 ""대화를""","닫기""의대 증원 철회 안하면 또 파업""…정부 ""대화를""[뉴스리뷰][앵커]정부의 의사 증원 정책에 반발한 의사들이 오늘(14일) 하루 집단으로 휴진하고 집회에 나섰습니다.정부는 의사 인력 확충이 국민건강에 꼭 필요하다며 계속 추진할 것임을 분명히 하면서도 대화를 촉구했습니다.김장현 기자입니다.[기자]서울 여의도 여의대로에 의사들이 모였습니다.정부의 의료정책에 반발해 집단휴진한 뒤, 집회에 나선 겁니다.<현장음> ""불통 정책 철회하라!""개원의·전공의·의대생 등 집회 참가자들은 정부의 의대 정원 확대 정책에 반발하며 목소리를 높였습니다.의사협회 추산 2만여 명의 의사들은 정부의 의대 정원 확대, 공공의대 설립, 한약 건보 적용, 비대면 진료 도입을 4대악 정책이라며 철회를 요구했습니다.<최대집 / 대한의사협회 회장> ""정부는 의료계에 대해 앞에서는 '덕분에'라며, 뒤에서는 4대악 의료정책을 기습적으로 쏟아내고 어떠한 논의도 협의도 없이 일방적으로 질주해 왔습니다.""정부는 대화를 제안했지만 의사 확충은 꼭 필요하다고 강조했습니다.<김강립 / 보건복지부 차관> ""국민들이 어느 지역에서 살든지 양질의 의료서비스를 제공받도록 하기 위한 목적입니다. 협상장에 나와서 같이 지혜를 모아주시기를 간곡하게 요청드립니다.""집단휴진으로 동네병원 31.3%가 문을 닫았는데, 이를 모르고 찾아온 환자들이 발걸음을 돌리는 일도 발생했습니다.환자들은 또, 집단휴진에 우려감를 토로했습니다.<박복만 / 서울 강서구> ""전공의들하고 의사 선생님들이 파업을 하신다니까 걱정이 됩니다.""<원정숙 / 충남 부여> ""환자들 생각해서 그런 일이 없었으면 좋겠죠.""의협은 의대 증원이 철회되지 않으면 이달 말 사흘간 2차 파업, 이후 무기한 파업을 이어나갈 계획이어서 대화와 타협은 쉽지 않아 보입니다.연합뉴스TV 김장현입니다.연합뉴스TV 기사문의 및 제보 : 카톡/라인 jebo23(끝)"
21,연합뉴스,"국회 ""원점 재논의""·의협 내일 결론…정부 ""존중""","닫기국회 ""원점 재논의""·의협 내일 결론…정부 ""존중""[뉴스리뷰][앵커]국회가 집단휴진 사태 해결을 위해 중재안을 제시하자 의사단체들이 내일(3일) 수용 여부 등 입장을 정할 예정입니다.의·정 갈등이 풀릴지, 장기화할지 기로에 섰습니다.김장현 기자입니다.[기자]의료정책을 놓고 집단휴진 사태까지 벌어지고 있는 정부와 의사단체의 갈등이 고비를 맞았습니다.더불어민주당 한정애 정책위의장이 최대집 의사협회장과 만나 의대 정원 확대 등의 원점 재논의 방안을 제시하자 최 회장이 긍정적인 반응을 보이면 내부 논의에 나섰기 때문입니다.<한정애 / 더불어민주당 정책위의장> ""정말로 완전하게 제로의 상태에서 논의할 수 있다는 것을 말씀드렸습니다.""한 의장은 의료계의 원점 재검토 명문화 요구에 대해서도 ""그런 뜻을 담은 단어는 쓸 수 있다""며 가능성을 열어 뒀습니다.국회 보건복지위원회 소속 미래통합당 의원들도 전공의협의회 관계자들을 만나 코로나19 사태가 안정되면 의료정책을 원점에서 재논의하겠다고 약속했습니다.<최대집 / 대한의사협회장> ""공공의대와 의대정원 확대 문제가 정부와 풀어나가야 하는 문제라기보다는 국회에 문제 해결의 중심추가 있다는 것에 저도 완전히 공감하고""의사협회는 개원의는 물론 전공의, 전임의, 의대생이 참여한 범 의료계 4대 악 저지투쟁 특별위원회를 열어 국회 중재안을 논의하고 결론을 내릴 예정입니다.정부는 국회와 의사단체의 합의 결과가 나오면 받아들이겠다는 입장을 밝혔습니다.<손영래 / 보건복지부 대변인> ""정부가 철회를 한다, 만다를 결정할 문제라기보다는 국회에서 논의과정에서 검토되어야 하고, 결과를 기다리면서 합의가 되는 부분들을 존중할 생각을 가지고 기다리고 있는 중입니다.""다음 주 월요일 의사협회 3차 무기한 총파업을 앞두고 극적 타결을 이룰지 주목되고 있습니다.연합뉴스TV 김장현입니다.연합뉴스TV 기사문의 및 제보 : 카톡/라인 jebo23(끝)"
22,연합뉴스,"의사단체들, 오후에 국회 중재안 논의…파업 고비","닫기의사단체들, 오후에 국회 중재안 논의…파업 고비[앵커]국회가 집단휴진 사태 해결을 위해 중재안을 제시하자, 의사 단체들이 오늘(3일) 오후 수용 여부를 비롯해 협상안을 마련할 예정입니다.의·정 갈등이 풀릴지, 장기화할지 기로에 섰습니다.김장현 기자입니다.[기자]의료정책을 놓고 집단휴진 사태까지 벌어지고 있는 정부와 의사단체의 갈등이 고비를 맞았습니다.더불어민주당 한정애 정책위의장이 최대집 의사협회장과 만나 의대 정원 확대 등의 원점 재논의 방안을 제시하자 최 회장이 긍정적인 반응을 보이면 내부 논의에 나섰기 때문입니다.<한정애 / 더불어민주당 정책위의장> ""정말로 완전하게 제로의 상태에서 논의할 수 있다는 것을 말씀드렸습니다.""한 의장은 의료계의 원점 재검토 명문화 요구에 대해서도 ""그런 뜻을 담은 단어는 쓸 수 있다""며 가능성을 열어 뒀습니다.국회 보건복지위원회 소속 국민의힘 의원들도 전공의협의회 관계자들을 만나 코로나19 사태가 안정되면 의료정책을 원점에서 재논의하겠다고 약속했습니다.<최대집 / 대한의사협회장> ""공공의대와 의대정원 확대 문제가 정부와 풀어나가야 하는 문제라기보다는 국회에 문제 해결의 중심추가 있다는 것에 저도 완전히 공감하고""의사협회는 개원의는 물론 전공의, 전임의, 의대생이 참여한 범 의료계 4대 악 저지투쟁 특별위원회를 열어 국회 중재안을 논의하고 결론을 내릴 예정입니다.정부는 국회와 의사단체의 합의 결과가 나오면 받아들이겠다는 입장을 밝혔습니다.<손영래 / 보건복지부 대변인> ""정부가 철회를 한다, 만다를 결정할 문제라기보다는 국회에서 논의과정에서 검토되어야 하고, 결과를 기다리면서 합의가 되는 부분들을 존중할 생각을 가지고 기다리고 있는 중입니다.""다음주 월요일 의사협회 3차 무기한 총파업을 앞두고 극적 타결을 이룰지 주목되고 있습니다.연합뉴스TV 김장현입니다.연합뉴스TV 기사문의 및 제보 : 카톡/라인 jebo23(끝)"
23,연합뉴스,전공의 복귀 시점 재논의…의사시험 14%만 응시,"닫기전공의 복귀 시점 재논의…의사시험 14%만 응시[앵커]전공의단체가 단체행동을 잠정 중단하기로 했지만 내부 반발로 오늘도 집단휴진을 계속하고 있습니다.전공의단체는 오늘 오후 진료 복귀 시점을 다시 논의할 계획입니다.서울대병원에 나가 있는 취재기자 연결합니다.김장현 기자.[기자]네, 서울대병원에 나와 있습니다.이곳을 포함한 전국 수련병원에서 전공의들의 집단휴진이 지속되고 있습니다.지난달 21일부터 18일째 집단휴진입니다.당초 전공의협의회 비상대책위원회는 어제 새벽 대의원 총회에서 단체행동을 잠정 중단하고 1인 시위만 하기로 의결하면서 오늘부터 진료 업무에 복귀할 것으로 예상됐습니다.하지만 일부 전공의와 의대생들의 반발에 복귀가 미뤄졌습니다.반발하는 전공의와 의대생들은 의대 증원 등의 정책 철회 없이는 파업을 중단할 수 없다며 대의원이 아닌 모든 전공의가 참여하는 투표를 해달라고 요구하고 있습니다.이에 따라 전공위 비대위는 오늘 오후 1시 전체 전공의 대상으로 온라인 간담회를 열어 파업 유보 결정 이유 등을 설명하고 의견을 들을 예정입니다.이후 전공들의 진료 복귀 시점을 정할 계획입니다.한편 집단휴진에 참여해온 전임의들 가운데 이곳 서울대병원을 포함해 서울성모병원 등의 일부 전임의는 필수 진료과를 중심으로 복귀했거나 복귀 준비를 하는 것으로 확인됐는데요.전임의협의회는 어제 오후 늦게까지 마라톤 회의를 벌인 결과 휴진 지속 여부를 놓고 내부 의견이 엇갈렸고, 이에 따라 병원마다 개별적으로 복귀 여부를 정하기로 했습니다.[앵커]전공의들의 업무 복구가 미뤄지면서 대형 병원들의 진료 차질은 오늘도 계속될 수밖에 없는 상황이죠?[기자]네, 전공의들이 아직 진료 현장으로 복귀하지 않으면서 대형 병원들의 진료 차질이 이어지고 있습니다.이곳 서울대병원을 포함해 대형 병원들은 기존 진료 공백 대책을 계속 시행하고 있습니다.병원들은 오늘도 외래 진료와 신규 환자 입원, 수술 일정 등을 줄였고, 교수진과 집단휴진에 참여하지 않거나 복귀한 전임의 등이 전공의 공백을 메우고 있습니다.병원 관계자들은 아직 진료 정상화 시점을 말하기 어렵다며 전공의협의회의 최종 결정을 기다리고 있다고 말했습니다.[앵커]의대생협의회는 의사 국가고시를 계속 거부하기로 했다는데, 관련 소식도 전해주시죠.[기자]네, 정부가 당초 예고대로 내일부터 의사 국가고시 실기시험을 진행한다고 밝혔지만, 의대생들은 시험 거부 입장을 고수하고 있습니다.의대생협회 비상대책위원회는 어제 전국 40개 의대 국가고시 응시자 대표가 만장일치로 시험 거부 결정을 내렸다고 밝혔습니다.정부·여당과 의사협회의 의료정책 합의 과정에서 전공의와 의대생들 의견이 배제됐다고 반발하는 겁니다.정부는 지난 1일부터 시행 예정이던 의사 국가고시 실기시험에 응시한 의대생 90% 가량이 응시를 취소하자 1주일 연기하고 어제 자정까지 재신청을 받았는데요.이번 시험에 응시 대상자 3,172명 가운데 446명만 응시해 14%의 응시율을 보인 집계됐습니다정부는 응시기간 재연장 등 추가 접수는 없다고 못박았습니다.의대생들의 국가시험 거부로 내년 인턴 수급이나 군의관과 공보보건의 모집에 차질이 생길 수 있다는 우려가 나오고 있습니다.이에 대해 정부는 크게 차질을 빚을 정도는 아니라며 공중보건의나 군의관의 경우 필수 배치 분야를 중심으로 조정을 하면 된다고 설명했습니다.또 농어촌 보건의료에 문제가 없도록 정규의사 고용 등 대책을 마련할 예정이라고 덧붙였습니다.지금까지 서울대병원에서 전해드렸습니다.연합뉴스TV 기사문의 및 제보 : 카톡/라인 jebo23(끝)"
24,연합뉴스,전공의 오늘부터 진료 복귀…일부는 휴진 지속,"닫기전공의 오늘부터 진료 복귀…일부는 휴진 지속[앵커]전공의들의 진료 복귀가 오늘 아침부터 시작됐습니다.하지만 일부 병원의 전공의들은 단체행동을 계속하고 있는데요.전공의들이 주로 근무하는 대학병원들의 진료 정상화에는 좀 더 시간이 걸릴 것으로 보입니다.서울대병원에 나가 있는 취재기자 연결해 알아보겠습니다.이진우 기자.[기자]네, 서울대병원 앞에 나와 있습니다.이 병원을 포함해 집단휴진에 참여한 전공의들이 오늘 오전 7시부터 업무에 복귀하고 있습니다.의대 증원 등 정부의 4대 의료정책에 반발해 집단휴진에 들어간지 19일 만인데요.전공의협의회가 단체행동 수위를 1단계로 낮추며 진료 복귀를 결정한 데 따른 것입니다.집단휴진에 참여한 전임의들도 진료 현장으로 돌아가고 있습니다.하지만, 병원마다 복귀 상황은 다릅니다.이곳 서울대병원과 서울아산병원, 삼성서울병원 전공의들은 모두 업무에 복귀하고 있습니다.서울성모병원 등 가톨릭중앙의료원 산하 8개 병원 전공의들도 복귀하기로 했습니다.하지만 일부 병원에선 정부의 4대 의료정책 철회 때까지 단체행동을 계속해야 한다는 움직임이 있습니다.또 전공의들이 내부적으로 복귀 시점을 아직 정하지 못한 병원도 있습니다.또 아주대병원과 전남대병원, 경북대병원 등 10여개 병원의 전공의들은 집단휴진을 계속하고 있습니다.세브란스병원의 경우 진료과마다 의견이 갈리고 있는데, 일부 전공의들은 복귀를 준비하고 있습니다전공의들이 병원으로 복귀하더라도 코로나19 진단검사를 받고 음성 판정이 나와야 실제 업무에 투입되는 만큼, 완전한 진료 정상화에는 시간이 좀 더 걸릴 것으로 보입니다.전공의들이 복귀해도 아직 불씨는 남아 있습니다.전공의협의회는 정부가 오늘부터 실시되는 의사 국가고시 시험을 거부한 의대생들을 2주 안에 구제하지 않으면 다시 집단휴진에 나설 수 있다는 입장을 밝혔습니다.의사협회도 의대생 구제를 요구하고 있습니다.이미 한차례 응시 시간을 연장한 정부는 추가 구제는 없다는 입장이어서 의·정 갈등이 완전히 봉합되기도 전에 다시 불거지는 모습입니다.지금까지 서울대병원에서 연합뉴스TV 이진우입니다. (jinu@yna.co.kr)연합뉴스TV 기사문의 및 제보 : 카톡/라인 jebo23(끝)"
25,연합뉴스,[1번지五감] 제9호 태풍 '마이삭' 북상…도로 위 대피한 어선 外,"닫기[1번지五감] 제9호 태풍 '마이삭' 북상…도로 위 대피한 어선 外▶ 제9호 태풍 '마이삭' 북상…도로 위 대피한 어선1번지오감. 오늘의 첫 번째 사진입니다.바닷가 어선들이 인도 위로 올라왔습니다.북상중인 제9호 태풍 마이삭의 이동경로인 부산 송정항 인근의 모습인데요.매우 강한 태풍으로 발달한 마이삭의 위력은 사람은 물론, 커다란 돌덩이도 날려버릴 수준이라고 하는데요.바닷물의 높이가 올라가는 백중사리 기간까지 겹쳐 해안가에서는 폭풍해일도 예상되는 만큼 철저히 대비하셔야겠습니다.▶ 수도권 거리두기 2.5 단계…""카페 좌석 이용 불가""두 번째 사진볼까요?수도권 거리두기 2.5단계 시행 사흘째, 한 카페 좌석에 '이용 불가' 안내문이 붙어 있습니다.거리두기 조치가 강화되면서 프랜차이즈형 커피전문점에서는 매장 안에서 음식을 먹을 수 없도록 해, 포장과 배달 주문만 가능한데요.서울시가 정한 '천만 시민 멈춤 주간'잠시 불편을 감수하더라도 비상상황 극복을 위해 함께 동참해야겠습니다.▶ 강대강 대치 지속…""의료정책 반대 vs 진료거부 중단""마지막 사진입니다.전국 전공의들이 정부의 의료정책에 반대하며 12일째 집단 휴진을 이어가고 있죠.한쪽에서는 교수들이 정부의 전공의 근무 실태 조사에 항의하며 시위를 펼치고 있고, 다른 한쪽에서는 의사들의 진료 거부 중단을 요구하고 있는 모습입니다.정세균 국무총리는 오늘 단 한 명의 의료인도 처벌을 받는 일을 원하지 않는다""며 대화 의지를 밝혔고, 전공의 협의회도 정부와의 공개토론회에 언제든 응할 수 있다며 대화의 문을 열어뒀습니다.애꿎은 국민들의 피해를 줄이기 위해서라도 서둘러 해법을 마련했으면 하는 바람입니다.지금까지 1번지 오감이었습니다.연합뉴스TV 기사문의 및 제보 : 카톡/라인 jebo23(끝)"
26,연합뉴스,전공의 내일부터 진료 복귀…일부는 계속 반발,"닫기전공의 내일부터 진료 복귀…일부는 계속 반발[뉴스리뷰][앵커]전공의단체가 집단휴진을 중단하고 내일(8일) 아침부터 진료에 복귀하기로 했습니다.하지만 일부 병원의 전공의들은 단체행동을 계속할 움직임을 보여 진료 정상화가 완전히 이뤄질지는 지켜봐야 합니다.김장현 기자입니다.[기자]지난달 21일부터 집단휴진에 들어간 전공의협의회가 진료 복귀를 결정했습니다.전공의협의회 비상대책위원회는 전체 전공의 대상 온라인 간담회를 통해 단체행동 수위를 1단계로 낮추겠다고 밝혔습니다.1단계는 전공의 전원이 업무에 복귀하고 병원별 비상대책위원회를 유지하는 겁니다.집단휴진에 참여해온 일부 전임의들도 필수 진료과를 중심으로 업무에 복귀하면서 대형 병원들의 진료가 정상화될 것으로 보입니다.다만, 전공의협의회 집행부가 모든 전공의 의견을 반영하지 못한 데 책임감을 느낀다며 사퇴 의사를 밝히고, 일부 전공의들은 단체행동을 계속하겠다는 입장을 보여 병원마다 정상화 시점은 다를 수 있습니다.그동안 전공의들이 주로 근무하는 대형 병원들은 외래 진료를 축소하고 수술 일정을 연기했습니다.정부의 4대 의료정책에 반발해 의사협회는 하루씩 두차례 집단휴진을 하고, 전공의단체는 무기한 파업을 선언하는 등 2000년대 들어 세번째 집단휴진 사태가 벌어졌습니다.지난 4일 정부·여당과 의협이 의대 정원 확대와 공공의대 신설 추진을 중단하고, 원점에서 재논의하기로 합의하면서 의·정 갈등이 봉합 국면에 들어갔습니다.정책 철회를 요구하는 전공의협의회는 이 같은 합의에 반발했지만, 내부 진통 끝에 집단휴진을 멈추기로 했습니다.하지만 정부나 국회가 합의를 이행하지 않으면 더 큰 단체행동을 할 것이라고 밝혀 향후 의료정책 재논의 과정에서 갈등이 다시 불거질 수 있습니다.연합뉴스TV 김장현입니다.연합뉴스TV 기사문의 및 제보 : 카톡/라인 jebo23(끝)"
27,연합뉴스,전공의 오늘부터 진료 복귀…일부는 계속 반발,"닫기전공의 오늘부터 진료 복귀…일부는 계속 반발[앵커]전공의단체가 집단휴진을 중단하고 오늘(8일) 아침부터 진료에 복귀하기로 했습니다.하지만 일부 병원의 전공의들은 단체행동을 계속할 움직임을 보여 진료 정상화가 완전히 이뤄질지는 지켜봐야 합니다.김장현 기자입니다.[기자]지난달 21일부터 집단휴진에 들어간 전공의협의회가 진료 복귀를 결정했습니다.전공의협의회 비상대책위원회는 전체 전공의 대상 온라인 간담회를 통해 단체행동 수위를 1단계로 낮추겠다고 밝혔습니다.1단계는 전공의 전원이 업무에 복귀하고 병원별 비상대책위원회를 유지하는 겁니다.집단휴진에 참여해온 일부 전임의들도 필수 진료과를 중심으로 업무에 복귀하면서 대형 병원들의 진료가 정상화될 것으로 보입니다.다만, 전공의협의회 집행부가 모든 전공의 의견을 반영하지 못한 데 책임감을 느낀다며 사퇴 의사를 밝히고, 일부 전공의들은 단체행동을 계속하겠다는 입장을 보여 병원마다 정상화 시점은 다를 수 있습니다.그동안 전공의들이 주로 근무하는 대형 병원들은 외래 진료를 축소하고 수술 일정을 연기했습니다.정부의 4대 의료정책에 반발해 의사협회는 하루씩 두차례 집단휴진을 하고, 전공의단체는 무기한 파업을 선언하는 등 2000년대 들어 세번째 집단휴진 사태가 벌어졌습니다.지난 4일 정부·여당과 의협이 의대 정원 확대와 공공의대 신설 추진을 중단하고, 원점에서 재논의하기로 합의하면서 의·정 갈등이 봉합 국면에 들어갔습니다.정책 철회를 요구하는 전공의협의회는 이같은 합의에 반발했지만 내부 진통 끝에 집단휴진을 멈추기로 했습니다.하지만 정부나 국회가 합의를 이행하지 않으면 더 큰 단체행동을 할 것이라고 밝혀 향후 의료정책 재논의 과정에서 갈등이 다시 불거질 수 있습니다.연합뉴스TV 김장현입니다.연합뉴스TV 기사문의 및 제보 : 카톡/라인 jebo23(끝)"
28,연합뉴스,"뒤늦은 '국시 응시' 의사에…정부, ""추가 연장 없어""","닫기뒤늦은 '국시 응시' 의사에…정부, ""추가 연장 없어""[앵커]전국 의과대학 본과 4학년 학생들이 의사 국가고시 실기시험에 응시하겠다는 의사를 밝혔습니다.정부의 4대 의료정책에 반발해 국시 거부를 유지하던 의대생들이 처음으로 응시 의사를 표명한 건데요.정부는 재응시 기회를 추가로 주는 건 어렵다는 입장을 고수하고 있습니다.이진우 기자입니다.[기자]올해 의사 국가고시 실기시험을 거부한 의대생들은 모두 2,700여명.응시대상 3,100여명 가운데 86%, 대다수가 시험을 보지 않은 겁니다.앞서 의대생들은 전공의와 대한의사협회 등과 함께 정부의 의대 정원 확대를 비롯한 4대 의료정책에 반발해 국시 응시를 거부했습니다.이달 초 대한의사협회와 정부, 여당이 정책을 원점에서 재논의하기로 합의한 후에도 국시 거부 의사를 유지했고, 정부의 두 차례 접수 기간 연장에도 응시를 하지 않았습니다.결국 이들의 응시 의사는, 재접수 기한 연장 이후 18일 만에 의대 본과 4학년의 성명서를 통해 나왔습니다.성명서에는 코로나19 확산으로 국민 건강권이 위협받는 상황에서, 학생 본연의 자리로 돌아가겠다는 뜻이 담겼지만, 별도의 사과는 없었습니다.대한의사협회와 의과대학교수협의회 등 의사단체들은 의대생들에 재응시 기회를 다시 줘야 한다는 입장.<권성택 / 전국의과대학교수협의회장> ""(의대생이 국시를 못 보면) 농어촌에 있는 공중보건의의 빈자리가 많이 생기게 돼요. 최소한 아무리 적게 잡아서 150군데 정도는 (공백이) 생기게 돼요.""하지만 의대생을 바라보는 국민 여론은 좋지 않습니다.의대생 구제를 반대하는 청와대 청원에는 이미 57만명 넘게 동의한 상태.정부도 다른 국가시험과의 형평성과 공정성에 어긋나고, 국민적 수용성을 종합적으로 고려해야 하는 만큼 더 이상의 추가 연장은 없다는 입장을 거듭 밝혔습니다.연합뉴스TV 이진우입니다. (jinu@yna.co.kr)연합뉴스TV 기사문의 및 제보 : 카톡/라인 jebo23(끝)"
29,연합뉴스,[뉴스포커스] 김종인호 취임 100일 '국민의힘'으로 새 출발,"닫기[뉴스포커스] 김종인호 취임 100일 '국민의힘'으로 새 출발<출연 : 현근택 더불어민주당 법률위 부위원장·조청래 전 여의도연구원 부원장>김종인 비대위원장 취임 100일째를 맞은 미래통합당은 당명을 '국민의힘'으로 새롭게 변경했습니다.'국민의힘' 은 추미애 장관 보좌관이 부대 관계자에게 '병가연장'을 물었다는 내용을 담은 통화 녹취를 공개해 파장이 일고 있는데요.추 장관 측은 의혹을 부인하고 있습니다.관련 내용 포함한 정치권 이슈들, 현근택 더불어민주당 법률위 부위원장, 조청래 전 여의도연구원 부원장과 함께 짚어봅니다.어서 오세요.<질문 1> 추미애 법무부 장관 보좌관이 추 장관 아들의 부대 관계자에게 직접 전화를 해 병가 연장을 문의했다는 의혹이 이틀 전 국회에서 제기됐는데요. 추 장관은 부인하고 사건을 수사 중인 서울동부지검도 관련 진술을 확보한 적 없다고 부인했지만 '국민의힘' 이 병가연장을 문의했다는 내용의 보좌관과 군 간부 통화내용을 공개하면서 파장이 커지고 있습니다. 진실게임 양상으로 흐르는 이번 사태, 어떻게 보고 계십니까?<질문 2> 통합당이 '국민의힘'으로 당명을 새롭게 교체하고 정강정책을 새롭게 개정했습니다. 김종인 비대위원장 취임 후 99일 만에, 통합당 기준으로는 약 반년만의 당명 교체인데요. 이번 당명교체와 정강정책 개정, 쇄신으로 가는 첫 걸음이 될 수 있겠습니까?<질문 3> 국민의힘 김종인 비대위원장이 취임 100일을 맞았습니다. 김 위원장은 오늘 오전 대국민 기자회견을 열고 100일 소회와 당혁신 방향등을 밝혔는데요. 어떻게 들으셨습니까?<질문 4> 국회가 의대정원 확대 등 '의료정책 원점 재검토안'을 의료계에 제시하면서 이번 집단 휴진사태가 마무리될지 주목됩니다. 의료계도 국회 제안에 긍정적인 반응을 보이며 오늘 전공의, 전임의, 의대생 등이 참여한 '특위'를 열고 관련 사안을 논의할 예정이라고 하는데요. 의료계, 어떤 입장을 보이게 될까요?<질문 5> 현재 공공의대 설립 등 정부정책에 반대하고 있는 서울대 교수들이 박근혜 정부 당시에는 오히려 공공의대 신설을 통한 의료확충 방안을 제시한 것으로 확인됐습니다. 보건복지부 용역 보고서에 따르면 당시 연구에 참여한 서울대 교수들은 의료 취약지역 등에 약 2천명이 넘는 의사가 부족하다며 연 700명의 규모의 공공의대 신설과 운영을 제안했는데요. 지금의 입장과는 상당 부분 차이가 있는 것 아닙니까?지금까지 현근택 더불어민주당 법률위 부위원장, 조청래 전 여의도연구원 부원장이었습니다.감사합니다.연합뉴스TV 기사문의 및 제보 : 카톡/라인 jebo23(끝)"
30,연합뉴스,전공의 복귀…의대생 의사시험 거부 '불씨',"닫기전공의 복귀…의대생 의사시험 거부 '불씨'[뉴스리뷰][앵커]의대 증원 등 정부의 4대 의료정책에 반발해 집단휴진을 한 전공의들이 19일 만에 진료 복귀를 시작했습니다.집단휴진 사태는 일단락되는 모습이지만, 의대생들의 의사 국가고시 시험 거부가 새로운 불씨가 되고 있습니다.이진우 기자입니다.[기자]서울대병원 전공의들이 업무에 복귀한 첫 날, 이른 아침부터 환자와 보호자 등 방문객들이 쉴새없이 오갑니다.전공의들의 공백에 그동안 수술이나 외래진료 일정에 차질을 빚으면서 환자들의 피해가 이어지던 상황.전공의들의 복귀로 조금씩 진료가 정상화될 것으로 기대됩니다.<김진일 / 서울 동대문구> ""(아버지가) 이번에 시술을 앞두고 계셨는데 파업 때문에 차질이 있을까봐 걱정을 많이 했었는데요. 앞으로도 원만하게 해결돼서 환자들이 걱정없이 병원에 잘 다닐 수 있었으면…""물론 완전한 정상화로 이어지는데는 시간이 좀 더 걸릴 것으로 보입니다.이미 잡혀있는 수술과 입원 일정을 재조정해야 하기 때문입니다.<서울대병원 관계자> ""외래 진료 수술 등이 평소처럼 정상화되려면 1~2주 정도 지나야 할 것으로 예상하고 있습니다.""일부 병원에선 전공의들이 진료 복귀를 거부하고 단체행동을 계속하고 있습니다.또 다른 변수도 있습니다.새로 출범한 전공의협의회 비상대책위원회가 전임 비대위의 업무 복귀 결정을 문제 삼고 있고, 의대생들의 의사 국가고시 실기시험 거부 사태도 이어지고 있기 때문입니다.시험이 시작됐지만 응시 대상 의대생의 86%는 정부의 한 차례 접수기간 연장에도 정부 의료정책에 반발하며 응시하지 않았습니다.의사협회와 전공의협의회는 이들에 대한 구제 대책을 요구하고 있습니다.하지만 정부는 공정성과 형평성에 어긋난다며 추가 구제는 없다는 입장을 분명히 하고 있어 의·정 갈등이 다시 불거지고 있습니다.연합뉴스TV 이진우입니다. (jinu@yna.co.kr)연합뉴스TV 기사문의 및 제보 : 카톡/라인 jebo23(끝)"
31,연합뉴스,"[토요와이드] 의사 '집단휴진 사태', 해법은?","닫기[토요와이드] 의사 '집단휴진 사태', 해법은?<출연 : 이용호 무소속 국회의원>2차 집단휴진 일정은 종료됐지만 대한의사협회는 다음 달 7일부터 무기한 3차 집단휴진을 예고했습니다.의료대란이 현실화하는 것은 아닌지 우려가 커지고 있는데요.지역구인 전북 남원시에 '국립공공보건의료대학 설립'을 1호 법안으로 발의한 분이죠.오늘 이 시간에는 이용호 의원 모시고 최근 의사들의 집단휴진 문제 짚어보고 공공의대 설립과 관련한 이야기 나눠 보겠습니다.<질문 1> 정부와 대한의사협회는 정부의 '4대 의료정책', 공공의대 신설과 의대 정원 확대, 첩약 급여화 시범사업, 원격의료 추진을 두고 입장 차이를 보이고 있습니다. 먼저 간단히 설명해 주시죠.<질문 2> 아시다시피 지금 코로나19 재확산이 우려스러운 상황 아닙니까. 정부도 코로나19가 안정화할 때까지 의대 정원 확대, 공공의대 신설 추진을 중단하겠다며 한발 물러섰는데요. 왜 의사들은 휴진을 이어가고 있다고 보십니까?<질문 3> 하나씩 살펴보죠. 의과대학 정원 확대를 둘러싼 쟁점은 우선 우리나라에 의사 수가 부족한가에 대한 문제입니다. 의료계는 지역 의사가 부족한 것은 분배의 문제라고 지적하고 있습니다?<질문 4> 가장 중요한 쟁점 중의 하나가 공공의대 설립입니다. 21대 국회 들어 공공의대 설립법안 두 가지가 발의됐습니다. 먼저 이용호 의원 대표발의안 그리고 민주당 김성주 의원 대표발의안인데요. 이용호 의원께서 직접 소개해 주시죠.<질문 5> 앞서 말씀드린 두 법안 어디에도 공공의대 학생선발과 관련한 내용은 없습니다. 그런데 법안에도 없는 '시·도지사 추천'은 왜 갑자기 등장한 건가요?<질문 5-1> 복지부의 해명이 문제를 키웠습니다. 복지부가 공공의대 학생선발은 중립적인 시·도 추천위원회를 통하게 되고, 추천위원에 '시민사회단체 관계자'를 넣으면서 비판 여론이 더 커졌어요?<질문 6> 의료계 일각에서는 왜 지금이냐는 시기의 문제를 제기했습니다. 의료격차를 해소하는 것도 중요하지만 코로나19 재확산의 시점에 추진했어야 하느냐는 비판의 목소리 중 하나로 보이는데요?<질문 7> 또 공공의대가 근본 해결책이 아니라는 목소리도 있습니다. 공공의대 정원이 소수이고, 10년 의무복무 기간 이후에도 그 지역에서 근무를 지속할지 보장할 수 있느냐는 반론인데요?<질문 8> 의협에서는 기피 분야의 수가 인상과 같은 유인정책을 쓰면 공공의료 개선이 가능하다고 주장하고 있습니다. 이런 주장은 어떻게 보시나요?<질문 9> 대학병원 인턴과 레지던트 등 전공의들이 지난 21일부터 순차적으로 휴진에 나섰고, 전임의까지 가세하면서 인력난이 현실화하고 있습니다. 정부가 전공의, 전임의들에게 현장으로 복귀하라는 업무개시명령을 내렸고 고발까지 했는데요. 지금 이 상황, 어떻게 보십니까?<질문 10> 당초 의협의 예고대로라면 어제가 2차 파업의 마지막 날이었습니다. 하지만 의협과 정부의 갈등이 봉합되지 않은 상황이라 장기화의 '불씨'도 남아있는 것으로 보입니다. 대한의사협회는 다음 달 7일부터 무기한 3차 집단휴진에 들어가겠다고 발표했습니다. 정치권에서는, 어떻게 풀어가야 한다고 보십니까?연합뉴스TV 기사문의 및 제보 : 카톡/라인 jebo23(끝)"
32,연합뉴스,전공의 집단휴진 11일째…커지는 진료 공백,"닫기전공의 집단휴진 11일째…커지는 진료 공백[앵커]전국 전공의들의 집단휴진 11일ㅤㅉㅒㅤ입니다.의료계 원로와 국회도 중재에 나섰지만 전공의협의회가 파업을 계속 강행하면서 진료 차질 장기화가 우려되고 있습니다.서울대병원에 나가 있는 취재기자 연결합니다.김장현 기자.[기자]네, 서울대병원에 나와 있습니다.이곳 서울대병원을 포함해 전국 수련병원 전공의들의 집단휴진이 11일째 이어지고 있습니다.현재로선 복귀 시점을 정하지 않은 무기한 휴진입니다.앞서 전공의협의회는 의료계 원로와 국회 보건복지위원장과 만나 도출한 잠정합의안을 놓고 어제 표결에 부쳤습니다.잠정 합의안에는 향후 의료계가 참여하는 '의·정 협의체'에서 정부 정책을 원점에서 다시 논의하는 내용이 담겼습니다.코로나19 확산이 안정화될 때까지 법안 추진을 중단하고, 협의 기구를 설치해 논의하는 겁니다.투표 결과 집단휴진을 계속하자는 의견이 더 많았지만, 의결 정족수에 한 표가 모자라 부결됐고, 2차 투표까지 벌여 집단휴진을 계속하기로 결정했습니다.전공의협의회는 정부가 의사정원 확대와 공공의대 신설, 한방 첩약 급여화, 비대면 진료 육성 등 4대 의료정책의 전면 철회를 요구하고 있습니다.정부는 정책 추진을 강행하지 않기로 몇 차례 양보했는데도 집단휴진을 지속하는 것은 환자의 희생을 요구하는 불의한 행동이라고 강하게 비판하며 진료 복귀를 거듭 촉구했습니다.전공의들과 공개 토론회도 할 의향이 있다고 밝혔습니다.[앵커]결국 외래 진료 축소와 수술 연기 등으로 환자들이 계속 피해를 보게 되는데요.현재 어떤 상황인지 전해주시죠?[기자]네, 그렇습니다.주요 대학병원들은 전공의와 전임의들의 파업으로 의료진이 부족해지자 외래 진료와 수술을 줄이고 있습니다.이곳 서울대병원은 오늘부터 일주일간 내과 외래진료를 축소한다고 밝혔습니다.다른 병원에서도 진료 축소를 논의하고 있습니다.대학병원마다 수술의 경우 평소보다 30%에서 많게는 절반까지 축소됐습니다.이 같은 의료공백은 고스란히 환자들에게 피해로 돌아가고 있는데요.외래 진료 대기 시간이 길어질 뿐 아니라, 당장 시급하지 않다는 이유로 수술 연기 통보를 받고 있습니다.일부에선 제때 응급 치료를 받지 못하는 일도 발생했습니다.정부는 전공의들이 진료복귀 명령을 이행하는지 현장조사를 이어갑니다.오늘은 10개 병원에서 3차 현장조사를 벌여 진료에 복귀하지 않은 의사들에게 개별 업무개시명령서를 발부할 계획입니다.정부는 생명과 직결되는 응급실과 중환자실을 지켜야 하는데도 휴진에 참여한 의료진에 대해서 먼저 법적절차를 진행할 예정이라고 밝혔습니다.지난주 응급실 전공의 10명을 경찰에 고발한 데 이어 추가 고발도 검토하겠다는 건데요.정부는 오늘 오후부터는 집단휴진 피해신고 지원센터를 운영하면서 환자 피해 신고를 받고 대체 진료 병원을 안내합니다.정부는 상급 종합병원엔 중증 환자 필수진료에 집중해달라고 요청할 계획이라고 밝혔습니다.이어 경증 환자는 상급 종합병원 이용을 자제하고 가까운 동네병원을 이용해달라고 당부했습니다.지금까지 서울대병원에서 전해드렸습니다.연합뉴스TV 기사문의 및 제보 : 카톡/라인 jebo23(끝)"
33,연합뉴스,일부 전임의도 휴진…정부·의협 입장차 못 좁혀,"닫기일부 전임의도 휴진…정부·의협 입장차 못 좁혀[앵커]전공의들의 집단휴진이 나흘째 이어지고 있습니다.오늘부터는 일부 전임의까지 동참하면서 의료 공백이 우려되고 있습니다.보도국 연결해 봅니다.김장현 기자.[기자]네, 오늘부터 임상강사, 펠로 등으로 불리는 전국 전임의들도 순차적으로 집단휴진에 들어갑니다.오늘은 서울대병원의 전임의 대부분이 파업에 참여한 것으로 파악됐습니다.서울아산병원의 경우 전임의 300여명 중 소수만 참여한 것으로 알려졌습니다.전국 전공의들은 나흘째 집단휴진을 벌이고 있는데요.다만 전공의협의회는 어제 정부와 의대증원 확대 문제 등 현안을 진정성 있게 논의한다는 정부와의 합의에 따라 코로나19 대응을 진료에는 적극 참여하기로 했습니다.전공의들의 집단휴진에 전임의들도 가세하기 시작하면서 의료 공백 우려는 여전한데요.대학 병원들은 외래 진료와 신규 환자 입원, 수술 등을 줄이며 한정된 인원으로 업무를 이어가고 있습니다.이 때문에 진료 예약이나 수술이 일부 연기되고 있습니다.[앵커]정세균 국무총리가 집단휴진 사태 해결을 위해 조금 전 대한의사협회 회장단을 만났는데 견해차를 좁히지 못했다고요?[기자]네, 정세균 국무총리가 조금 전 오후 2시부터 정부서울청사에서 의사협회 회장단과 만났습니다.앞서 정 총리는 어젯밤 전공의협의회와 만나 진정성 있는 대화를 통해 문제를 해결하자는데 의견을 모았는데요.정 총리는 최대집 의사협회장에게 ""의대 정원 확대 등 보건의료 현안정책에 대해 의료계와 열린 자세로 진지하게 논의하겠다""고 말했습니다.하지만 1시간 10분 정도 이뤄진 오늘 면담에서 의료정책 쟁점을 놓고 입장차를 좁히지는 못했습니다.다만 양측은 허심탄회하게 대화를 나눴다고 밝혔는데요.보건복지부와 의협이 실무진 차원에서 논의를 이어가기로 해 모레 의협의 2차 총파업을 앞두고 타협점을 찾을지 주목됩니다.의협은 모레부터 사흘간 예고한 2차 총파업 계획에는 변함이 없다는 입장입니다.정부와 의협이 막판까지 절충점을 찾지 못하고 의사들이 총파업에 나설 경우 의료 공백이 현실화할 것으로 우려되고 있습니다.지금까지 보도국에서 전해드렸습니다.연합뉴스TV 기사문의 및 제보 : 카톡/라인 jebo23(끝)"
34,연합뉴스,"[현장연결] 정부, '하반기 경제정책 방향' 합동 브리핑","닫기[현장연결] 정부, '하반기 경제정책 방향' 합동 브리핑정부가 코로나19 사태로 위축된 소비와 투자를 살리는데 중점을 둔 하반기 경제정책 방향을 발표합니다.현장 연결합니다.[홍남기 / 부총리 겸 기획재정부 장관]존경하는 국민 여러분, 오늘 경제팀은 코로나19 국난을 극복하고 포스트 코로나 시대 개척을 위한 선도형 경제기반을 개척하기 위한 수립한 2020년 하반기 경제정책 방향을 설명드리고자 이 자리에 섰습니다.방금 전 대통령 주재 제6차 비상경제 회의에서 이를 논의하고 확정하였다는 말씀을 드립니다.먼저 우리는 이제까지 코로나19 팬더믹 사태에 따른 보건과 경제 이중에 위기 속에서 사투를 벌여야 했습니다.다행히 성공적인 K방역의 뒷받침 가운데 온 국민 여러분께서 힘을 모아주신 덕분에 주요 선진국들처럼 완전 봉쇄 없이도 어려움을 버텨내 올 수 있었습니다.정부도 감염병 충격이 초래한 고위험에 대비하여 신속한 피해복구지원과 민생안정, 일자리 지키기에 전력을 다해 왔으며 지금까지 250조 원 규모의 특단의 대책을 마련하여 강력히 추진해 왔습니다.이처럼 민간이 힘을 합쳐 노력한 결과 현재까지 우리 경제는 다른 주요 선진국과 비교하여 피해를 최소화하는 등 상대적으로 선방하고 있다는 평가를 받는 것도 사실입니다.그러나 모든 것은 코로나가 결정한다는 말이 시사하듯이 향후 우리 경제를 둘러싼 불확실성은 여전히 높은 상황입니다.국내적으로 산발적인 집단감염과 전파 사례가 이어지며 일상 경제활동으로의 복귀가 지연되고 있으며 해외의 코로나19 확산세의 지속으로 관광, 수출 등 해외수요 일부까지 상당한 시일이 소요될 수 있기 때문입니다.이로 인하여 금년 우리 경제에 대한 주요 기관들의 전망과 시각차는 매우 크게 나타나고 있으며 다수의 기관들은 외환위기 이후 처음으로 마이너스 성장을 전망하기도 합니다.일례로 지난달 유사한 시기에 한국은행은 올해 우리 경제가 마이너스 0.2% 역성장을 KDI는 조심스럽게 플러스 0.2%의 성장률을 제시한 바 있습니다.정부의 경우 최근 대내외 여건을 종합 감안해볼 때 금년 역성장 가능성을 배제하고 있지는 않습니다만 이번 하반기 경제정책 방향에서는 추경을 비롯한 정책 효과 그리고 정부의 강력한 정책 의지를 담아 플러스 0.1%의 성장목표를 제시하고자 합니다.금년 2/4분기는 세계 경제 침체에 따른 수출 급감 등으로 1/4분기보다 상황이 더 어려울 수 있겠습니다마는 코로나19가 국내적으로는 상반기에 세계적으로는 하반기에 진정이 된다면 3, 4분기 이후의 정책 효과에 힘입어 플러스 성장 전환이 가시화될 수 있을 것으로 판단하고 있습니다.내년에는 IMF 전망에서도 합니다마는 3% 중반 이상의 반등이 예상됩니다.정부는 이들 목표 달성을 위하여 좌고우면 없이 경제 방역에 총력을 기울여 나가겠습니다.당장의 위기극복을 위한 버티기 노력뿐만 아니라 경제의 본격적 회복을 통한 일어서기 그리고 포스트 코로나 시대 선도 개혁을 통한 도약하기 등 당면한 과제들을 시급히 그러면서도 차곡차곡 선제적 대응해 나가겠습니다.이것이 통상 7월 초에 발표했던 하반기 경제정책 방향을 한 달 앞당겨 마련 시행하고 반세기 만의 1년 중 3차례 추경 예산안을 편성한 이유이자 그 배경이기도 합니다.국민 여러분, 저희 경제팀은 금년 이 자리에서 말씀드리는 정책과제들을 최대한 신속히 추진하고 성과를 과시함으로써 세계적으로 모범이 되는 빠르고 강한 경제 회복을 이루겠다는 다짐을 드리며 이제 하반기 경제정책 방향에 대해서 설명을 시작하고자 합니다.금년 하반기 경제정책 방향은 크게 두 가지.국난 조기극복과 선도형 경제기반 구축 두 가지 목표를 마련하였습니다.먼저 코로나19가 초래한 국난을 이겨내고 우리 경제를 정상적인 성장 경로로 회복시키고자 하는 것입니다.이를 위하여 자영업자, 소상공인, 위기 한계기업 등을 위한 버팀목 역할을 더 강화하고 소비, 투자, 수출입 활성화 등 빠르고 강한 경제회복을 최대한 지원하며 위기시 금융통상 리스크 요인이 불거져 나오지 않도록 철저히 관리하는 데 역점을 두었습니다.또 다른 하나는 포스트 코로나 시대의 개척을 위한 선도형 경제기반 구축입니다.코로나19 계기로 전 분야의 구조적인 변화가 가속화되고 있다는 점에서 미래선점을 위한 포스트 코로나 시대 대비를 하반기부터 당장 추진해야 할 과제로 판단했기 때문입니다.이를 위하여 한국판 뉴딜 방역바이오 등 중점프로젝트들을 강력히 추진해 나가겠습니다.아울러 산업 경제구조를 과감히 혁신하는 한편 국민 모두의 삶을 지키는 포용 국가 기반을 확충하기 위한 과제들도 모두 담겨 있습니다.지금부터 이들 정책방향의 구체적인 내용들을 하나하나 설명드리도록 하겠습니다.첫째 경제위기 조기 극복을 위한 버팀목을 더 강화하겠습니다.우선 위기를 확실히 극복할 때까지 재정, 금융, 외환 등 가용한 거시정책 수단들을 최대한 적극적으로 운영할 방침입니다.특히 역대 최대규모의 3차 추경안을 이번 주 국회에 제출하는 등 최후의 보루로서 재정의 뒷받침 역할을 적극적으로 수행하겠습니다.하반기 중 자영업자, 소상공인, 기업 지원을 더 강화하기 위하여 기존의 175조 금융 패키지에 더해 추가적으로 보강하고자 합니다.햇살론 등 서민금융을 1조 원 그리고 지역 신보보증 6.9조 원을 확대, 공급하겠습니다.아울러 코로나19 여파로 폐업한 분들의 재기 지원을 위한 2조 원 규모의 채무 재조정 프로그램도 이달 말부터 본격적으로 가동시켜 나가겠습니다.또한 2000억 원 규모의 스마트 소상공인 전용보증을 신설하는 등 자영업자와 소상공인들의 스마트화 온라인화도 적극적으로 지원하겠습니다.위기 한계기업의 지원은 곧 일자리와 민생을 지켜내는 대책이기도 합니다.40조 원의 기간산업 안정기금, 20조 원의 회사채와 CP 매입기구 등을 포함한 금융안정 패키지를 신속히 추진하겠습니다.아울러 이번에 국회에 제출하게 될 3차 추경안에는 10조 원 규모의 고용안전 특별대책 뒷받침 요소가 반영되어 있습니다.국회 통과 즉시 55만 개 플러스알파의 직접 일자리 창출 등이 현장에서 차질없이 집행될 수 있도록 철저히 준비하겠습니다.둘째 방역을 넘어 경제 분야에서도 세계의 모범이 되는 빠르고 강한 경제회복을 이뤄내도록 하겠습니다.지금과 같이 대외 여건 악화로 수출투자가 제약되는 상황에서는 내수회복이 무엇보다도 가장 중요합니다.우선 코로나19로 이완된 소비력의 재생을 뒷받침하기 위하여 숙박, 관광, 문화, 외식, 농산물 등 8대 분야의 소비 쿠폰을 제공합니다.예를 들어 숙박의 경우 온라인으로 예약시 100만 명 대상 최대 4만 원에 할인 쿠폰을 제공하게 됩니다.이를 위하여 약 2000억 원의 예산을 지원하여 약 1조 원의 소비를 유도해나가겠습니다.효과가 검증되고 국민의 호응도가 높았던 정책, 즉 소비회복지원 3종 세트 정책은 더 확충해 나가겠습니다.먼저 구매 금액의 10%를 환급해 주는 고효율 가전체품 환급의 경우 환급대상에 건조기까지 추가하여 총 11개 품목에 대해 지원하고 그 지원 규모도 1500억 원에서 3배 늘려 4500억 원을 지원하겠습니다.10% 할인율이 적용되는 지역사랑상품권과 온누리상품권도 5조 원 추가하여 올해 9조원에서 14조 원으로 발행 규모를 늘려나가겠습니다.그리고 승용차 개별소비세의 경우 금년 하반기 중에 법 개정 없이 시행령 배정만으로 추경 가능한 최대 수준인 30%까지 인하하여 구매 부담을 낮추어 드리겠습니다.어려운 여건이지만 투자활성화에도 역점을 두겠습니다.기업들의 투자 확대 요인을 강화하기 위하여 시설투자 지원세제를 획기적으로 개편하겠습니다.기존의 9개 시설투자세의 공제 제도를 통합 단순화하는 한편 직전 3년 평균 대비 증가분에 대해서는 기본 공제에 더하여 증가분에 대하여 추가 공제를 제공할 것입니다.금년 하반기 투자 규모를 적극적으로 유도하기 위하여 금년 투자금에 대해서는 기존 기업이 기존 제도와 개편된 제도 중에서 유리한 제도를 선택할 수 있도록 하겠습니다.민간, 민자, 공공 100조 원 투자 프로젝트 추진도 더 속도 속도내겠습니다.물류 시설 중심으로 신규 발굴에는 6.2조 원 규모의 프로젝트를 신속히 추진하고 민자사업의 경우 민간 선 투자에 대해 집행을 가속화해나가도록 하겠습니다.지난달 수출이 전년 동기 대비 20% 넘게 줄어드는 등 매우 어렵습니다.심각한 수출 상황을 타개할 돌파구가 시급합니다.중소기업 비대면 마케팅을 지원하기 위한 원스톱 지원 시스템을 구축하고 해외 현지 물류비 지원 등을 통하여 수출 애로를 적극적으로 해소해 나가겠습니다.또한 수출금융도 하반기에 작년 대비 약 5조 원 증가한 118조 원을 공급하도록 하고 해외 인프라 지원대책도 이달 중에 마련하여 발표하겠습니다.아울러 수출 기업들이 하반기 집중될 수출 수요에 즉각 대응토록 특별연장근로 인가 제한 기간에 대한 한시적 보완 방안을 강구하는 등 조만간 별도의 수출활력 제고 방안을 마련하여 역시 발표하고 추진해 나가겠습니다.셋째 위기시 리스크가 부각되지 않도록 관리하는 것이 또한 중요합니다.대내외 리스크 관리에 한치의 빈틈이 없도록 준비하겠습니다.최우선적으로 미중 분쟁 등 과정에서 통상현안을 안정적으로 관리하면서 금융회사의 외환 건전성 방안 마련 등 외환 금융시장의 변동성 완화 노력도 가일층 강화해 나가겠습니다.국가 신용등급을 관리하기 위하여 3대 신평사를 대상으로 다각적인 아웃리치 노력을 기울이는 등 대외 신인도 관리에도 각별한 노력을 기울여 나가겠습니다.다음으로 포스트 코로나 시대 선도형 경제기반 구축을 위한 과제입니다.먼저 선도형 경제기반 구축을 위한 토대가 될 3대 중점 대책의 신속한 추진입니다.그 첫 번째는 한국판 뉴딜의 추진입니다.오늘 이 자리에는 한국판 뉴딜의 큰 틀과 구조, 방향성 등에 대하여 말씀드리고 추경안에 담긴 개별 한국판 뉴딜 프로젝트에 대해서는 6월 3일 추경안 국무회의 확정 직후에 그리고 전체적인 한국판 뉴딜 추진 종합계획에 대해서는 7월 초순에 발표해 드리겠습니다.한국판 뉴딜은 우리 경제를 추격형 경제에서 선도형 경제로 전환해 나가면서 대규모 일자리로 새로운 기회를 열어가고자 하는 것입니다.단기 위기극복 및 일자리 창출을 위한 대책일 뿐만 아니라 중기적으로 포스트 코로나 시대를 준비하는 미래 대비 성격도 지니게 됩니다.이러한 한국판 뉴딜은 사람 우선의 가치와 탄탄한 고용안정만 디딤돌 위에 2개의 뉴딜, 즉 디지털 뉴딜과 그린 뉴딜이 본격 추진되는 구조입니다.7개 분야 중 25개의 핵심 프로젝트에 2025년까지 총 76조 원을 투자할 계획이며 우선 1단계로 즉시 추진 가능한 과제들을 중심으로 2022년까지 31조 3000억 원을 투입, 총 55만 개의 일자리를 창출하고자 합니다.코로나19로 인한 비대면화 디지털 경제의 가속화 등 경제 사회 구조 대전환에 대응하여 첫째 DNA 생태계를 강화하고 둘째 디지털 포용 및 안정망을 구축하며 셋째 비대면 산업의 본격적인 육성과 넷째 SOC의 디지털화 등 4대 분야 총 12개 프로젝트를 중심으로 22년까지 13조 4000억 원을 투입하여 약 33만 개의 일자리를 창출해내겠습니다.디지털 경제 전환을 촉진하고 신산업 기존 산업의 경쟁력 강화를 위한 핵심이 될 것입니다.다음은 그린뉴딜입니다.그린뉴딜은 녹색공간 생활 인프라에 대한 녹색 전환을 시도하고 녹색산업 혁신산업을 구축하며 저탄소 분산형 에너지확산 등 3개 분야 18개의 프로젝트를 중심으로 2022년까지 총 12조 9000억 원을 투입하고 약 13.3만 개의 일자리를 창출해내겠습니다.이를 통하여 경제 및 기후위기를 동시에 극복하고 저탄소 경제 이행을 선도하기 위한 경제사회 전반의 그린 전환을 대폭적으로 지원해 나가고자 합니다.마지막으로 탄탄한 고용안전망의 디딤돌입니다.위 디지털 뉴딜과 그린뉴딜도 미래고용 시장 구조 변화에 대한 탄탄하고 촘촘한 고용안전망 구축 없이는 사상누각이 될 수밖에 없습니다.이에 전 국민 고용안정망에 대한 구축, 고보사각지대에 대한 생활고용안정의 지원, 미래의 적용해온 직업 훈련 체계로의 개편, 산업안전 및 근무 환경 혁신 그리고 고용시장 신규직 및 전환 지원 등 5개의 프로젝트에 대하여 2022년까지 총 5조 원을 투입하고 9만 2000개의 일자리를 만들어내도록 하겠습니다.이러한 한국판 뉴딜 추진의 시급성을 감안하여 당장 하반기부터 추진해야 될 뉴딜 프로젝트 투자 소요에 대해서는 금번 3차 추경안에 5조 원 정도 규모로 소요를 반영했단 점을 말씀드립니다.3대 중점대책 중 두 번째는 방역 및 바이오 등 빅3 미래 동력화입니다.코로나 사태를 계기로 글로벌 방역시장을 선도하기 위하여 치료제 백신 조기 개발을 위하여 임상 3상까지 R&D를 집중 지원하고 우리의 방역 K모델을 세계화하여 국제 표준화를 추진하는 등 감염병 대응 산업을 적극적으로 육성해 나가겠습니다.코로나19 사태로 중요성이 더욱 부각되고 있는 바이오 그린 분야의 경우 하반기 중 의료기기 산업 종합계획을 수립하고 1조 원 규모로 조성되는 스마트, 대한민국 펀드 등을 적극적으로 활용하며 아울러 재생의료 등 연관 산업에 대한 육성 방안도 순차적으로 마련하여 추진해 나가겠습니다.또한 시스템 반도체는 팸리스 창업부터 성장까지 전 주기 원스톱 서비스를 제공하게 되는 설계지원센터를 구축하여 기업과 투자자를 위한 종합 허브로 육성해 나가겠습니다.세 번째 중점대책은 유턴 첨단 산업 유치 등 GVC의 허브화입니다.무엇보다 유턴기업들이 원하는 곳에서 사업을 시작할 수 있도록 수도권 공장 총량 범위 내에서 우선 배정하는 등 다각적인 지원 방안을 강구해 나가겠습니다.아울러 해외 생산량을 50% 이상 감축할 경우에만 법인세와 소득세를 감면받을 수 있었던 이와 같은 취소 생산 감축량 요구는 과감히 폐지하고 해외 생산 감축량에 비례하여 혜택을 받도록 개선하겠습니다.보조금도 첨단산업의 경우 수도권에 유턴하더라도 150억 원을 지원할 것이며 비수도권의 경우에는 그 지원금을 200억 원으로 2배 확대하겠습니다.R&D 센터 유턴 촉진을 위하여 기존 생산량 중심의 유턴 기업 인정 중심에 연구개발비 및 연구개발직 인원 기준을 추가할 방침입니다.이러한 유턴 대책들을 보완, 구체화하여 7월 중에 범정부적으로 유턴 및 첨단산업 유치전략 등을 포함한 글로벌 밸류체인, 글로벌 공급망 혁신전략을 마련하여 발표하고 추진해 나가도록 하겠습니다.다음으로 선도형 산업경제 구조를 만들기 위한 혁신노력을 보다 가속화하겠습니다.우선 제2 벤처붐 확산을 위해 벤처 지주회사 규제를 대폭 완화하고 일반 지주회사의 기업형, 벤처 캐피탈 즉 CVC의 제한적 보유 방안도 적극 검토하겠습니다.주력 산업과 서비스 산업 고도화를 위해서 스마트공장 도입 등 제조업 스마트화를 적극적으로 지원해 나가는 한편 한걸음 모델 등을 통하여 서비스산업의 규제 해결 방안도 적극 모색해 나갈것입니다.아울러 연간 경제정책 방안에서 제시했던 1인 가구 대책으로 청년의 자산형성, 주거지원, 24시간 돌봄확대 여성 1인형 안전 등 1인 가구의 생활기반별 맞춤형 대책을 적극적으로 강구하여 시행해 나가겠습니다.아울러 앞서 말씀드린 코로나19에 따른 산업, 경제구조 변화에 따른 대응을 총망라하여 포스트 코로나 대비 종합대책을 이달 귀중 발표할 계획이며 비대면화에 선제적 종합적으로 대응하기 위한 비대면 산업 육성방안도 8월 말까지 마련하여 발표하도록 하겠습니다.마지막으로 경제 사회 구조 변화 대응 과정에서 누구도 소외되지 않도록 포용국가 기반을 확충하는 노력에 결코 소홀히 하지 않겠습니다.모든 취업자가 고용보험혜택을 받을 수 있도록 고용보험 가입 범위를 단계적으로 확대하고 내년 시행 예정인 국민취업 지원제도도 차질 없이 준비하겠습니다.또한 청년, 신중년, 노인, 여성 등 고용취약계층의 수요자 맞춤형 일자리 지원도 강화해 나가겠습니다.특히 우리 경제의 중추이면서 일자리의 어려움을 크게 겪고 있는 40대를 대상으로 훈련, 채용, 채용이 연계된 일자리 패키지인 리바운드 40플러스 및 직장 프로그램을 신설하는 등 일자리 지원을 대폭 강화해 나가겠습니다.아울러 저소득층 긴급복지 지원 요건 완화를 금년 말까지 연장하고 8월 중 제2차 기초생활보장 종합계획을 수립하는 등 포용 사각지대를 보다 촘촘하게 채워 나가고자 노력하겠습니다.연합뉴스TV 기사문의 및 제보 : 카톡/라인 jebo23(끝)"
35,연합뉴스,"의사단체 ""국회·정부와 적극 대화""…단일 요구안 도출","닫기의사단체 ""국회·정부와 적극 대화""…단일 요구안 도출[앵커]정부 의료정책에 반발하는 의사단체들이 국회와 정부에 요구할 단일안을 만들었습니다.가능한 한 빨리 대화에 나서기로 했는데, 집단휴진 사태까지 벌어진 의·정 갈등이 기로에 섰습니다.김장현 기자입니다.[기자]전공의들의 집단휴진이 계속되는 가운데, 의사단체 대표들이 한자리에 모였습니다.의대 증원 등 정부의 4대 의료 정책을 반대하는 '범의료계 4대악 저지 투쟁 특별위원회' 회의가 열린 겁니다.의협과 젊은의사 비상대책위원회가 참여한 1시간 30분 간의 회의 끝에 국회, 정부와 협상을 위한 단일안을 도출했습니다.구체적으로 어떤 내용인지는 공개하지 않았지만, 여당과 공감한 내용과 함께 추가 요구 사항이 담겼을 것으로 보입니다.의협은 단일안을 가지고 이른 시일 안에 국회, 정부와 적극적으로 대화하겠다고 밝혔습니다.<김대하 / 의사협회 대변인> ""젊은 의사 선생님들이 제시한 요구안을 반영해서 의료계의 단일안을 도출했고, 빠른 시일 내 이 요구안을 가지고 정부 및 국회와 대화를 시작하겠습니다.""앞서 더불어민주당 한정애 정책위의장은 최대집 의협회장과 박지현 전공의협의회 비대위원장을 만나 의대 증원 등 4대 정책을 원점에서 논의할 수 있다는 입장을 밝혔고, 의사단체도 긍정적으로 반응했습니다.한 의장은 국회 내 특위를 구성해 의료체계 개선책을 논의하겠다고 약속했습니다.<한정애 / 더불어민주당 정책위의장> ""우리당의 원점에서 검토하겠다는 입장은 유효합니다. 특위 구성을 통해 전달체계 개편, 수련환경 개편, 지역가산 수가 신설 등 의료체계 개선에 대한 열린 마음에서의 논의를 약속 드립니다.""의협은 전공의들의 집단휴진과 오는 7일 의협의 3차 무기한 파업은 현재로선 변화가 없다며, 파업 전 빨리 정부, 국회와 대화를 시작해 사태 해결을 위해 노력하겠다고 밝혔습니다.보건복지부는 의사단체들의 요구안을 받으면 최대한 빨리 검토할 계획입니다.또, 국회와 의사단체의 합의 결과가 나오면 최대한 존중하겠다는 입장으로, 이번 주말이 의·정 갈등의 최대 분수령이 될 것으로 보입니다.연합뉴스TV 김장현입니다.연합뉴스TV 기사문의 및 제보 : 카톡/라인 jebo23(끝)"
36,연합뉴스,[현장연결] 대한의사협회-더불어민주당 정책협약 이행 합의서 전문,"닫기[현장연결] 대한의사협회-더불어민주당 정책협약 이행 합의서 전문집단 휴업에 들어간 대한의사협회와 더불어민주당이 새벽까지 진행된 마라톤협상끝에 5개의 합의문을 마련했습니다.이에 따라 파업 사태가 일단락 될 것으로 보이는데요.합의문 서명식 연결해보겠습니다.[유동수 / 정책위수석부의장]대한의사협회 더불어민주당 정책협약 이행합의서.대한의사협회와 더불어민주당은 국민의 건강과 보건의료제도의 발전이라는 공동의 목표 아래, 지역의료 불균형, 필수의료 붕괴, 의학교육과 전공의 수련체계의 미비 등 우리 의료체계의 문제에 대한 근본적 해결과 코로나19 극복을 위하여 다음과 같이 정책협약을 체결하고 이행을 위해 노력할 것을 약속한다.1. 의대정원 확대와 공공의대 신설 추진은 코로나19 확산이 안정화 될 때까지 관련 논의를 중단하며, 코로나19 안정화 이후 협의체를 구성하여 법안을 중심으로 원점에서 모든 가능성을 열어놓고 재논의하기로 한다. 또한, 논의 중에는 관련 입법 추진을 강행하지 않는다.2. 더불어민주당은 공공보건의료기관의 경쟁력 확보와 의료의 질 개선을 위하여 충분한 예산을 확보하도록 노력한다.3. 더불어민주당은 대한전공의협의회(대한의사협회 산하단체)의 요구안을 바탕으로 전공의특별법 등 관련 법안 제·개정 등을 통하여 전공의 수련 환경 및 전임의 근로조건 개선을 위해 필요한 행정적ㆍ재정적 지원방안을 마련한다.4. 대한의사협회와 더불어민주당은 코로나19 위기 극복을 위하여 긴밀하게 상호 공조하며, 의료인 보호와 의료기관 지원에 대한 구체적인 대책을 마련하여 추진하기로 한다.5. 더불어민주당은 대한의사협회와 보건복지부가 향후 체결하는 합의사항을 존중하고, 이행을 위해 적극 노력한다.2020. 9. 4  대한의사협회-더불어민주당연합뉴스TV 기사문의 및 제보 : 카톡/라인 jebo23(끝)"
37,연합뉴스,전공의 파업 첫날 큰 영향 없었지만…장기화 우려,"닫기전공의 파업 첫날 큰 영향 없었지만…장기화 우려[앵커]전공의들이 정부의 의대 정원 확대 계획에 반발해 무기한 집단휴진에 들어갔습니다.병원들의 대체 인력 투입으로 눈에 띄는 진료 차질은 없었습니다.하지만 코로나19가 확산하는 가운데 파업이 길어질 경우 의료 공백과 환자 피해가 우려됩니다.김장현 기자입니다.[기자]서울의 한 대학병원 정문 앞에 릴레이 1인 시위가 벌어집니다.전공의들이 지난 7일과 14일에 이어 3번째 단체행동에 돌입한 겁니다.인턴과 레지던트 4년차를 시작으로 무기한 집단휴진에 차례로 들어갈 계획입니다.병원들은 급하지 않은 수술은 뒤로 미루고 진료와 입원 예약을 줄였습니다.전공의들의 집단휴진 첫날, 병원들은 이들의 빈자리를 교수급 의료진 등으로 채워 진료 공백을 최소화했습니다.<김성곤 / 환자> ""평상시처럼 괜찮았어요. 약간 뭐 좀 항시 여긴 밀리니까.""다만, 일부 병원에선 전공의 공백으로 코로나19 진단검사가 제한적으로 이뤄졌습니다.전공의를 포함한 의사들은 의대 정원을 늘려 10년간 의사 4,000명을 추가로 양성하겠다는 정부 계획에 반발하고 있습니다.정부가 먼저 의대 정원 확대 등 4대 의료 정책을 철회해야 파업 철회도 가능하다는 겁니다.<최대집 / 대한의사협회 회장> ""정부가 의대정원 확대, 공공의대 설립, 첩약 급여화 시범사업, 비대면 진료 육성 등 4대악 의료정책을 철회 시 파업을 잠정 유보할 것입니다.""하지만 정부는 의협의 철회 요구는 수용하기 어렵다며 코로나19 위기 상황에서 법적 조치 가능성도 열어 놨습니다.<김강립 / 중앙재난안전대책본부 1총괄조정관> ""의료법에 의한 진료개시 명령과 불응할 경우에 대한 조치들이 있습니다. 국민들의 안전과 불안을 덜어드리고 국가적 위기 상황을 함께 극복해야 하는 상황이라는 점을 인식하시고…""오는 24일부터는 전임의들이 집단휴진에 참여할 계획입니다.26일부터 사흘간은 의사협회가 2차 총파업을 예고하면서 정부와 갈등은 계속되고 있습니다.연합뉴스TV 김장현입니다.연합뉴스TV 기사문의 및 제보 : 카톡/라인 jebo23(끝)"
38,연합뉴스,"정부 ""처벌 원치 않는다""…대화·토론회로 풀까","닫기정부 ""처벌 원치 않는다""…대화·토론회로 풀까[앵커]집단휴진 참여 전공의들을 경찰에 고발한 정부가 처벌을 원치 않는다며 유연한 자세로 대응하겠다는 입장을 밝혔습니다.정부와 전공의단체가 기존 입장을 고수하면서도 대화 의지를 보여 타협점을 찾을 수 있을지 주목됩니다.김장현 기자입니다.[기자]전공의들의 집단휴진 12일째.전공의들이 보건복지부 청사 앞에서 피켓 시위를 벌입니다.전공의와 전임의의 사직서 제출도 이어졌고, 교수들도 전공의들을 지지하고 나섰습니다.집단휴진에 참여한 전공의들을 고발한 정부는 한발 물러섰습니다.의사 국가고시를 일주일 연기한 데 이어 전공의들과 의료정책을 놓고 공개토론을 할 수 있고, 처벌도 원하지 않는다는 입장을 밝혔습니다.정부는 최근 휴진에 참여한 전공의 10명을 경찰에 고발했는데, 취하 가능성을 열어둔 것입니다.<정세균 / 국무총리> ""정부는 단 1명의 의료인도 처벌을 받는 일을 원하지 않습니다. 유연한 자세로 현안을 해결하기 위해서 최선을 다 할 생각입니다.""정부는 공개토론 의향도 밝혔는데 전공의협의회는 응할 수 있다는 입장을 내놨습니다.<박지현 / 전공의협의회 비상대책위원장> ""찬반 논란이 있어도 되는 그런 공청회를 매우 환영하는 바입니다. 국민들이 그 과정에서 많은 참여와 관심을 주셨으면 좋겠습니다.""정부와 전공의들의 물밑 대화도 이뤄지고 있습니다.전공의협의회 관계자는 ""아직 협상을 위한 만남은 아니라면서, 일선 전공의들이 정부 정책에 대해 의견을 나누는 자리""라고 말했습니다.다만 정부가 의대 정원 확대, 공공의대 설립 등 4대 의료 정책을 전면 철회하고 원점에서 재논의하는 내용을 문서로 명문화하면 복귀하겠다는 기존 입장은 고수했습니다.이에 정부는 의대 정원 확대 추진은 어떠한 조건도 걸지 않고 이미 중단된 상태라고 강조했습니다.이처럼 양측의 입장이 맞서는 가운데 오는 7일 의사협회의 3차 무기한 파업을 앞두고 대화와 공개토론회를 통해 접점을 찾을지 주목되고 있습니다.연합뉴스TV 김장현입니다.연합뉴스TV 기사문의 및 제보 : 카톡/라인 jebo23(끝)"
39,연합뉴스,의·정 대립 지속…의사 국가시험 1주일 연기,"닫기의·정 대립 지속…의사 국가시험 1주일 연기[뉴스리뷰][앵커]전국 전공의들의 집단휴진이 11일째 이어졌습니다.의료계 원로와 국회도 중재에 나섰지만, 전공의협의회가 파업을 계속 강행하면서 진료 차질 장기화가 우려되고 있습니다.이번 사태로 의사 국가시험은 연기됐습니다.김장현 기자입니다.[기자]병원 1층 로비에서 교수들이 검은 마스크를 쓰고 침묵 시위를 벌입니다.정부가 비수도권 지역 병원 응급실과 중환자실 현장 조사를 벌이자 이에 반발하며 피켓 시위에 나선 겁니다.전공의협의회는 의료계 원로, 국회 보건복지위원장과 만나 잠정협의안을 도출했지만, 의대 정원 확대 방안 등의 전면 철회를 요구하며 파업을 계속하기로 했습니다.의대생들도 반발하자 정부는 내일부터 시작할 계획이던 내년도 의사국가고시 실기시험을 1주일 연기했습니다.응시 취소자가 전체 응시자 3,172명의 90%에 달해 내년 의료인력 수급 차질이 우려되고, 의료계도 시험 연기를 요청하자 당초 예정대로 실시한다는 방침을 바꿨습니다.정부는 의료정책 추진을 강행하지 않기로 양보했는데도 집단휴진을 지속하는 것은 이해할 수 없다며 진료 복귀를 거듭 촉구했습니다.<김강립 / 보건복지부 차관> ""전공의단체에 대하여 국민들의 생명과 안전을 위해 다시 한 번 전향적인 결단을 내려줄 것을 요청합니다.""하지만, 전공의협의회는 이번에는 문재인 대통령을 향해 ""의대생과 전공의, 전임의들을 공권력으로 탄압하는 것을 멈춰달라""고 요구했습니다.주요 대학병원들은 외래 진료와 수술을 줄였습니다.서울대병원은 일주일간 내과 외래진료를 축소한다고 밝혔고, 서울성모병원 외과 교수들은 다음달 7일 하루 응급환자와 중환자, 입원환자 진료를 제외한 외래 진료와 수술을 중단하기로 했습니다.환자단체들은 전공의협의회에 공개서한을 보내 ""의사들의 집단행동이 장기화하면서 환자들의 피해와 불편이 생명을 위협하는 심각한 수준에 이르렀다""며 환자 치료부터 정상화할 것을 요청했습니다.연합뉴스TV 김장현입니다.연합뉴스TV 기사문의 및 제보 : 카톡/라인 jebo23(끝)"
40,연합뉴스,[뉴스초점] 추석 연휴 코로나19 재확산 우려…정부 대책은,"닫기[뉴스초점] 추석 연휴 코로나19 재확산 우려…정부 대책은<출연 : 강도태 보건복지부 2차관>코로나19 확산세가 안정세를 보이지만, 수도권을 중심으로 산발적 감염이 지속되고 있어 안심할 수 없는 상황입니다.특히 이동과 만남이 많은 추석 연휴를 계기로 전국적 재확산이 우려되는 상황입니다.그만큼 추석 방역 대책이 중요한데요, 강도태 보건복지부 2차관 스튜디오에 모시고 이야기 나눠보겠습니다.<질문 1> 우선 2차관에 임명되신 거 축하드립니다. 방송 출연은 이번이 처음으로 알고 있습니다. 보건복지부 2차관이라는 자리가 이번에 신설됐는데, 2차관 신설 의미와 역할에 대해 짧게 소개부터 부탁드립니다.<질문 2> 코로나19로 엄중한 시기에 오시게 됐습니다. 질병관리본부가 청으로 승격되면서 조직도 많이 변하고 보건복지부로부터 독립성도 강화된 셈인데요. 실제 어떤 변화가 있습니까.<질문 3> 코로나19 대응 상황부터 짚어보겠습니다. 신규 확진자 수가 한동안 100명대를 보이더니, 다시 두 자릿수를 유지하고 있는데요. 일단 안정세로 봐도 되는 상황인가요.<질문 4> 방문판매나 요양시설과 같은 고위험시설에서 꾸준히 집단감염이 나오고 있습니다. 이런 부분에 대해 어떻게 대응하고 있는지 잘 되고는 있는지 궁금합니다.<질문 5> 감염경로를 알 수 없는 확진자도 늘어나는 것도 걱정입니다. 지역사회에 조용한 전파가 우려되는 상황인데요. 특히 추석 연휴를 앞두고 전국적으로 감염이 확산될까 걱정이 많습니다. 어떻게 준비하고 계시는지요.<질문 6> 추석 연휴 기간 국민들이 지켜야 하는 부분, 거듭 강조하고 있지만 다시 한번 강조 말씀 부탁드립니다.<질문 7> 거리두기 개편을 진행 중이라고 들었는데, 대략적으로 어떤 내용인지도 궁금합니다.<질문 8> 4차 추경 때, 코로나19 의료인력 지원 내용도 포함된 것 같은데, 지친 의료 인력에 대한 지원방안은 어떤 게 있습니까.<질문 9> 독감 백신 문제도 좀 살펴보죠. 독감 백신이 상온에 노출되는 사고로 인해 걱정이 많습니다. 문제가 없는 건지, 이에 대한 대응 방향에 관해서 설명 부탁드립니다.<질문 10> 의대생들의 의사 국가고시 문제도 여쭙겠습니다. 일단 의사 파업의 경우에는 의정 합의를 통해 일단락된 상태인데요. 의대생들이 국시를 볼 수 있도록 또 기회를 달라고 의료계가 요구를 하고 있습니다. 이에 대한 입장 구체적으로 설명 부탁드립니다.<질문 11> 마지막으로 합의문에도 있지만 코로나19 상황이 마무리되면 의료계와 의료정책을 논의해 추진하겠다고 하셨는데 언제쯤 논의가 이뤄질 예정인지요.연합뉴스TV 기사문의 및 제보 : 카톡/라인 jebo23(끝)"
41,연합뉴스,의료계 오늘 하루 파업…동네병원 25% 휴진,"닫기의료계 오늘 하루 파업…동네병원 25% 휴진[앵커]정부의 의대 정원 확대 정책에 반발하는 의사들이 오늘(14일) 하루 집단 휴진에 들어갔습니다.동네 병원 4곳 중 1곳이 휴진에 참여할 것으로 보입니다.신촌 세브란스병원에 나가 있는 취재기자 연결해 자세히 알아보겠습니다.김장현 기자.[기자]네, 서울 서대문구 세브란스병원에 나와 있습니다.대한의사협회가 오늘 오전 8시부터 24시간 동안 총파업에 돌입했습니다.지난 7일 전공의들의 단체행동 일주일 만입니다.오늘 오후 3시에는 여의도공원에서 집회도 예정돼 있습니다.의협은 회원 70%가 파업에 참가할 것으로 보고 있습니다.이곳 세브란스병원 같은 대학병원 인턴, 레지던트들도 80%가량 동참 의사를 밝혔고 전임의 일부도 참여가 예상됩니다.보건복지부는 동네 병원 4곳 중 1곳 정도가 휴진에 참여한 것으로 집계했습니다.이 때문에 환자 진료 차질이 우려된 게 사실입니다.하지만 응급실, 중환자실 인력은 파업에 참여하지 않아 차질은 크지 않을 것이란 게 병원 관계자들의 설명입니다.다만 집단휴진으로 외래진료 대기시간이 길어지는 등 환자가 불편을 겪을 수 있습니다.정부는 진료하는 병의원을 복지부, 건강보험공단, 건강보험심사평가원, 각 시·도 홈페이지에 게시하고, 대한병원협회에 연장 진료와 응급의료체계 유지를 요청했습니다.또, 지역 내 휴진 비율이 30%를 넘으면 지방자치단체가 병의원에 업무개시 명령도 내리도록 했습니다.[앵커]의료계에서 총파업은 6년 만입니다.의대 정원 확대 외에 파업의 또다른 이유가 있나요?[기자]네, 의협 주도 집단 휴진은 2000년 의약분업 사태, 2014년 원격의료 반대에 이어 이번이 세 번째입니다.의협은 의대 정원 확대 외에도 공공의대 설립, 한방 첩약 급여화, 비대면 진료 도입에 반발하고 있습니다.이들은 특히 의대 정원을 늘려 지역의사를 양성하겠다는 정책이 의료의 질만 떨어뜨린다는 주장을 하고 있습니다.우리 국민들의 연간 병원 방문 횟수가 16.9회로 경제협력 개발기구 OECD 평균 6.8회보다 크게 높아 의사 접근성이 상위권이라며 의사가 부족하지 않다는 겁니다.다만, 기피 진료과목과 기피지역 의사들에게 더 많은 혜택을 줄 것을 주장합니다.하지만 정부는 인구 1천명 당 의사 수가 OECD 평균의 절반에 불과하고 환자 평균 진료시간이 4분에 불과해 의사 증원이 불가피하다고 반박하고 있습니다.또, 고령화로 인한 의료 수요 급증과 지역간 의료 격차 해소를 위해 공공의료인력을 충원해 해소하겠다는 입장입니다.정부는 의협에 대화를 제안하면서 환자의 희생을 담보로 한 단체행동의 중단을 거듭 요청했습니다.지금까지 세브란스병원에서 전해드렸습니다.연합뉴스TV 기사문의 및 제보 : 카톡/라인 jebo23(끝)"
42,연합뉴스,의료계 오늘 하루 파업…지역별 의사 집회 예고,"닫기의료계 오늘 하루 파업…지역별 의사 집회 예고[앵커]정부의 의대 정원 확대 정책에 반발하는 의사들이 오늘(14일) 하루 집단 휴진에 들어갔습니다.서울 여의도에선 잠시후 의사 집회도 곧 시작되는데요.현장에 취재기자 나가 있습니다.김장현 기자.[기자]네, 서울 여의대로에 나와 있습니다.이곳에서 잠시 후 오후 3시부터 대한의사협회 주최 의사 집회가 열릴 예정입니다.현재 이곳에는 개원의, 전공의 등 집회 참가자가 속속 모여들고 있습니다.서울지역 집회가 열리는 이곳 여의도 외에 부산과 전남·광주, 대구·경북, 대전 등 전국 5개 권역에서 동시에 집회가 진행될 예정입니다.대한의사협회는 집회에 앞서 오늘 오전 8시부터 24시간 동안 집단휴진에 돌입했습니다.지난 7일 전공의들의 단체행동 일주일 만입니다.의협은 회원 70%가 이번 파업에 참가할 것으로 자체 추산하고 있습니다.대학병원에서 수련 중인 인턴, 레지던트들도 80% 가량 동참 의사를 밝혔고 일부 전임의들도 집단휴진 참여가 예상됩니다.보건복지부는 어제까지 동네 병원 4곳 중 1곳 정도가 휴진에 참여한 것으로 집계했지만 파업 참가 의원이 더 늘 수 있다고 설명했습니다.이 때문에 환자 진료 차질이 우려되고 있는데요.하지만 응급실, 중환자실 인력은 파업에 참여하지 않아 차질은 크지 않을 것이란 게 병원 관계자들의 설명입니다.다만 집단휴진으로 외래진료 대기시간이 길어지는 등 환자가 불편을 겪었습니다.또, 휴진 사실을 모르고 병의원을 찾았던 환자들이 발걸음을 돌리는 일도 발생했습니다.정부는 오늘 진료하는 병의원을 복지부, 건강보험공단, 건강보험심사평가원, 각 시·도 홈페이지에서 확인해줄 것을 당부했습니다.또 대한병원협회에 연장 진료와 응급의료체계 유지를 요청하는 한편, 지역 내 휴진 비율이 30%를 넘으면 지방자치단체가 병의원에 업무개시 명령을 내리도록 했습니다.[앵커]의료계에서 총파업은 6년 만입니다.의대 정원 확대 외에 파업의 또다른 이유가 있나요?[기자]네, 의협 주도 집단 휴진은 2000년 의약분업 사태, 2014년 원격의료 반대에 이어 세 번째입니다.의협은 의대 정원 확대 외에도 공공의대 설립, 한방 첩약 급여화, 비대면 진료 도입에 반발하고 있습니다.이들은 의대 정원을 늘려 지역의사를 양성하는 정책이 의료의 질만 떨어뜨린다고 주장하고 있습니다.국민들의 연간 병원 방문 횟수가 16.9회로 경제협력 개발기구 OECD 평균 6.8회보다 많아 의사 접근성이 상위권이라며 의사가 부족하지 않다는 겁니다.다만, 기피 진료과목과 기피지역 의사들에게 더 많은 혜택을 줄 것을 주장합니다.하지만 정부는 인구 1천명 당 의사 수가 OECD 평균의 절반에 불과하고 환자 평균 진료시간도 고작 4분으로 의사 증원이 불가피하다고 반박하고 있습니다.또, 고령화로 인한 의료 수요 급증과 지역간 의료 격차 해소를 위해 공공의료인력을 충원해 해소하겠다는 입장입니다.정부는 의협에 대화를 제안하면서 환자의 희생을 담보로 한 단체행동의 중단을 거듭 요청했습니다.지금까지 여의도에서 전해드렸습니다.연합뉴스TV 기사문의 및 제보 : 카톡/라인 jebo23(끝)"
43,연합뉴스,내일 의사 2차 총파업…정부·의협 대화 '진통',"닫기내일 의사 2차 총파업…정부·의협 대화 '진통'[앵커]전국 전공의들이 닷새째 집단휴진을 하고 있습니다.일부 전임의도 여기에 가세하고 있는데요.내일부터는 개원의로 이뤄진 대한의사협회의 2차 총파업도 예고돼 있어, 의료대란이 일어날 수 있다는 우려가 커지고 있습니다.보도에 이진우 기자입니다.[기자]정부에 의대 정원 확대와 공공의대 설립 계획 등의 철회를 요구하는 전공의들의 집단휴진이 닷새째 이어지고 있습니다.파업 참여율은 70% 정도입니다.여기에 서울대병원 등 일부 전임의들도 어제부터 파업에 가세했습니다.내일부터 사흘간은 개원의로 이뤄진 대한의사협회의 2차 총파업도 예고돼 있습니다.앞서 지난 14일 의사협회의 1차 파업 당시 동네의원의 32%가량이 휴진을 했습니다.당시 진료를 보러 의원을 찾다가 헛걸음을 한 경우가 잇따랐는데, 이번 2차 파업은 참여율이 더 높을 것으로 예상되면서 피해가 더 클 것으로 우려됩니다.정부는 이에 대비해 오늘 저녁부터 복지부 홈페이지에 '집단휴진 기간 문여는 병원'을 소개할 계획입니다.홈페이지에 접속하면 가까운 의원을 지도에서 찾을 수 있고, 진료 가능 날짜도 확인할 수 있습니다.대형 병원들은 급하지 않은 수술은 미루고 일부 외래 예약을 줄이는 방법으로 대응하고 있습니다.서울대병원의 경우 수술 건수를 평소보다 30%를 줄였고, 일부 병원에서는 암환자들까지 수술 일정을 못 잡고 기다리는 중입니다.중앙재난안전대책본부는 각 지자체에서 보건소 중심의 의료·진료지원체계를 구축하는 등 비상진료대책을 세우고 있다고 밝혔습니다.정부는 파업 사태를 풀기 위해 그제 전공의협의회에 이어 어제 의사협회 회장단을 만났지만, 의료정책 현안을 놓고 입장차를 좁히지 못했습니다.정부와 의협이 실무 협의를 이어가고 있는데, 극적 타협을 이뤄 의료 공백을 막을지 마지막까지 지켜봐야 하는 상황입니다.연합뉴스TV 이진우입니다.연합뉴스TV 기사문의 및 제보 : 카톡/라인 jebo23(끝)"
44,연합뉴스,"의사단체들 단일안 도출…""국회·정부와 대화""","닫기의사단체들 단일안 도출…""국회·정부와 대화""[앵커]정부 의료정책에 반발하는 의사단체들이 국회와 정부에 요구할 단일안을 만들었습니다.가능한 한 빨리 대화에 나서기로 했는데, 집단휴진 사태까지 벌어진 의·정 갈등이 기로에 섰습니다.김장현 기자입니다.[기자]전임의와 전공의의 집단휴진이 계속되고 있는 가운데, 의사단체들이 국회 및 정부와 협상을 하기 위한 단일안을 도출했습니다.범의료계 4대악 저지 투쟁 특별위원회는 오늘 오후 회의를 열고 단일안을 만들었지만 어떤 내용인지는 공개하지 않았습니다.이 회의에는 의협 이외에 전공의와 전임의, 의대생으로 구성된 젊은의사 비상대책위원회도 참석했습니다.의협은 단일안을 가지고 이른 시일 내 사태 해결을 위해 정부, 국회와 적극적으로 대화하겠다고 밝혔습니다.단일안에는 여당과 공감한 내용과 함께 추가 요구 사항이 담겼을 것으로 보입니다.앞서 더불어민주당 한정애 정책위의장이 최대집 의협회장과 박지현 전공의협의회 비대위원장을 잇따라 만났습니다.한 의장은 의대 증원 등 4대 정책을 원점에서 논의할 수 있다는 입장을 밝혔고 의협은 긍정적인 반응을 보였습니다.의협은 단일안을 도출했지만, 전공의들의 집단휴진과 오는 7일 의협의 3차 무기한 파업은 현재로선 변화가 없다는 입장입니다.따라서 의협과 국회의 협상, 또 정부와의 협상은 3차 파업 전에 이뤄질 것으로 보입니다.보건복지부는 의사단체들의 요구안을 받으면 최대한 빨리 검토할 계획입니다.복지부는 국회와 의사단체의 합의 결과가 나오면 최대한 존중하겠다고 입장으로, 이번 주말이 의·정 갈등의 최대 고비가 될 것으로 전망됩니다.연합뉴스TV 김장현입니다.연합뉴스TV 기사문의 및 제보 : 카톡/라인 jebo23(끝)"
45,연합뉴스,"의대생협회 ""동맹휴학·국가고시 거부 중단한다""","닫기의대생협회 ""동맹휴학·국가고시 거부 중단한다""정부의 의료정책에 반대해온 의대생들이 동맹휴학과 국가고시 거부 등 단체행동을 중단합니다.의과대학·의학전문대학원 학생협회는 오늘(14일) 성명을 내고 ""보건의료정책 상설감시기구의 발족으로 협회의 목표를 달성했기에 모든 단체행동을 공식적으로 중단한다""고 밝혔습니다.그러면서 ""단체행동 중단이 우리의 연대가 멈춘다는 것을 의미하지는 않는다""며 ""또다시 국민의 건강권을 위협하는 정책이 강행된다면 언제든 단체행동을 불사할 것""이라고 덧붙였습니다.연합뉴스TV 기사문의 및 제보 : 카톡/라인 jebo23(끝)"
46,연합뉴스,"당정-의협 협상 타결…""의대 증원 원점 재논의""","닫기당정-의협 협상 타결…""의대 증원 원점 재논의""[뉴스리뷰][앵커]의료정책을 놓고 갈등을 빚은 정부·여당과 의사협회의 협상이 타결됐습니다.쟁점인 의대 정원 확대와 공공의대 설립 추진을 중단하고 원점에서 다시 논의하기로 했습니다.김장현 기자입니다.[기자]박능후 보건복지부 장관과 최대집 의협 회장의 합의문 서명식이 전공의들의 반발로 3차례나 연기된 끝에 진행됐습니다.앞서 정부와 여당은 의협과 밤샘 협상을 벌여 극적 타결을 이뤘습니다.<박능후 / 보건복지부 장관> ""대한의사협회는 진료현장에 복귀하기로 했으며, 보건복지부는 의대 정원 확대, 공공의대 신설 추진을 중단하고 코로나19 안정화 이후 모든 가능성을 열어놓고 협의체를 통해 이 문제를 협의해나가기로 했습니다.""복지부는 의협과 민주당의 정책 협약에 따라 구성되는 국회 협의체 논의 결과를 존중하고, 의대 정원 통보 등 일방적 정책 추진을 강행하지 않기로 합의했습니다.4대 정책의 발전적 방안은 의정협의에서 논의하기로 했습니다.이번 협상의 중재자로 나선 한정애 더불어민주당 정책위의장은 정부에 앞서 최 회장과 여의도 민주당사에서 합의문에 서명했습니다.민주당과 의협의 합의문에도 의대 정원 확대 등과 관련해 코로나 사태가 안정될 때까지 논의를 중단하고 이후 원점에서 재논의한다는 내용이 담겼습니다.<최대집 / 의사협회 회장> ""대한의사협회가 처음부터 줄곧 요청해왔던 그런 부분들에 대해서 합의가 이뤄졌기 때문에 이제 충분히 갈등을 봉합할 수 있게 됐다. 앞으로 코로나19 대응에, 비코로나 일반환자 진료에 집중하고 진료현장에 복귀하겠다""정부는 업무개시명령을 위반한 전공의 6명에 대한 경찰 고발도 취하했습니다.다음주 의협의 3차 무기한 파업을 앞두고 정부와 의협이 타협점을 찾았지만 전공의들의 반발은 아직 변수로 남았습니다.연합뉴스TV 김장현입니다.연합뉴스TV 기사문의 및 제보 : 카톡/라인 jebo23(끝)"
47,연합뉴스,美 마스크 착용 권고키로…의료물자 부족 해결 안간힘,"닫기美 마스크 착용 권고키로…의료물자 부족 해결 안간힘[뉴스리뷰][앵커]그간 마스크 착용에 대해 미온적이었던 미국이 코로나19 감염자가 폭증하자 정책을 바꿨습니다.마스크 착용 권고 지침이 예고된 가운데 미국내 마스크 부족 문제를 해결하기 위한 자구 움직임들이 분주합니다.김효섭 PD입니다.[리포터]세계보건기구, WHO에 이어 미국도 마스크 착용으로 입장을 선회했습니다.미국내 코로나19 확진자가 24만명을 넘어서고 무증상 감염자에 대한 우려가 커지자 정책 방향을 바꾼 겁니다.<도널드 트럼프 / 미국 대통령> ""마스크 착용을 꺼리는 사람들도 있을 수 있기 때문에 마스크 착용을 강제하는 것은 아닙니다. 국민들이 스스로 선택하면 됩니다.""하지만 마스크 착용이 정착되기 위해서는 방역물품 부족 문제가 우선 해결돼야 하는 상황.미국내 코로나19 확진자가 가장 많은 뉴욕주의 경우 이미 방역 물품 가격이 천정부지로 치솟았으며, 특히 마스크의 경우 평소보다 15배 이상 비싼 가격에 거래되는 것으로 나타났습니다.상황이 이렇자 미 정부는 불안정한 상황을 노린 불공정 거래행위에 대한 단속강화 방침을 내비쳤습니다.<피터 나바로 / 미국 백악관 무역제조업 정책국장> ""사람들이 경쟁적으로 입찰을 벌이도록 하는 암시장이 등장하고 있습니다. 브로커들이 입찰경쟁에 끼어들어서 가격 상승을 부추기고 있습니다. 우리는 이들을 강력하게 단속할 것입니다.""민간에서도 마스크를 비롯해 개인보호 의료물자 부족을 해결하기 위해 다양한 움직임이 나타나고 있습니다.방역 물품 확보가 시급한 뉴욕의 병원에서는 3D 프린팅 기술로 투명한 안면보호대 자체 생산에 나섰습니다.<니콜 웨이크 / 병원 관계자> ""코로나19 치료의 최전선에 있는 의료진을 위해 병원내 3D 프린터를 활용해 개인보호장비를 만들기로 결정했습니다.""일부 의료 제품 생산 업체는 의료진을 위해 기존 생산라인을 변경해 마스크의 수명을 연장하는 제품을 개발했다고 밝혔습니다.연합뉴스TV 김효섭입니다.연합뉴스TV 기사문의 및 제보 : 카톡/라인 jebo23(끝)"
48,연합뉴스,"소상공인에 10조원 추가 대출…""원격의료 규제 혁파""","닫기소상공인에 10조원 추가 대출…""원격의료 규제 혁파""[앵커]정부가 코로나19 사태로 힘든 소상공인들에게 대출 10조원을 더 공급합니다.다만 금리는 지금의 초저금리 상품보다 좀 오릅니다.또 원격 의료, 원격 교육 활성화를 위한 규제 혁파 방침도 밝혔는데요.1차 비상경제 중앙대책본부 회의 내용, 이승국 기자가 전해드립니다.[기자]홍남기 경제부총리 주재로 열린 비상경제 중앙대책본부 첫 회의에서 정부는 10조원의 소상공인 2차 금융지원 방안을 확정했습니다.이 상품의 금리는 1차 때의 연 1.5%보다 높은 연 3~4% 선입니다.초저금리로 진행한 1차 대출 때 덜 시급한 수요까지 몰려 자금이 너무 빨리 소진된 점을 고려한 조치입니다.대출 한도는 1,000만원이고, 6대 시중은행에서 신청과 보증 심사까지 가능합니다.<김용범 / 기획재정부 1차관> ""중간 신용도 이하 소상공인분들의 실수요에 대해 지원을 집중하고 현장에서 신속하게 집행될 수 있으며, 제한된 재원을 보다 효과적으로 활용할 수 있도록 하는데 주안점을 두었습니다.""신청은 다음 달 중순부터 받고, 1차 저금리 대출을 받은 사람은 대상에서 제외됩니다.코로나 사태 이후 대비를 위한 10대 산업 규제 완화 방안도 내놨습니다.미래 차와 의료 신기술, 핀테크 분야 등의 규제 문턱을 획기적으로 낮춰 성과를 내겠다는 건데, 특히 코로나 사태로 13만 건이나 이뤄진 원격 의료는 그 필요성에 대해 많은 사람이 절감하게 됐다고 강조했습니다.<홍남기 / 부총리 겸 기획재정부 장관> ""원격 의료, 원격 교육, 온라인 비즈니스 등 '비대면 산업'에 대해서는 위기를 기회로 활용한다는 측면에서 그 규제 혁파와 산업 육성에 각별한 정책적 역점을 두어나갈 것입니다.""또 정부는 일자리 창출을 위한 이른바 '한국판 뉴딜'을 다음 주 회의 정식 안건으로 상정해, 구체적인 논의를 진행할 계획입니다.연합뉴스TV 이승국입니다.연합뉴스TV 기사문의 및 제보 : 카톡/라인 jebo23(끝)"
49,연합뉴스,"지역감염 우려에 의료계 ""전면전 선포·중국서 입국 차단""","닫기지역감염 우려에 의료계 ""전면전 선포·중국서 입국 차단""[앵커]감염경로와 감염원을 모르는 코로나19 확진자가 잇따라 나오자 시민들의 우려도 커지고 있는데요.이 때문에 의료계 일부는 정부 당국이 전면전을 선포하고 중국 경유자의 입국 차단을 요구하기도 했습니다.한상용 기자입니다.[기자]국내 의료계 인사들과 박원순 서울시장이 긴급 간담회를 연 대한병원협회.의료계는 지역감염의 확산 가능성에 우려를 보이며 정부의 단호한 대응을 촉구했습니다.특히, 지금의 상황을 두고 '전쟁'이라는 표현까지 써가며 시기에 맞는 정책 역량의 집중이 중요하다고 강조했습니다.<임영진 / 대한병원협회 회장> ""지금 병원·의료계가 전쟁이나 마찬가지죠. (지역감염이) 아쉽게도 2~3일 전부터 여러 지역에서 나오고 있고…""<박홍준 / 서울시 의사회 회장> ""지금은 전면전을 선포해 주시기 바랍니다. 심각성을 같이 얘기하고, 보건소 선별진료소의 대폭 강화가 아니라 전면 강화입니다.""지역감염의 확산을 막기 위해선 ""중국 경유 입국을 차단해야한다""는 의견도 나왔습니다.<김갑식 / 서울시 병원협회장> ""늦었지만 중국 경유자들을 완전 차단시켜야되지 않느냐 이런 생각입니다. 지역 사회의 감염이 확산 단계로 들어간 것 같습니다만 만약에 급속히 확산될 경우 한국 경유자조차도 차단할 우려가…""박원순 서울시장은 지역감염 확산 차단에 적극 나서겠다고 밝혔습니다.<박원순 / 서울시장> ""서울시는 보건소의 코로나 의심 환자 관리를 선별진료소의 기능을 훨씬 더 대폭 강화할 예정입니다.""이를 위해 25개 보건소에 있는 선별진료소는 24시간 진료체계를 구축하고 의심 증상 시민까지 진료 대상을 확대한다고 서울시는 전했습니다.연합뉴스TV 한상용입니다. (gogo213@yna.co.kr)연합뉴스TV 기사문의 및 제보 : 카톡/라인 jebo23(끝)"
50,연합뉴스,"[AM-PM] 정총리, 대한의사협회와 대화…의료공백 저지 총력 外","닫기[AM-PM] 정총리, 대한의사협회와 대화…의료공백 저지 총력 外이번 시간은, 오늘 하루의 주요 일정을 확인해보는 시간이죠.보도국 AM-PM 입니다.어떤 일정이 있는지 함께 확인해보시죠.▶ 10:00 국회 예결위, 결산심사…재난지원금 등 논의될 듯 (국회)국회 예산결산특별위원회가 2019 회계연도 결산 심사에 착수합니다.국회 예결위는 오늘(24일)과 내일(25일) 종합정책 질의에 이어 오는 28일 경제부처 부별심사, 31일 비경제부처 부별 심사를 이어갑니다.특히 이번 예결위 결산 심사 과정에서, 코로나19 재확산에 따른 2차 긴급재난지원금 지급과 4차 추가경정예산 편성 여부가 화두에 오를지 주목됩니다.▶ 10:00 법무부, 고검검사급 중간간부 검찰인사위원회 개최 (정부과천청사)법무부가 이번 주 검찰 중간 간부 인사를 앞두고 오늘 인사위원회를 열어 고검검사급 중간 간부의 승진과 전보 인사를 논의합니다.큰 폭의 인사가 예상되는 가운데, 윤석열 총장의 측근과 주요 사건 수사팀이 교체될지에 관심이 쏠립니다.▶ 14:00 정총리, 대한의사협회와 회동…의료공백 저지 총력 (정부서울청사)정세균 총리가 어제(23일) 대한전공의협의회에 이어 오늘(24일 대한의사협회 측을 만나 대화에 나섭니다.정 총리는 코로나19 재확산 국면에서 의료공백을 최소화하기 위해 의료계 최대 단체인 의협과 오늘 오후 2시 정부서울청사에서 만날 계획입니다.앞서 의협은 모레(26일)부터 사흘간 2차 총파업에 나서겠다고 발표해 의료 공백 우려가 제기됐습니다.정 총리가 어제 면담한 대한전공의협의회는 코로나19 대응을 위한 진료에 적극 참여하는 한편 정부와 진정성 있는 논의에 나서겠다고 밝혔습니다.지금까지 '오늘의 주요 일정'이었습니다.연합뉴스TV 기사문의 및 제보 : 카톡/라인 jebo23(끝)"
51,연합뉴스,[1번지오감] 전공의 오늘부터 진료 복귀 外,"닫기[1번지오감] 전공의 오늘부터 진료 복귀 外▶ 전공의 오늘부터 진료 복귀…의사시험 거부 '불씨'1번지오감, 오늘의 첫 번째 사진입니다.가운을 차려입은 의사들이 병원 복도를 지나고 있는데요.정부의 의료정책에 반발해 무기한 집단휴진을 이어갔던 전공의들이 19일 만에 업무에 복귀했습니다.각 대학병원 전공의들이 하나둘씩 병원으로 돌아오면서 의료현장은 점차 안정을 찾아가는 분위기인데요.다만, 의대생 국가고시 거부 문제가 새로운 뇌관으로 떠오르면서 갈등의 불씨가 여전히 남아있는 상황입니다.▶ 추석 승차권 온라인 예매 시작…창가 좌석만 판매두 번째 사진볼까요?서울역에 추석 승차권 예매 변경 안내문이 붙어있는데요.올해 추석 연휴 열차표 예매가 오늘부터 시작됐습니다.승차권 예매는 코로나19 확산 방지 차원에서 100% 온라인으로만 이뤄지는데요.열차 승객 간 거리두기를 위해 창가 좌석만 판매하고 있습니다.방역당국은 돌아오는 추석 연휴기간이 코로나19 방역의 분수령이 될 것으로 보고 있는데요.코로나19 재확산을 막기 위해서는 가급적 고향과 친지방문은 자제하는 것이 좋겠습니다.▶ '코로나19 희생자 추모' 의자 놓인 이스라엘 광장마지막 사진입니다.넓은 광장에 놓인 수많은 의자들.의자 위에는 꽃과 누군가의 이름표처럼 보이는 종이가 붙여져 있는데요.이스라엘 광장에서 코로나19 희생자를 상징하는 1천개의 의자를 놓고, 희생자들을 추모하고 있습니다.최근 이스라엘에서 바이러스가 급속히 확산하자 정부는 40개 지역에 야간통행금지령을 내리기도 했습니다.지금까지 1번지 오감이었습니다.연합뉴스TV 기사문의 및 제보 : 카톡/라인 jebo23(끝)"
52,연합뉴스,신규 확진 400명 육박…전공의 코로나 진료 참여,"닫기신규 확진 400명 육박…전공의 코로나 진료 참여[앵커]국내에서 코로나19 하루 확진자가 400명 가까이 발생했습니다.거의 반년 만에 가장 많은 수준인데요.보도국 연결해 자세한 소식 들어보겠습니다.곽준영 기자.[기자]네, 국내 코로나19 확진자가 그제(22일) 397명 추가로 발생해 누적 확진자가 1만7,399명으로 늘었습니다.신규 확진자 수는 사흘째 300명대이자 열흘째 세자릿수입니다.발생일 기준으로 지난 3월 6일 483명 이후 거의 반년 만에 가장 많은 확진자가 나온 건데요.신규 확진자 가운데 국내 지역사회 감염자가 387명으로 대부분을 차지했고 해외유입은 10명입니다.지역별로 보면 서울 138명, 경기 124명, 인천 32명입니다.수도권 외 지역에선 광주와 대전, 강원에서 각 15명, 전남 14명, 충남 10명 등으로 제주와 전북, 세종을 제외하고 모두 확진자가 나왔습니다.[앵커]전국 곳곳에서 새로운 집단감염 우려도 커지고 있다면서요?[기자]네, 그렇습니다.일단 구청 공무원이 코로나19 양성 판정을 받은 인천 서구가 비상인데요.인천 서구 소속 공무원 A씨는 어제 선별진료소에서 코로나19 검사를 받아 양성 판정을 받았습니다.현재 방역 당국은 구청을 폐쇄하고 방역작업과 함께 A씨에 대한 역학조사를 벌이고 있는데요.구청 본청 공무원 전원 등 모두 1,337명을 상대로 검체 검사를 실시하기로 했습니다.또, 인천 서구의 한 중학생도 최근 코로나19에 감염돼 우려가 큰 상황인데요.방역당국은 해당 학교 학생과 교직원 859명 전원을 대상으로 검체 검사를 진행하기로 했습니다.이 중 어제까지 83명에 대한 검체 채취를 완료했으며 나머지 776명에 대한 검사는 오늘 진행됩니다.경기도 고양시 사법연수원 직원도 코로나19 확진 판정을 받았는데요.사법연수원은 이 직원과 접촉한 직원 17명에 대해 자가격리 조치하고 밀접 접촉자 5명에게는 검사를 받도록 지시한 상태입니다.[앵커]코로나19 확산세 속에서 의료진의 파업 예고로 의료공백이 우려되는 상황인데요.전공의들은 코로나19 진료에 참여하기로 했다고요?이 부분도 짚어주시죠.[기자]네, 그렇습니다.정부 의료정책에 반발해 순차적 파업에 돌입한 대한전공의협의회와 정세균 국무총리가 어제 만났습니다.이 자리에 대전협은 코로나 대응을 위한 진료에 적극 참여하겠다는 뜻을 밝혔습니다.전국적인 코로나19 확산으로 의료진 부족 사태가 우려되는 만큼 코로나 대응 진료에 나서기로 한 겁니다.다만, 대전협 측은 이번 결정이 전공의들의 파업 철회나 전면 현장 복귀를 뜻하는 것은 아니라고 선을 그었는데요.코로나19 대응이 시급한 만큼 일단 일부 인원을 현장에 투입하고 정부와 진정성 있는 논의에도 착수하기로 했습니다.정 총리는 오늘 오후 2시에 대한의사협회 측도 만나 대화에 나서기로 했습니다.앞서 의협이 모레(26일)부터 사흘간 2차 총파업에 나서겠다고 발표한 상황에서 오늘 양측이 만나 어떤 결론을 낼지 주목됩니다.지금까지 보도국에서 전해드렸습니다. (kwak_ka@yna.co.kr)연합뉴스TV 기사문의 및 제보 : 카톡/라인 jebo23(끝)"
53,연합뉴스,"의협파업 사흘째…정부 ""오전에 미복귀 전공의 고발""","닫기의협파업 사흘째…정부 ""오전에 미복귀 전공의 고발""[앵커]오늘(28일)은 의사협회의 2차 집단휴진 사흘째이자 마지막 날입니다.정부와 의협은 의대 정원 확대 등 의료정책을 놓고 계속 대립하고 있는데요.서울대병원에 나가 있는 취재기자 연결해 봅니다.김장현 기자.[기자]네, 서울대병원에 나와 있습니다.의협의 2차 집단휴진이 사흘째 이어지고 있는데요.오늘은 의협이 예고한 파업 마지막 날입니다.이곳 서울대병원을 포함해 전국에 있는 전공의와 전임의의 단체행동은 계속되고 있습니다.보건복지부는 어제 낮 12시 기준으로 전국 전공의 수련기관 200곳을 165곳을 파악한 결과, 전공의 8,800여명 가운데 70% 가까운 6,000여명이 근무하지 않는 것으로 나타났습니다.전공의 3명 가운데 2명꼴로 진료 현장을 떠났다는 겁니다.전임의는 전체 1,900여명 가운데 540여명인 28% 정도가 휴진에 동참했습니다.전국 3만 2,000여개 동네의원의 경우 10곳 중 1곳 정도가 휴진에 참여했습니다.동네의원의 경우 참여율이 낮아 큰 혼란은 없는 상황입니다.하지만 전공의와 전임의가 상당수 빠진 대학병원에서는 수술 연기와 외래진료 연기 등으로 환자를 피해를 보고 있습니다.[앵커]전공의들이 정부의 진료 복귀 명령을 거부하며 집단 사직서를 쓰고 있다고요?.[기자]정부는 그제 수도권 전공의와 전임의에게 즉시 진료 현장으로 복귀하라는 업무개시명령을 발동했습니다.이후 주요 20개 병원 응급실과 중환자실을 점검해 휴진 전공의 358명에게 업무개시명령서도 발부했습니다.하지만 전공의들은 이에 불응하며 사직서 제출로 맞서고 있습니다.전공의협의회는 전공의의 76%가량이 사직 의사를 표시했다고 밝혔습니다.세브란스병원 응급의학과 소속 전공의 등 일부 병원 전공의들은 사직서를 냈습니다.전임의들도 성명을 내고 사직을 결의했고, 의대생 상당수도 다음 주로 예정된 의사 국가고시를 거부하기로 했습니다.서울대병원 의대 내과교수들도 휴진에 동참할지 내부적으로 논의하고 있는데, 휴진에 참여할 경우 파장이 클 것으로 보입니다.[앵커]잠시 뒤에는 정부가 관계부처 합동 브리핑을 통해 진답휴진에 대한 대응 계획을 발표합니다.진료 복귀를 거부한 전공의를 오전 중에 경찰 고발한다는데 관련 소식도 전해주시죠?[기자]네, 정부는 의사단체의 집단휴진과 관련해 잠시 뒤인 서울정부청사에서 관계 부처 합동브리핑을 합니다.합동브리핑은 김강립 보건복지부 차관, 고기영 법무부 차관, 송민헌 경찰청 차장이 하는데요.의사들의 진료 복귀를 다시 한번 촉구하면서 범정부 대응책을 구체적으로 발표할 것으로 보입니다.보건복지부는 브리핑이 끝나면 집단휴진에 참여한 전공의들에 대한 고발장을 서울지방경찰청에 제출할 계획입니다.구체적인 고발 대상 인원은 아직 알려지지 않았습니다.정부는 당초 어제 오후 고발하려다가 의료계 원로들의 의견을 듣고 일단 보류했는데요.하지만 하루도 채 안돼 다시 고발장을 제출하기로 하면서 의사단체들이 강하게 반발할 것으로 보입니다.앞서 최대집 의협 회장은 의사들에게 불이익이 있으면 무기한 파업으로 맞서겠다고 밝혔는데요.의협은 추가 입장을 내놓을 것으로 보입니다.지금까지 서울대병원에서 전해드렸습니다.연합뉴스TV 기사문의 및 제보 : 카톡/라인 jebo23(끝)"
54,연합뉴스,[뉴스포커스] 오늘 수도권 거리두기 2.5단계 연장 여부 발표,"닫기[뉴스포커스] 오늘 수도권 거리두기 2.5단계 연장 여부 발표<출연 : 정기석 한림대성심병원 호흡기내과 교수·최진봉 성공회대 교수>모레 일요일 종료되는 수도권의 사회적 거리두기 2.5단계 조치 연장 여부가 오늘 결정됩니다.한편 의대증원과 공공의료 확충을 두고 갈등을 빚어온 정부 여당과 의협이 조금 전 극적으로 합의에 이르면서 의사들의 집단휴진 사태는 보름 만에 끝날 전망입니다.관련 내용들, 정기석 한림대성심병원 호흡기내과 교수, 최진봉 성공회대 교수와 함께 짚어보겠습니다.어서 오십시오.<질문 1> 대한의사협회와 더불어민주당이 의료정책과 관련한 합의문에 함께 서명하는 모습 보셨는데요. 그동안 거의 보름 가까이 집단 휴진에 들어가면서 국민들의 피해도 상당했더고요. 오늘 합의 모습 어떻게 보셨습니까?<질문 2> 오늘 오전 9시 반에 발표된 수치로는 아직까지는 100명대가 어제에 이어서 유지됐습니다. 오늘은 약간 오른 수치입니다. 198명, 물론 거의 200명에 육박한 수치이기는 합니다만 그 내용이 중요할 것 같습니다. 수도권에서만 128명인데 우려했던 폭발적 확산세는 다소 꺾였다고 봐도 되겠습니까? 현재 코로나19 상황, 어떻게 보고 계십니까?<질문 3> 수도권 거리두기 2.5단계, 사실 처음부터 2.5단계는 없었지만 정부가 고심 끝에 사실상 3단계에 준하는 2.5단계를 발표한 건데요. 현재 수도권 2.5단계 시행한지 일주일이 안 됐는데 그 효과가 나타나고 있는 건 아닌거죠? 정부가 이르면 오늘 중 연장 여부를 발표할 예정이라고 하는데 교수님께서는 좀 더 연장해야 한다고 보십니까?<질문 3-1> 거리두기 2.5단계로 지금 많은 자영업자와 소상공인 등의 경제적인 타격이 크고 국민들의 불편함 역시 가중되고 있는 상황인데요. 정부로서는 장기간 연장하는 것이 부담스러울 것 같습니다. 원래는 주말쯤 2.5단계 연장여부를 발표한다고 했다가 오늘 발표하는 이유가 있습니까?<질문 4> 신규 확진자 수는 다소 줄고 있지만 감염경로가 불분명한 환자 비율은 24.4%로 계속 높아지고 있습니다. 하루하루 정말 다양한 곳에서 다양한 집단감염 사례가 계속 발생하고 있는데요. 감염경로 불분명 사례를 조금이라도 줄이려면 어떻게 해야 합니까?<질문 4-1> 아직까지도 사랑제일교회와 도심집회 참여한 사람 중 검사를 받지 않은 분들이 많습니다. 심지어 자신들은 방역지침을 어긴 적이 없다며 책임을 회피하고 있는데요. 엊그제 경찰이 사랑제일교회 사택 등 관련시설 4곳에 대한 압수수색을 진행한 건 어떻게 진행 중인가요?<질문 4-2> 이런 와중에 온라인 커뮤니티를 중심으로 10월 3일 개천절에 또다시 도심 집회가 열린다는 글과 포스터가 확산해 논란이 됐는데요. 전광훈 목사 측은 내부적으로 어떤 일정도 잡혀 있지 않다고 선을 그었지만 정부에 대한 불신을 내보이고 있는 상황 속에서 단순히 근거 없는 얘기로만 볼 수는 없을 것 같습니다. 코로나19 가을철 대유행에 대한 걱정도 큰데요. 당분간은 그 어떤 형태의 집회라 하더라도 막아야 할 것 같습니다.<질문 5> 지금 가장 심각한 것이 병원에서의 집단감염이 아닐까 싶은데요. 최근 1주일간 서울 시내 의료기관 7곳에서 코로나19 확진자가 30명 발생했다고 합니다. 서울시에 따르면 환자가 17명, 의료진이 13명 감염됐다고 하는데요. 병원이란 곳이 면역력이 약한 환자들이 많기 때문에 감염 위험이 많은 곳이긴 하죠? 의료기관 감염을 막기 위해 어떤 점에 더 신경을 써야 할까요?<질문 5-1> 최근 감염사례를 보면 일명 '3밀'이라고 불리는 감염 위험 시설뿐 아니라 동네 치킨집, 아파트, 골프장, 김치공장 등 일상과 일터 곳곳에서 크고 작은 집단감염이 발생하고 있는데요. 코로나19로부터 안전한 곳이 없다는 방역당국의 경고가 현실이 되고 있는 것 같습니다. 국민 스스로가 방심하지 않는 방법밖에 없을 것 같아요?<질문 6> 성남의 한 치킨집에서 모두 7명의 직원 중 6명이 감염된 사례도 있는데요. 매장 내 CCTV를 보니까 직원들이 마스크를 철저하게 착용했고 방역지침 역시 철저하게 준수했다고 합니다. 이전 스타벅스 야당역점의 경우 마스크를 착용했던 점원들은 한 명도 감염이 안 됐었는데 아무리 방역수칙을 잘 지켜도 같은 공간에서 함께 오랜 시간을 접촉한다면 감염을 피할 수는 없는 건가요?<질문 7> 폭발적인 확진세는 줄었지만 방역당국이 안심할 수 없는 것이 바로 위·중증 환자가 계속해서 늘어나고 있는데요. 지난달 중앙임상위가 3일경 중증환자가 최대 130명이 이를 것이라고 예측을 했는데 이미 그 수치를 훌쩍 넘어섰습니다. 위·중증 환자가 급속하게 늘어나는 이유가 단순히 고령층 확진자가 많아졌기 때문인지, 아니면 다른 이유가 또 있을까요?<질문 7-1> 정부에서는 이달까지 중증환자 치료병상을 110개 추가 확보할 계획이라고 밝혔지만 현재 중증 환자가 늘어나고 있는 추세를 볼 때 금방 다 차버릴 것 같은데요. 중증환자 병상에 대한 장기적인 대책이 필요해 보입니다. 가용 병상을 확보하는 데 문제는 없을까요?지금까지 정기석 한림대성심병원 호흡기내과 교수, 최진봉 성공회대 교수였습니다.감사합니다.연합뉴스TV 기사문의 및 제보 : 카톡/라인 jebo23(끝)"
55,연합뉴스,"확진자 증가세 주춤…중앙임상위 ""방역정책 전환 필요""","닫기확진자 증가세 주춤…중앙임상위 ""방역정책 전환 필요""[뉴스리뷰][앵커]코로나19 누적 확진자가 하루새 64명으로 다시 주춤해졌습니다.하지만 해외 유입이 뚜렷하게 늘어 또다른 위험으로 떠올랐고 의료적 판단을 내리는 중앙임상위원회는 백신 개발 없이 코로나 종식은 어렵다며 장기전에 대비하자는 의견을 내놨습니다.김장현 기자입니다.[기자]코로나19 확진자가 하루새 64명 늘었습니다.74명이 늘어난 16일 이후 하루 증가폭으로는 최소치입니다.누적 확진자는 8,961명이 됐습니다.대구·경북은 26명으로 전체의 절반 이하였고 경기도 14명, 서울 6명 등 수도권에선 20명의 추가 확진자가 나왔습니다.하지만, 코로나19의 세계적 확산으로 해외유입이 늘었습니다.유럽발 6명, 미주발 8명 등 신규 확진자 20% 이상이 해외에서 들어온 경우였습니다.대구·경북지역 위중환자가 잇따라 숨져 사망자도 120명선에 다가갔습니다.현재 인공호흡기나 인공심폐기에 의존하는 위중한 환자는 64명, 중증 환자는 27명이었습니다.반면, 격리해제된 사람은 257명 늘어 모두 3,166명입니다.한편, 의료계 전문가로 구성된 중앙임상위원회는 장기전에 대비해 방역정책 전환을 모색해야 한다는 제언을 내놨습니다.코로나19 종식을 위해선 예방접종으로 인구 60%가 면역을 가져야 하는데 전제인 백신 개발에 1년 가량 걸리기 때문입니다.그 때까지 해외 유입을 차단하고 접촉자를 찾아 전파를 막는 방식의 유지가 쉽지 않다는 겁니다.<오명돈 / 중앙임상TF 위원장> ""우리는 두가지 방역정책 가운데 하나를 선택할 기로에 있습니다. 백신이 나올때까지 현재와 같은 억제정책을 지속할 것인지 아니면 일부 완화할 것인지.""임상위는 또 확진자 80%는 가볍게 앓고 지나간다며 치료제가 아직 없지만 크게 우려할 상황은 아니라고 밝혔습니다.연합뉴스TV 김장현입니다.연합뉴스TV 기사문의 및 제보 : 카톡/라인 jebo23(끝)"
56,연합뉴스,"환자단체 ""의사들 즉각 복귀해야…정부도 책임""","닫기환자단체 ""의사들 즉각 복귀해야…정부도 책임""환자단체가 다음달 7일부터 무기한 파업을 발표한 의사협회에 대해 집단행동 중단을 촉구했습니다.한국환자단체연합회는 오늘(29일) 서울 종로구 서울대학교병원 정문 앞에서 기자회견을 열고 이같이 밝혔습니다.이들은 ""의사협회가 내세운 '4대악 의료정책'을 환자 생명을 볼모로 삼으면서까지 막아야 하는지 의문""이라고 비판하고 ""집단행동이 계속되면 다수의 환자가 생명을 잃게 될 것""이라고 지적했습니다.또, ""의대 정원 확대 등의 정책 추진은 사회적 공론화 과정을 거쳐야 한다""며 정부의 책임도 거론했습니다.연합뉴스TV 기사문의 및 제보 : 카톡/라인 jebo23(끝)"
57,연합뉴스,전공의 집단휴진 중단 진통…오늘 복귀 시점 재논의,"닫기전공의 집단휴진 중단 진통…오늘 복귀 시점 재논의[앵커]전공의단체가 단체행동을 잠정 중단하기로 했지만 내부 반발로 오늘도 집단휴진을 계속하고 있습니다.전공의단체는 오늘 오후 진료 복귀 시점을 다시 논의할 계획입니다.서울대병원에 나가 있는 취재기자 연결합니다.김장현 기자.[기자]네, 서울대병원에 나와 있습니다.이곳을 포함한 전국 수련병원에서 전공의들의 집단휴진이 지속되고 있습니다.지난달 21일부터 18일째 집단휴진입니다.당초 전공의협의회 비상대책위원회는 어제 새벽 대의원 총회에서 단체행동을 잠정 중단하고 1인 시위만 하기로 의결하면서 오늘부터 진료 업무에 복귀할 것으로 예상됐습니다.하지만 일부 전공의와 의대생들의 반발에 복귀가 미뤄졌습니다.반발하는 전공의와 의대생들은 의대 증원 등의 정책 철회 없이는 파업을 중단할 수 없다며 대의원이 아닌 모든 전공의가 참여하는 투표를 해달라고 요구하고 있습니다.이에 따라 전공위 비대위는 오늘 오후 1시 전체 전공의 대상으로 온라인 간담회를 열어 파업 유보 결정 이유 등을 설명하고 의견을 들을 예정입니다.이후 전공들의 진료 복귀 시점을 정할 계획입니다.앞서 전공의협의회 비대위 위원장은 ""모든 전공의가 참여하도록 업무 복귀 시점을 월요일 이후로 재설정하겠다""고 말했습니다.[앵커]전공의들의 업무 복구가 미뤄지면서 대형 병원들의 진료 차질은 오늘도 계속될 수밖에 없는 상황이죠?[기자]네, 전공의들이 아직 진료 현장으로 복귀하지 않으면서 대형 병원들의 진료 차질이 이어지고 있습니다.이곳 서울대병원을 포함해 대형 병원들은 기존 진료 공백 대책을 계속 시행하고 있습니다.병원들은 오늘도 외래 진료와 신규 환자 입원, 수술 일정 등을 줄였고, 교수진과 집단휴진에 참여하지 않은 전임의 등이 전공의 공백을 메우고 있습니다.병원 관계자들은 아직 진료 정상화 시점을 말하기 어렵다며 전공의협의회의 최종 결정을 기다라고 있다고 말했습니다.[앵커]의대생협의회는 의사 국가고시를 계속 거부하기로 했다는데, 관련 소식도 전해주시죠.[기자]네, 정부가 당초 예고대로 내일부터 의사 국가고시 실기시험을 진행한다고 밝혔지만, 의대생들은 시험 거부 입장을 고수하고 있습니다.의대생협회 비상대책위원회는 어제 전국 40개 의대 국가고시 응시자 대표가 만장일치로 시험 거부 결정을 내렸다고 밝혔습니다.정부·여당과 의사협회의 의료정책 합의 과정에서 전공의와 의대생들 의견이 배제됐다고 반발하는 겁니다.정부는 지난 1일부터 시행 예정이던 의사 국가고시 실기시험에 응시한 의대생 90%가량이 응시를 취소하자 1주일 연기하고 어제 자정까지 재신청을 받았는데요.아직 재신청 결과는 공개되지 않았지만 응시 거부자가 많을 경우 내년 수련병원 응급실 인턴 수급은 물론 공중보건의, 군의관 모집에도 차질이 발생할 것으로 우려됩니다.정부는 오늘 이와 관련한 대책을 밝힐 것으로 보입니다.지금까지 서울대병원에서 전해드렸습니다.연합뉴스TV 기사문의 및 제보 : 카톡/라인 jebo23(끝)"
58,연합뉴스,[세로뉴스] 의사들이 이 시국에 가운을 벗어던진 이유는,"닫기[세로뉴스] 의사들이 이 시국에 가운을 벗어던진 이유는지난 26일 의사들이 예정대로 2차 집단휴진을 진행했습니다.정부가 즉시 업무에 복귀하라고 업무개시명령을 내리자 일부 대학병원의 전공의들은 전원 사직서를 내기도 했는데요.코로나19가 재유행하는 시점에서 의사들이 한꺼번에 업무에서 손을 뗀 건 정부가 추진하려는 의료정책을 막기 위해서였습니다.도대체 어떤 정책이기에 정부와 의사들은 이토록 대립각을 세우는 걸까요?이번 주 세로뉴스에서 알아봅니다.(취재 김보윤, 편집 고민서)(끝)"
59,연합뉴스,[AM-PM] 전공의 일부 오늘 오전 진료 복귀 外,"닫기[AM-PM] 전공의 일부 오늘 오전 진료 복귀 外하루의 주요 일정을 살펴보는 보도국 AM-PM입니다.오늘의 주요 일정, 함께 보시죠.▶ 7:00 서울대·아산·삼성·성모병원 등 전공의 진료복귀정부의 의료정책에 반대하며 무기한 집단휴진을 이어왔던 전공의들 중 일부가 오늘(8일) 오전 7시를 기해 업무에 복귀합니다.병원별로 복귀 여부를 논의 중인 가운데 서울대병원과 서울아산병원, 삼성서울병원 등 서울의 '빅5' 병원 일부에서 전공의들이 전원 복귀하기로 했습니다.서울성모병원과 삼성서울병원 등은 전공의들에게 복귀 전 코로나19 검사를 받으라고 공지해, 실제 복귀까지는 다소 시간차가 날 것으로 보입니다.▶ 오늘부터 의사국시 실기시험…""응시율 14%""정부와 의사협회의 집단휴진 중단 합의로 한 차례 연기됐던 의사국가시험 실기시험이 오늘부터 시작됩니다.의대생들이 국가고시를 단체로 거부하며 응시율은 14%에 그쳤지만, 정부는 예정대로 시험을 진행하기로 했습니다.이에 대해 의사협회는 물론 오늘(8일) 업무복귀를 결정한 대한전공의협의회 비상대책위원회 역시 구제안 마련을 요구하고 있어, 이번 문제가 집단휴진 사태의 새로운 뇌관으로 떠오르는 모양샙니다.▶ 14:00 국민의힘 주호영 원내대표 교섭단체 대표연설 (국회)어제부터 본격적으로 막을 올린 국회에선 이낙연 더불어민주당 대표에 이어 주호영 국민의힘 원내대표가 교섭단체 대표연설을 합니다.당초 오전 10시에 예정됐던 본회의는 어제 국회 출입기자가 코로나19 확진 판정을 받으면서 오후 2시로 미뤄졌습니다.이 대표가 취임 후 첫 대표 연설에서 '정책 협치'를 강조한 데 대해 주 대표가 어떤 화답을 내놓을지 주목됩니다.지금까지 보도국 AM-PM이었습니다.연합뉴스TV 기사문의 및 제보 : 카톡/라인 jebo23(끝)"
